%!PS-Adobe-2.0 EPSF-2.0
%%Title: ErrorSumas.eps
%%Creator: gnuplot 4.6 patchlevel 0
%%CreationDate: Tue Oct  8 11:07:42 2013
%%DocumentFonts: (atend)
%%BoundingBox: 50 50 410 302
%%EndComments
%%BeginProlog
/gnudict 256 dict def
gnudict begin
%
% The following true/false flags may be edited by hand if desired.
% The unit line width and grayscale image gamma correction may also be changed.
%
/Color true def
/Blacktext false def
/Solid false def
/Dashlength 1 def
/Landscape false def
/Level1 false def
/Rounded false def
/ClipToBoundingBox false def
/SuppressPDFMark false def
/TransparentPatterns false def
/gnulinewidth 5.000 def
/userlinewidth gnulinewidth def
/Gamma 1.0 def
/BackgroundColor {-1.000 -1.000 -1.000} def
%
/vshift -46 def
/dl1 {
  10.0 Dashlength mul mul
  Rounded { currentlinewidth 0.75 mul sub dup 0 le { pop 0.01 } if } if
} def
/dl2 {
  10.0 Dashlength mul mul
  Rounded { currentlinewidth 0.75 mul add } if
} def
/hpt_ 31.5 def
/vpt_ 31.5 def
/hpt hpt_ def
/vpt vpt_ def
/doclip {
  ClipToBoundingBox {
    newpath 50 50 moveto 410 50 lineto 410 302 lineto 50 302 lineto closepath
    clip
  } if
} def
%
% Gnuplot Prolog Version 4.4 (August 2010)
%
%/SuppressPDFMark true def
%
/M {moveto} bind def
/L {lineto} bind def
/R {rmoveto} bind def
/V {rlineto} bind def
/N {newpath moveto} bind def
/Z {closepath} bind def
/C {setrgbcolor} bind def
/f {rlineto fill} bind def
/g {setgray} bind def
/Gshow {show} def   % May be redefined later in the file to support UTF-8
/vpt2 vpt 2 mul def
/hpt2 hpt 2 mul def
/Lshow {currentpoint stroke M 0 vshift R 
	Blacktext {gsave 0 setgray show grestore} {show} ifelse} def
/Rshow {currentpoint stroke M dup stringwidth pop neg vshift R
	Blacktext {gsave 0 setgray show grestore} {show} ifelse} def
/Cshow {currentpoint stroke M dup stringwidth pop -2 div vshift R 
	Blacktext {gsave 0 setgray show grestore} {show} ifelse} def
/UP {dup vpt_ mul /vpt exch def hpt_ mul /hpt exch def
  /hpt2 hpt 2 mul def /vpt2 vpt 2 mul def} def
/DL {Color {setrgbcolor Solid {pop []} if 0 setdash}
 {pop pop pop 0 setgray Solid {pop []} if 0 setdash} ifelse} def
/BL {stroke userlinewidth 2 mul setlinewidth
	Rounded {1 setlinejoin 1 setlinecap} if} def
/AL {stroke userlinewidth 2 div setlinewidth
	Rounded {1 setlinejoin 1 setlinecap} if} def
/UL {dup gnulinewidth mul /userlinewidth exch def
	dup 1 lt {pop 1} if 10 mul /udl exch def} def
/PL {stroke userlinewidth setlinewidth
	Rounded {1 setlinejoin 1 setlinecap} if} def
3.8 setmiterlimit
% Default Line colors
/LCw {1 1 1} def
/LCb {0 0 0} def
/LCa {0 0 0} def
/LC0 {1 0 0} def
/LC1 {0 1 0} def
/LC2 {0 0 1} def
/LC3 {1 0 1} def
/LC4 {0 1 1} def
/LC5 {1 1 0} def
/LC6 {0 0 0} def
/LC7 {1 0.3 0} def
/LC8 {0.5 0.5 0.5} def
% Default Line Types
/LTw {PL [] 1 setgray} def
/LTb {BL [] LCb DL} def
/LTa {AL [1 udl mul 2 udl mul] 0 setdash LCa setrgbcolor} def
/LT0 {PL [] LC0 DL} def
/LT1 {PL [4 dl1 2 dl2] LC1 DL} def
/LT2 {PL [2 dl1 3 dl2] LC2 DL} def
/LT3 {PL [1 dl1 1.5 dl2] LC3 DL} def
/LT4 {PL [6 dl1 2 dl2 1 dl1 2 dl2] LC4 DL} def
/LT5 {PL [3 dl1 3 dl2 1 dl1 3 dl2] LC5 DL} def
/LT6 {PL [2 dl1 2 dl2 2 dl1 6 dl2] LC6 DL} def
/LT7 {PL [1 dl1 2 dl2 6 dl1 2 dl2 1 dl1 2 dl2] LC7 DL} def
/LT8 {PL [2 dl1 2 dl2 2 dl1 2 dl2 2 dl1 2 dl2 2 dl1 4 dl2] LC8 DL} def
/Pnt {stroke [] 0 setdash gsave 1 setlinecap M 0 0 V stroke grestore} def
/Dia {stroke [] 0 setdash 2 copy vpt add M
  hpt neg vpt neg V hpt vpt neg V
  hpt vpt V hpt neg vpt V closepath stroke
  Pnt} def
/Pls {stroke [] 0 setdash vpt sub M 0 vpt2 V
  currentpoint stroke M
  hpt neg vpt neg R hpt2 0 V stroke
 } def
/Box {stroke [] 0 setdash 2 copy exch hpt sub exch vpt add M
  0 vpt2 neg V hpt2 0 V 0 vpt2 V
  hpt2 neg 0 V closepath stroke
  Pnt} def
/Crs {stroke [] 0 setdash exch hpt sub exch vpt add M
  hpt2 vpt2 neg V currentpoint stroke M
  hpt2 neg 0 R hpt2 vpt2 V stroke} def
/TriU {stroke [] 0 setdash 2 copy vpt 1.12 mul add M
  hpt neg vpt -1.62 mul V
  hpt 2 mul 0 V
  hpt neg vpt 1.62 mul V closepath stroke
  Pnt} def
/Star {2 copy Pls Crs} def
/BoxF {stroke [] 0 setdash exch hpt sub exch vpt add M
  0 vpt2 neg V hpt2 0 V 0 vpt2 V
  hpt2 neg 0 V closepath fill} def
/TriUF {stroke [] 0 setdash vpt 1.12 mul add M
  hpt neg vpt -1.62 mul V
  hpt 2 mul 0 V
  hpt neg vpt 1.62 mul V closepath fill} def
/TriD {stroke [] 0 setdash 2 copy vpt 1.12 mul sub M
  hpt neg vpt 1.62 mul V
  hpt 2 mul 0 V
  hpt neg vpt -1.62 mul V closepath stroke
  Pnt} def
/TriDF {stroke [] 0 setdash vpt 1.12 mul sub M
  hpt neg vpt 1.62 mul V
  hpt 2 mul 0 V
  hpt neg vpt -1.62 mul V closepath fill} def
/DiaF {stroke [] 0 setdash vpt add M
  hpt neg vpt neg V hpt vpt neg V
  hpt vpt V hpt neg vpt V closepath fill} def
/Pent {stroke [] 0 setdash 2 copy gsave
  translate 0 hpt M 4 {72 rotate 0 hpt L} repeat
  closepath stroke grestore Pnt} def
/PentF {stroke [] 0 setdash gsave
  translate 0 hpt M 4 {72 rotate 0 hpt L} repeat
  closepath fill grestore} def
/Circle {stroke [] 0 setdash 2 copy
  hpt 0 360 arc stroke Pnt} def
/CircleF {stroke [] 0 setdash hpt 0 360 arc fill} def
/C0 {BL [] 0 setdash 2 copy moveto vpt 90 450 arc} bind def
/C1 {BL [] 0 setdash 2 copy moveto
	2 copy vpt 0 90 arc closepath fill
	vpt 0 360 arc closepath} bind def
/C2 {BL [] 0 setdash 2 copy moveto
	2 copy vpt 90 180 arc closepath fill
	vpt 0 360 arc closepath} bind def
/C3 {BL [] 0 setdash 2 copy moveto
	2 copy vpt 0 180 arc closepath fill
	vpt 0 360 arc closepath} bind def
/C4 {BL [] 0 setdash 2 copy moveto
	2 copy vpt 180 270 arc closepath fill
	vpt 0 360 arc closepath} bind def
/C5 {BL [] 0 setdash 2 copy moveto
	2 copy vpt 0 90 arc
	2 copy moveto
	2 copy vpt 180 270 arc closepath fill
	vpt 0 360 arc} bind def
/C6 {BL [] 0 setdash 2 copy moveto
	2 copy vpt 90 270 arc closepath fill
	vpt 0 360 arc closepath} bind def
/C7 {BL [] 0 setdash 2 copy moveto
	2 copy vpt 0 270 arc closepath fill
	vpt 0 360 arc closepath} bind def
/C8 {BL [] 0 setdash 2 copy moveto
	2 copy vpt 270 360 arc closepath fill
	vpt 0 360 arc closepath} bind def
/C9 {BL [] 0 setdash 2 copy moveto
	2 copy vpt 270 450 arc closepath fill
	vpt 0 360 arc closepath} bind def
/C10 {BL [] 0 setdash 2 copy 2 copy moveto vpt 270 360 arc closepath fill
	2 copy moveto
	2 copy vpt 90 180 arc closepath fill
	vpt 0 360 arc closepath} bind def
/C11 {BL [] 0 setdash 2 copy moveto
	2 copy vpt 0 180 arc closepath fill
	2 copy moveto
	2 copy vpt 270 360 arc closepath fill
	vpt 0 360 arc closepath} bind def
/C12 {BL [] 0 setdash 2 copy moveto
	2 copy vpt 180 360 arc closepath fill
	vpt 0 360 arc closepath} bind def
/C13 {BL [] 0 setdash 2 copy moveto
	2 copy vpt 0 90 arc closepath fill
	2 copy moveto
	2 copy vpt 180 360 arc closepath fill
	vpt 0 360 arc closepath} bind def
/C14 {BL [] 0 setdash 2 copy moveto
	2 copy vpt 90 360 arc closepath fill
	vpt 0 360 arc} bind def
/C15 {BL [] 0 setdash 2 copy vpt 0 360 arc closepath fill
	vpt 0 360 arc closepath} bind def
/Rec {newpath 4 2 roll moveto 1 index 0 rlineto 0 exch rlineto
	neg 0 rlineto closepath} bind def
/Square {dup Rec} bind def
/Bsquare {vpt sub exch vpt sub exch vpt2 Square} bind def
/S0 {BL [] 0 setdash 2 copy moveto 0 vpt rlineto BL Bsquare} bind def
/S1 {BL [] 0 setdash 2 copy vpt Square fill Bsquare} bind def
/S2 {BL [] 0 setdash 2 copy exch vpt sub exch vpt Square fill Bsquare} bind def
/S3 {BL [] 0 setdash 2 copy exch vpt sub exch vpt2 vpt Rec fill Bsquare} bind def
/S4 {BL [] 0 setdash 2 copy exch vpt sub exch vpt sub vpt Square fill Bsquare} bind def
/S5 {BL [] 0 setdash 2 copy 2 copy vpt Square fill
	exch vpt sub exch vpt sub vpt Square fill Bsquare} bind def
/S6 {BL [] 0 setdash 2 copy exch vpt sub exch vpt sub vpt vpt2 Rec fill Bsquare} bind def
/S7 {BL [] 0 setdash 2 copy exch vpt sub exch vpt sub vpt vpt2 Rec fill
	2 copy vpt Square fill Bsquare} bind def
/S8 {BL [] 0 setdash 2 copy vpt sub vpt Square fill Bsquare} bind def
/S9 {BL [] 0 setdash 2 copy vpt sub vpt vpt2 Rec fill Bsquare} bind def
/S10 {BL [] 0 setdash 2 copy vpt sub vpt Square fill 2 copy exch vpt sub exch vpt Square fill
	Bsquare} bind def
/S11 {BL [] 0 setdash 2 copy vpt sub vpt Square fill 2 copy exch vpt sub exch vpt2 vpt Rec fill
	Bsquare} bind def
/S12 {BL [] 0 setdash 2 copy exch vpt sub exch vpt sub vpt2 vpt Rec fill Bsquare} bind def
/S13 {BL [] 0 setdash 2 copy exch vpt sub exch vpt sub vpt2 vpt Rec fill
	2 copy vpt Square fill Bsquare} bind def
/S14 {BL [] 0 setdash 2 copy exch vpt sub exch vpt sub vpt2 vpt Rec fill
	2 copy exch vpt sub exch vpt Square fill Bsquare} bind def
/S15 {BL [] 0 setdash 2 copy Bsquare fill Bsquare} bind def
/D0 {gsave translate 45 rotate 0 0 S0 stroke grestore} bind def
/D1 {gsave translate 45 rotate 0 0 S1 stroke grestore} bind def
/D2 {gsave translate 45 rotate 0 0 S2 stroke grestore} bind def
/D3 {gsave translate 45 rotate 0 0 S3 stroke grestore} bind def
/D4 {gsave translate 45 rotate 0 0 S4 stroke grestore} bind def
/D5 {gsave translate 45 rotate 0 0 S5 stroke grestore} bind def
/D6 {gsave translate 45 rotate 0 0 S6 stroke grestore} bind def
/D7 {gsave translate 45 rotate 0 0 S7 stroke grestore} bind def
/D8 {gsave translate 45 rotate 0 0 S8 stroke grestore} bind def
/D9 {gsave translate 45 rotate 0 0 S9 stroke grestore} bind def
/D10 {gsave translate 45 rotate 0 0 S10 stroke grestore} bind def
/D11 {gsave translate 45 rotate 0 0 S11 stroke grestore} bind def
/D12 {gsave translate 45 rotate 0 0 S12 stroke grestore} bind def
/D13 {gsave translate 45 rotate 0 0 S13 stroke grestore} bind def
/D14 {gsave translate 45 rotate 0 0 S14 stroke grestore} bind def
/D15 {gsave translate 45 rotate 0 0 S15 stroke grestore} bind def
/DiaE {stroke [] 0 setdash vpt add M
  hpt neg vpt neg V hpt vpt neg V
  hpt vpt V hpt neg vpt V closepath stroke} def
/BoxE {stroke [] 0 setdash exch hpt sub exch vpt add M
  0 vpt2 neg V hpt2 0 V 0 vpt2 V
  hpt2 neg 0 V closepath stroke} def
/TriUE {stroke [] 0 setdash vpt 1.12 mul add M
  hpt neg vpt -1.62 mul V
  hpt 2 mul 0 V
  hpt neg vpt 1.62 mul V closepath stroke} def
/TriDE {stroke [] 0 setdash vpt 1.12 mul sub M
  hpt neg vpt 1.62 mul V
  hpt 2 mul 0 V
  hpt neg vpt -1.62 mul V closepath stroke} def
/PentE {stroke [] 0 setdash gsave
  translate 0 hpt M 4 {72 rotate 0 hpt L} repeat
  closepath stroke grestore} def
/CircE {stroke [] 0 setdash 
  hpt 0 360 arc stroke} def
/Opaque {gsave closepath 1 setgray fill grestore 0 setgray closepath} def
/DiaW {stroke [] 0 setdash vpt add M
  hpt neg vpt neg V hpt vpt neg V
  hpt vpt V hpt neg vpt V Opaque stroke} def
/BoxW {stroke [] 0 setdash exch hpt sub exch vpt add M
  0 vpt2 neg V hpt2 0 V 0 vpt2 V
  hpt2 neg 0 V Opaque stroke} def
/TriUW {stroke [] 0 setdash vpt 1.12 mul add M
  hpt neg vpt -1.62 mul V
  hpt 2 mul 0 V
  hpt neg vpt 1.62 mul V Opaque stroke} def
/TriDW {stroke [] 0 setdash vpt 1.12 mul sub M
  hpt neg vpt 1.62 mul V
  hpt 2 mul 0 V
  hpt neg vpt -1.62 mul V Opaque stroke} def
/PentW {stroke [] 0 setdash gsave
  translate 0 hpt M 4 {72 rotate 0 hpt L} repeat
  Opaque stroke grestore} def
/CircW {stroke [] 0 setdash 
  hpt 0 360 arc Opaque stroke} def
/BoxFill {gsave Rec 1 setgray fill grestore} def
/Density {
  /Fillden exch def
  currentrgbcolor
  /ColB exch def /ColG exch def /ColR exch def
  /ColR ColR Fillden mul Fillden sub 1 add def
  /ColG ColG Fillden mul Fillden sub 1 add def
  /ColB ColB Fillden mul Fillden sub 1 add def
  ColR ColG ColB setrgbcolor} def
/BoxColFill {gsave Rec PolyFill} def
/PolyFill {gsave Density fill grestore grestore} def
/h {rlineto rlineto rlineto gsave closepath fill grestore} bind def
%
% PostScript Level 1 Pattern Fill routine for rectangles
% Usage: x y w h s a XX PatternFill
%	x,y = lower left corner of box to be filled
%	w,h = width and height of box
%	  a = angle in degrees between lines and x-axis
%	 XX = 0/1 for no/yes cross-hatch
%
/PatternFill {gsave /PFa [ 9 2 roll ] def
  PFa 0 get PFa 2 get 2 div add PFa 1 get PFa 3 get 2 div add translate
  PFa 2 get -2 div PFa 3 get -2 div PFa 2 get PFa 3 get Rec
  gsave 1 setgray fill grestore clip
  currentlinewidth 0.5 mul setlinewidth
  /PFs PFa 2 get dup mul PFa 3 get dup mul add sqrt def
  0 0 M PFa 5 get rotate PFs -2 div dup translate
  0 1 PFs PFa 4 get div 1 add floor cvi
	{PFa 4 get mul 0 M 0 PFs V} for
  0 PFa 6 get ne {
	0 1 PFs PFa 4 get div 1 add floor cvi
	{PFa 4 get mul 0 2 1 roll M PFs 0 V} for
 } if
  stroke grestore} def
%
/languagelevel where
 {pop languagelevel} {1} ifelse
 2 lt
	{/InterpretLevel1 true def}
	{/InterpretLevel1 Level1 def}
 ifelse
%
% PostScript level 2 pattern fill definitions
%
/Level2PatternFill {
/Tile8x8 {/PaintType 2 /PatternType 1 /TilingType 1 /BBox [0 0 8 8] /XStep 8 /YStep 8}
	bind def
/KeepColor {currentrgbcolor [/Pattern /DeviceRGB] setcolorspace} bind def
<< Tile8x8
 /PaintProc {0.5 setlinewidth pop 0 0 M 8 8 L 0 8 M 8 0 L stroke} 
>> matrix makepattern
/Pat1 exch def
<< Tile8x8
 /PaintProc {0.5 setlinewidth pop 0 0 M 8 8 L 0 8 M 8 0 L stroke
	0 4 M 4 8 L 8 4 L 4 0 L 0 4 L stroke}
>> matrix makepattern
/Pat2 exch def
<< Tile8x8
 /PaintProc {0.5 setlinewidth pop 0 0 M 0 8 L
	8 8 L 8 0 L 0 0 L fill}
>> matrix makepattern
/Pat3 exch def
<< Tile8x8
 /PaintProc {0.5 setlinewidth pop -4 8 M 8 -4 L
	0 12 M 12 0 L stroke}
>> matrix makepattern
/Pat4 exch def
<< Tile8x8
 /PaintProc {0.5 setlinewidth pop -4 0 M 8 12 L
	0 -4 M 12 8 L stroke}
>> matrix makepattern
/Pat5 exch def
<< Tile8x8
 /PaintProc {0.5 setlinewidth pop -2 8 M 4 -4 L
	0 12 M 8 -4 L 4 12 M 10 0 L stroke}
>> matrix makepattern
/Pat6 exch def
<< Tile8x8
 /PaintProc {0.5 setlinewidth pop -2 0 M 4 12 L
	0 -4 M 8 12 L 4 -4 M 10 8 L stroke}
>> matrix makepattern
/Pat7 exch def
<< Tile8x8
 /PaintProc {0.5 setlinewidth pop 8 -2 M -4 4 L
	12 0 M -4 8 L 12 4 M 0 10 L stroke}
>> matrix makepattern
/Pat8 exch def
<< Tile8x8
 /PaintProc {0.5 setlinewidth pop 0 -2 M 12 4 L
	-4 0 M 12 8 L -4 4 M 8 10 L stroke}
>> matrix makepattern
/Pat9 exch def
/Pattern1 {PatternBgnd KeepColor Pat1 setpattern} bind def
/Pattern2 {PatternBgnd KeepColor Pat2 setpattern} bind def
/Pattern3 {PatternBgnd KeepColor Pat3 setpattern} bind def
/Pattern4 {PatternBgnd KeepColor Landscape {Pat5} {Pat4} ifelse setpattern} bind def
/Pattern5 {PatternBgnd KeepColor Landscape {Pat4} {Pat5} ifelse setpattern} bind def
/Pattern6 {PatternBgnd KeepColor Landscape {Pat9} {Pat6} ifelse setpattern} bind def
/Pattern7 {PatternBgnd KeepColor Landscape {Pat8} {Pat7} ifelse setpattern} bind def
} def
%
%
%End of PostScript Level 2 code
%
/PatternBgnd {
  TransparentPatterns {} {gsave 1 setgray fill grestore} ifelse
} def
%
% Substitute for Level 2 pattern fill codes with
% grayscale if Level 2 support is not selected.
%
/Level1PatternFill {
/Pattern1 {0.250 Density} bind def
/Pattern2 {0.500 Density} bind def
/Pattern3 {0.750 Density} bind def
/Pattern4 {0.125 Density} bind def
/Pattern5 {0.375 Density} bind def
/Pattern6 {0.625 Density} bind def
/Pattern7 {0.875 Density} bind def
} def
%
% Now test for support of Level 2 code
%
Level1 {Level1PatternFill} {Level2PatternFill} ifelse
%
/Symbol-Oblique /Symbol findfont [1 0 .167 1 0 0] makefont
dup length dict begin {1 index /FID eq {pop pop} {def} ifelse} forall
currentdict end definefont pop
/MFshow {
   { dup 5 get 3 ge
     { 5 get 3 eq {gsave} {grestore} ifelse }
     {dup dup 0 get findfont exch 1 get scalefont setfont
     [ currentpoint ] exch dup 2 get 0 exch R dup 5 get 2 ne {dup dup 6
     get exch 4 get {Gshow} {stringwidth pop 0 R} ifelse }if dup 5 get 0 eq
     {dup 3 get {2 get neg 0 exch R pop} {pop aload pop M} ifelse} {dup 5
     get 1 eq {dup 2 get exch dup 3 get exch 6 get stringwidth pop -2 div
     dup 0 R} {dup 6 get stringwidth pop -2 div 0 R 6 get
     show 2 index {aload pop M neg 3 -1 roll neg R pop pop} {pop pop pop
     pop aload pop M} ifelse }ifelse }ifelse }
     ifelse }
   forall} def
/Gswidth {dup type /stringtype eq {stringwidth} {pop (n) stringwidth} ifelse} def
/MFwidth {0 exch { dup 5 get 3 ge { 5 get 3 eq { 0 } { pop } ifelse }
 {dup 3 get{dup dup 0 get findfont exch 1 get scalefont setfont
     6 get Gswidth pop add} {pop} ifelse} ifelse} forall} def
/MLshow { currentpoint stroke M
  0 exch R
  Blacktext {gsave 0 setgray MFshow grestore} {MFshow} ifelse } bind def
/MRshow { currentpoint stroke M
  exch dup MFwidth neg 3 -1 roll R
  Blacktext {gsave 0 setgray MFshow grestore} {MFshow} ifelse } bind def
/MCshow { currentpoint stroke M
  exch dup MFwidth -2 div 3 -1 roll R
  Blacktext {gsave 0 setgray MFshow grestore} {MFshow} ifelse } bind def
/XYsave    { [( ) 1 2 true false 3 ()] } bind def
/XYrestore { [( ) 1 2 true false 4 ()] } bind def
Level1 SuppressPDFMark or 
{} {
/SDict 10 dict def
systemdict /pdfmark known not {
  userdict /pdfmark systemdict /cleartomark get put
} if
SDict begin [
  /Title (ErrorSumas.eps)
  /Subject (gnuplot plot)
  /Creator (gnuplot 4.6 patchlevel 0)
  /Author (joagonzalezve)
%  /Producer (gnuplot)
%  /Keywords ()
  /CreationDate (Tue Oct  8 11:07:42 2013)
  /DOCINFO pdfmark
end
} ifelse
end
%%EndProlog
%%Page: 1 1
gnudict begin
gsave
doclip
50 50 translate
0.050 0.050 scale
0 setgray
newpath
(Helvetica) findfont 140 scalefont setfont
BackgroundColor 0 lt 3 1 roll 0 lt exch 0 lt or or not {BackgroundColor C 1.000 0 0 7200.00 5040.00 BoxColFill} if
1.000 UL
LTb
798 280 M
63 0 V
6086 0 R
-63 0 V
stroke
714 280 M
[ [(Helvetica) 140.0 0.0 true true 0 (0.00000)]
] -46.7 MRshow
1.000 UL
LTb
798 790 M
63 0 V
6086 0 R
-63 0 V
stroke
714 790 M
[ [(Helvetica) 140.0 0.0 true true 0 (0.00001)]
] -46.7 MRshow
1.000 UL
LTb
798 1300 M
63 0 V
6086 0 R
-63 0 V
stroke
714 1300 M
[ [(Helvetica) 140.0 0.0 true true 0 (0.00002)]
] -46.7 MRshow
1.000 UL
LTb
798 1810 M
63 0 V
6086 0 R
-63 0 V
stroke
714 1810 M
[ [(Helvetica) 140.0 0.0 true true 0 (0.00003)]
] -46.7 MRshow
1.000 UL
LTb
798 2320 M
63 0 V
6086 0 R
-63 0 V
stroke
714 2320 M
[ [(Helvetica) 140.0 0.0 true true 0 (0.00004)]
] -46.7 MRshow
1.000 UL
LTb
798 2831 M
63 0 V
6086 0 R
-63 0 V
stroke
714 2831 M
[ [(Helvetica) 140.0 0.0 true true 0 (0.00005)]
] -46.7 MRshow
1.000 UL
LTb
798 3341 M
63 0 V
6086 0 R
-63 0 V
stroke
714 3341 M
[ [(Helvetica) 140.0 0.0 true true 0 (0.00006)]
] -46.7 MRshow
1.000 UL
LTb
798 3851 M
63 0 V
6086 0 R
-63 0 V
stroke
714 3851 M
[ [(Helvetica) 140.0 0.0 true true 0 (0.00007)]
] -46.7 MRshow
1.000 UL
LTb
798 4361 M
63 0 V
6086 0 R
-63 0 V
stroke
714 4361 M
[ [(Helvetica) 140.0 0.0 true true 0 (0.00008)]
] -46.7 MRshow
1.000 UL
LTb
798 4871 M
63 0 V
6086 0 R
-63 0 V
stroke
714 4871 M
[ [(Helvetica) 140.0 0.0 true true 0 (0.00009)]
] -46.7 MRshow
1.000 UL
LTb
798 280 M
0 63 V
0 4528 R
0 -63 V
stroke
798 140 M
[ [(Helvetica) 140.0 0.0 true true 0 ( 0)]
] -46.7 MCshow
1.000 UL
LTb
1413 280 M
0 63 V
0 4528 R
0 -63 V
stroke
1413 140 M
[ [(Helvetica) 140.0 0.0 true true 0 ( 100)]
] -46.7 MCshow
1.000 UL
LTb
2028 280 M
0 63 V
0 4528 R
0 -63 V
stroke
2028 140 M
[ [(Helvetica) 140.0 0.0 true true 0 ( 200)]
] -46.7 MCshow
1.000 UL
LTb
2643 280 M
0 63 V
0 4528 R
0 -63 V
stroke
2643 140 M
[ [(Helvetica) 140.0 0.0 true true 0 ( 300)]
] -46.7 MCshow
1.000 UL
LTb
3258 280 M
0 63 V
0 4528 R
0 -63 V
stroke
3258 140 M
[ [(Helvetica) 140.0 0.0 true true 0 ( 400)]
] -46.7 MCshow
1.000 UL
LTb
3873 280 M
0 63 V
0 4528 R
0 -63 V
stroke
3873 140 M
[ [(Helvetica) 140.0 0.0 true true 0 ( 500)]
] -46.7 MCshow
1.000 UL
LTb
4487 280 M
0 63 V
0 4528 R
0 -63 V
stroke
4487 140 M
[ [(Helvetica) 140.0 0.0 true true 0 ( 600)]
] -46.7 MCshow
1.000 UL
LTb
5102 280 M
0 63 V
0 4528 R
0 -63 V
stroke
5102 140 M
[ [(Helvetica) 140.0 0.0 true true 0 ( 700)]
] -46.7 MCshow
1.000 UL
LTb
5717 280 M
0 63 V
0 4528 R
0 -63 V
stroke
5717 140 M
[ [(Helvetica) 140.0 0.0 true true 0 ( 800)]
] -46.7 MCshow
1.000 UL
LTb
6332 280 M
0 63 V
0 4528 R
0 -63 V
stroke
6332 140 M
[ [(Helvetica) 140.0 0.0 true true 0 ( 900)]
] -46.7 MCshow
1.000 UL
LTb
6947 280 M
0 63 V
0 4528 R
0 -63 V
stroke
6947 140 M
[ [(Helvetica) 140.0 0.0 true true 0 ( 1000)]
] -46.7 MCshow
1.000 UL
LTb
1.000 UL
LTb
798 4871 N
798 280 L
6149 0 V
0 4591 V
-6149 0 V
Z stroke
1.000 UP
1.000 UL
LTb
% Begin plot #1
1.000 UP
1.000 UL
LT0
LCb setrgbcolor
6296 4738 M
[ [(Helvetica) 140.0 0.0 true true 0 (ErrorSuma1)]
] -46.7 MRshow
LT0
804 432 Pls
810 327 Pls
816 292 Pls
823 424 Pls
829 309 Pls
835 526 Pls
841 517 Pls
847 578 Pls
853 373 Pls
859 637 Pls
866 578 Pls
872 548 Pls
878 370 Pls
884 291 Pls
890 309 Pls
896 325 Pls
903 326 Pls
909 333 Pls
915 497 Pls
921 507 Pls
927 722 Pls
933 559 Pls
939 604 Pls
946 778 Pls
952 573 Pls
958 597 Pls
964 489 Pls
970 509 Pls
976 305 Pls
982 367 Pls
989 440 Pls
995 424 Pls
1001 458 Pls
1007 667 Pls
1013 867 Pls
1019 879 Pls
1026 800 Pls
1032 718 Pls
1038 910 Pls
1044 987 Pls
1050 1050 Pls
1056 798 Pls
1062 640 Pls
1069 778 Pls
1075 778 Pls
1081 648 Pls
1087 897 Pls
1093 1075 Pls
1099 827 Pls
1105 938 Pls
1112 854 Pls
1118 729 Pls
1124 941 Pls
1130 1122 Pls
1136 1177 Pls
1142 1311 Pls
1148 1539 Pls
1155 1703 Pls
1161 1490 Pls
1167 1445 Pls
1173 1479 Pls
1179 1379 Pls
1185 1324 Pls
1192 1386 Pls
1198 1542 Pls
1204 1683 Pls
1210 1613 Pls
1216 1564 Pls
1222 1697 Pls
1228 1607 Pls
1235 1826 Pls
1241 1833 Pls
1247 2050 Pls
1253 1852 Pls
1259 2068 Pls
1265 1982 Pls
1271 1840 Pls
1278 1847 Pls
1284 1677 Pls
1290 1466 Pls
1296 1322 Pls
1302 1322 Pls
1308 1517 Pls
1315 1430 Pls
1321 1562 Pls
1327 1388 Pls
1333 1364 Pls
1339 1424 Pls
1345 1482 Pls
1351 1437 Pls
1358 1666 Pls
1364 1534 Pls
1370 1387 Pls
1376 1559 Pls
1382 1368 Pls
1388 1121 Pls
1394 1111 Pls
1401 1119 Pls
1407 915 Pls
1413 759 Pls
1419 899 Pls
1425 1076 Pls
1431 1019 Pls
1437 951 Pls
1444 1083 Pls
1450 1122 Pls
1456 1265 Pls
1462 1202 Pls
1468 1116 Pls
1474 1184 Pls
1481 1077 Pls
1487 958 Pls
1493 986 Pls
1499 815 Pls
1505 593 Pls
1511 460 Pls
1517 556 Pls
1524 513 Pls
1530 461 Pls
1536 523 Pls
1542 322 Pls
1548 471 Pls
1554 584 Pls
1560 770 Pls
1567 637 Pls
1573 783 Pls
1579 811 Pls
1585 815 Pls
1591 888 Pls
1597 1120 Pls
1604 1100 Pls
1610 912 Pls
1616 1137 Pls
1622 1355 Pls
1628 1147 Pls
1634 1085 Pls
1640 1241 Pls
1647 1189 Pls
1653 997 Pls
1659 1230 Pls
1665 1454 Pls
1671 1234 Pls
1677 1130 Pls
1683 1202 Pls
1690 1008 Pls
1696 1104 Pls
1702 1046 Pls
1708 888 Pls
1714 681 Pls
1720 476 Pls
1726 322 Pls
1733 293 Pls
1739 358 Pls
1745 418 Pls
1751 399 Pls
1757 599 Pls
1763 478 Pls
1770 494 Pls
1776 607 Pls
1782 776 Pls
1788 965 Pls
1794 1137 Pls
1800 1254 Pls
1806 1283 Pls
1813 1188 Pls
1819 1434 Pls
1825 1490 Pls
1831 1324 Pls
1837 1402 Pls
1843 1197 Pls
1849 1176 Pls
1856 1311 Pls
1862 1074 Pls
1868 936 Pls
1874 869 Pls
1880 848 Pls
1886 846 Pls
1893 837 Pls
1899 798 Pls
1905 703 Pls
1911 529 Pls
1917 751 Pls
1923 847 Pls
1929 797 Pls
1936 577 Pls
1942 665 Pls
1948 542 Pls
1954 685 Pls
1960 577 Pls
1966 696 Pls
1972 525 Pls
1979 542 Pls
1985 730 Pls
1991 574 Pls
1997 552 Pls
2003 648 Pls
2009 845 Pls
2016 629 Pls
2022 481 Pls
2028 386 Pls
2034 327 Pls
2040 289 Pls
2046 302 Pls
2052 341 Pls
2059 403 Pls
2065 501 Pls
2071 650 Pls
2077 863 Pls
2083 657 Pls
2089 540 Pls
2095 527 Pls
2102 630 Pls
2108 861 Pls
2114 735 Pls
2120 761 Pls
2126 951 Pls
2132 818 Pls
2138 873 Pls
2145 627 Pls
2151 590 Pls
2157 772 Pls
2163 686 Pls
2169 840 Pls
2175 746 Pls
2182 912 Pls
2188 849 Pls
2194 1066 Pls
2200 1074 Pls
2206 882 Pls
2212 997 Pls
2218 930 Pls
2225 690 Pls
2231 783 Pls
2237 720 Pls
2243 509 Pls
2249 656 Pls
2255 672 Pls
2261 564 Pls
2268 341 Pls
2274 506 Pls
2280 571 Pls
2286 542 Pls
2292 428 Pls
2298 325 Pls
2305 467 Pls
2311 635 Pls
2317 744 Pls
2323 802 Pls
2329 816 Pls
2335 791 Pls
2341 734 Pls
2348 651 Pls
2354 550 Pls
2360 434 Pls
2366 312 Pls
2372 372 Pls
2378 492 Pls
2384 602 Pls
2391 695 Pls
2397 768 Pls
2403 814 Pls
2409 828 Pls
2415 805 Pls
2421 739 Pls
2427 626 Pls
2434 459 Pls
2440 324 Pls
2446 446 Pls
2452 589 Pls
2458 660 Pls
2464 654 Pls
2471 567 Pls
2477 393 Pls
2483 626 Pls
2489 764 Pls
2495 802 Pls
2501 737 Pls
2507 565 Pls
2514 777 Pls
2520 873 Pls
2526 849 Pls
2532 700 Pls
2538 921 Pls
2544 1009 Pls
2550 962 Pls
2557 775 Pls
2563 941 Pls
2569 961 Pls
2575 830 Pls
2581 1042 Pls
2587 1096 Pls
2594 988 Pls
2600 1213 Pls
2606 1270 Pls
2612 1156 Pls
2618 1364 Pls
2624 1394 Pls
2630 1243 Pls
2637 1405 Pls
2643 1379 Pls
2649 1163 Pls
2655 1250 Pls
2661 1141 Pls
2667 1330 Pls
2673 1316 Pls
2680 1096 Pls
2686 1166 Pls
2692 1025 Pls
2698 1166 Pls
2704 1092 Pls
2710 1295 Pls
2716 1277 Pls
2723 1034 Pls
2729 1061 Pls
2735 859 Pls
2741 921 Pls
2747 749 Pls
2753 837 Pls
2760 685 Pls
2766 789 Pls
2772 648 Pls
2778 757 Pls
2784 617 Pls
2790 723 Pls
2796 576 Pls
2803 669 Pls
2809 505 Pls
2815 578 Pls
2821 388 Pls
2827 431 Pls
2833 353 Pls
2839 348 Pls
2846 443 Pls
2852 401 Pls
2858 582 Pls
2864 486 Pls
2870 608 Pls
2876 449 Pls
2883 505 Pls
2889 283 Pls
2895 300 Pls
2901 451 Pls
2907 353 Pls
2913 459 Pls
2919 287 Pls
2926 288 Pls
2932 503 Pls
2938 419 Pls
2944 532 Pls
2950 343 Pls
2956 347 Pls
2962 542 Pls
2969 431 Pls
2975 508 Pls
2981 285 Pls
2987 333 Pls
2993 362 Pls
2999 377 Pls
3005 376 Pls
3012 364 Pls
3018 335 Pls
3024 298 Pls
3030 474 Pls
3036 362 Pls
3042 422 Pls
3049 652 Pls
3055 554 Pls
3061 624 Pls
3067 860 Pls
3073 764 Pls
3079 832 Pls
3085 1062 Pls
3092 956 Pls
3098 1010 Pls
3104 1222 Pls
3110 1095 Pls
3116 1123 Pls
3122 1306 Pls
3128 1146 Pls
3135 1137 Pls
3141 1280 Pls
3147 1076 Pls
3153 1021 Pls
3159 1112 Pls
3165 1351 Pls
3172 1237 Pls
3178 1268 Pls
3184 1442 Pls
3190 1261 Pls
3196 1220 Pls
3202 1320 Pls
3208 1557 Pls
3215 1436 Pls
3221 1451 Pls
3227 1602 Pls
3233 1391 Pls
3239 1313 Pls
3245 1367 Pls
3251 1553 Pls
3258 1372 Pls
3264 1321 Pls
3270 1399 Pls
3276 1604 Pls
3282 1439 Pls
3288 1399 Pls
3294 1485 Pls
3301 1694 Pls
3307 1529 Pls
3313 1487 Pls
3319 1565 Pls
3325 1764 Pls
3331 1586 Pls
3338 1526 Pls
3344 1584 Pls
3350 1758 Pls
3356 1552 Pls
3362 1461 Pls
3368 1484 Pls
3374 1621 Pls
3381 1374 Pls
3387 1238 Pls
3393 1214 Pls
3399 1300 Pls
3405 1495 Pls
3411 1303 Pls
3417 1218 Pls
3424 1241 Pls
3430 1370 Pls
3436 1605 Pls
3442 1448 Pls
3448 1396 Pls
3454 1447 Pls
3461 1600 Pls
3467 1360 Pls
3473 1220 Pls
3479 1182 Pls
3485 1243 Pls
3491 1404 Pls
3497 1167 Pls
3504 1028 Pls
3510 986 Pls
3516 1040 Pls
3522 1191 Pls
3528 1437 Pls
3534 1281 Pls
3540 1219 Pls
3547 1251 Pls
3553 1375 Pls
3559 1592 Pls
3565 1404 Pls
3571 1307 Pls
3577 1300 Pls
3583 1382 Pls
3590 1554 Pls
3596 1318 Pls
3602 1170 Pls
3608 1110 Pls
3614 1136 Pls
3620 1248 Pls
3627 1447 Pls
3633 1234 Pls
3639 1105 Pls
3645 1061 Pls
3651 1100 Pls
3657 1222 Pls
3663 1427 Pls
3670 1217 Pls
3676 1088 Pls
3682 1040 Pls
3688 1073 Pls
3694 1185 Pls
3700 1377 Pls
3706 1151 Pls
3713 1004 Pls
3719 934 Pls
3725 942 Pls
3731 1026 Pls
3737 1187 Pls
3743 1424 Pls
3750 1240 Pls
3756 1131 Pls
3762 1096 Pls
3768 1135 Pls
3774 1248 Pls
3780 1434 Pls
3786 1196 Pls
3793 1031 Pls
3799 937 Pls
3805 915 Pls
3811 963 Pls
3817 1082 Pls
3823 1271 Pls
3829 1033 Pls
3836 865 Pls
3842 765 Pls
3848 733 Pls
3854 770 Pls
3860 874 Pls
3866 1045 Pls
3873 1282 Pls
3879 1090 Pls
3885 964 Pls
3891 903 Pls
3897 907 Pls
3903 977 Pls
3909 1110 Pls
3916 1307 Pls
3922 1072 Pls
3928 900 Pls
3934 791 Pls
3940 745 Pls
3946 760 Pls
3952 837 Pls
3959 976 Pls
3965 1176 Pls
3971 940 Pls
3977 764 Pls
3983 649 Pls
3989 593 Pls
3995 596 Pls
4002 658 Pls
4008 779 Pls
4014 959 Pls
4020 1196 Pls
4026 994 Pls
4032 850 Pls
4039 763 Pls
4045 733 Pls
4051 758 Pls
4057 840 Pls
4063 978 Pls
4069 1170 Pls
4075 1418 Pls
4082 1225 Pls
4088 1086 Pls
4094 1001 Pls
4100 970 Pls
4106 992 Pls
4112 1068 Pls
4118 1196 Pls
4125 1377 Pls
4131 1611 Pls
4137 1400 Pls
4143 1242 Pls
4149 1134 Pls
4155 1078 Pls
4162 1073 Pls
4168 1119 Pls
4174 1214 Pls
4180 1360 Pls
4186 1556 Pls
4192 1802 Pls
4198 1600 Pls
4205 1448 Pls
4211 1344 Pls
4217 1289 Pls
4223 1282 Pls
4229 1323 Pls
4235 1412 Pls
4241 1548 Pls
4248 1731 Pls
4254 1961 Pls
4260 1742 Pls
4266 1570 Pls
4272 1443 Pls
4278 1363 Pls
4284 1328 Pls
4291 1339 Pls
4297 1395 Pls
4303 1496 Pls
4309 1642 Pls
4315 1832 Pls
4321 2067 Pls
4328 1849 Pls
4334 1675 Pls
4340 1545 Pls
4346 1459 Pls
4352 1415 Pls
4358 1415 Pls
4364 1457 Pls
4371 1542 Pls
4377 1669 Pls
4383 1838 Pls
4389 2049 Pls
4395 1805 Pls
4401 1603 Pls
4407 1442 Pls
4414 1322 Pls
4420 1243 Pls
4426 1204 Pls
4432 1206 Pls
4438 1248 Pls
4444 1330 Pls
4451 1451 Pls
4457 1612 Pls
4463 1813 Pls
4469 2053 Pls
4475 1835 Pls
4481 1657 Pls
4487 1517 Pls
4494 1415 Pls
4500 1351 Pls
4506 1326 Pls
4512 1338 Pls
4518 1388 Pls
4524 1476 Pls
4530 1601 Pls
4537 1762 Pls
4543 1961 Pls
4549 2196 Pls
4555 1972 Pls
4561 1784 Pls
4567 1633 Pls
4573 1517 Pls
4580 1437 Pls
4586 1393 Pls
4592 1385 Pls
4598 1411 Pls
4604 1473 Pls
4610 1570 Pls
4617 1701 Pls
4623 1867 Pls
4629 2068 Pls
4635 2303 Pls
4641 2076 Pls
4647 1883 Pls
4653 1723 Pls
4660 1598 Pls
4666 1506 Pls
4672 1447 Pls
4678 1421 Pls
4684 1429 Pls
4690 1469 Pls
4696 1542 Pls
4703 1647 Pls
4709 1785 Pls
4715 1955 Pls
4721 2157 Pls
4727 2391 Pls
4733 2161 Pls
4740 1963 Pls
4746 1796 Pls
4752 1660 Pls
4758 1555 Pls
4764 1482 Pls
4770 1439 Pls
4776 1427 Pls
4783 1446 Pls
4789 1496 Pls
4795 1575 Pls
4801 1685 Pls
4807 1825 Pls
4813 1995 Pls
4819 2194 Pls
4826 2424 Pls
4832 2186 Pls
4838 1979 Pls
4844 1800 Pls
4850 1650 Pls
4856 1530 Pls
4862 1438 Pls
4869 1375 Pls
4875 1341 Pls
4881 1335 Pls
4887 1357 Pls
4893 1408 Pls
4899 1486 Pls
4906 1593 Pls
4912 1728 Pls
4918 1890 Pls
4924 2079 Pls
4930 2297 Pls
4936 2541 Pls
4942 2317 Pls
4949 2120 Pls
4955 1949 Pls
4961 1806 Pls
4967 1689 Pls
4973 1599 Pls
4979 1536 Pls
4985 1499 Pls
4992 1488 Pls
4998 1503 Pls
5004 1544 Pls
5010 1611 Pls
5016 1704 Pls
5022 1823 Pls
5029 1967 Pls
5035 2137 Pls
5041 2332 Pls
5047 2552 Pls
5053 2798 Pls
5059 2572 Pls
5065 2372 Pls
5072 2196 Pls
5078 2045 Pls
5084 1919 Pls
5090 1817 Pls
5096 1739 Pls
5102 1686 Pls
5108 1657 Pls
5115 1652 Pls
5121 1671 Pls
5127 1714 Pls
5133 1780 Pls
5139 1871 Pls
5145 1984 Pls
5151 2122 Pls
5158 2282 Pls
5164 2466 Pls
5170 2674 Pls
5176 2904 Pls
5182 2661 Pls
5188 2441 Pls
5195 2244 Pls
5201 2070 Pls
5207 1918 Pls
5213 1789 Pls
5219 1682 Pls
5225 1597 Pls
5231 1535 Pls
5238 1495 Pls
5244 1476 Pls
5250 1480 Pls
5256 1506 Pls
5262 1553 Pls
5268 1622 Pls
5274 1713 Pls
5281 1825 Pls
5287 1959 Pls
5293 2114 Pls
5299 2290 Pls
5305 2487 Pls
5311 2705 Pls
5318 2945 Pls
5324 2709 Pls
5330 2494 Pls
5336 2300 Pls
5342 2126 Pls
5348 1973 Pls
5354 1841 Pls
5361 1729 Pls
5367 1637 Pls
5373 1565 Pls
5379 1514 Pls
5385 1482 Pls
5391 1471 Pls
5397 1479 Pls
5404 1508 Pls
5410 1556 Pls
5416 1623 Pls
5422 1711 Pls
5428 1817 Pls
5434 1944 Pls
5440 2089 Pls
5447 2254 Pls
5453 2438 Pls
5459 2641 Pls
5465 2863 Pls
5471 3105 Pls
5477 2869 Pls
5484 2652 Pls
5490 2453 Pls
5496 2274 Pls
5502 2113 Pls
5508 1970 Pls
5514 1846 Pls
5520 1741 Pls
5527 1653 Pls
5533 1584 Pls
5539 1533 Pls
5545 1501 Pls
5551 1486 Pls
5557 1489 Pls
5563 1510 Pls
5570 1549 Pls
5576 1606 Pls
5582 1680 Pls
5588 1772 Pls
5594 1882 Pls
5600 2009 Pls
5607 2153 Pls
5613 2315 Pls
5619 2494 Pls
5625 2690 Pls
5631 2904 Pls
5637 3134 Pls
5643 3382 Pls
5650 3150 Pls
5656 2936 Pls
5662 2738 Pls
5668 2557 Pls
5674 2393 Pls
5680 2245 Pls
5686 2114 Pls
5693 2000 Pls
5699 1901 Pls
5705 1820 Pls
5711 1754 Pls
5717 1705 Pls
5723 1672 Pls
5729 1656 Pls
5736 1655 Pls
5742 1670 Pls
5748 1702 Pls
5754 1749 Pls
5760 1812 Pls
5766 1891 Pls
5773 1985 Pls
5779 2096 Pls
5785 2221 Pls
5791 2363 Pls
5797 2520 Pls
5803 2692 Pls
5809 2880 Pls
5816 3083 Pls
5822 3301 Pls
5828 3535 Pls
5834 3288 Pls
5840 3056 Pls
5846 2839 Pls
5852 2636 Pls
5859 2449 Pls
5865 2277 Pls
5871 2120 Pls
5877 1977 Pls
5883 1849 Pls
5889 1736 Pls
5896 1637 Pls
5902 1553 Pls
5908 1484 Pls
5914 1429 Pls
5920 1388 Pls
5926 1362 Pls
5932 1350 Pls
5939 1352 Pls
5945 1368 Pls
5951 1399 Pls
5957 1444 Pls
5963 1502 Pls
5969 1575 Pls
5975 1662 Pls
5982 1762 Pls
5988 1877 Pls
5994 2005 Pls
6000 2147 Pls
6006 2303 Pls
6012 2472 Pls
6019 2655 Pls
6025 2852 Pls
6031 3062 Pls
6037 3285 Pls
6043 3522 Pls
6049 3276 Pls
6055 3044 Pls
6062 2825 Pls
6068 2619 Pls
6074 2427 Pls
6080 2247 Pls
6086 2081 Pls
6092 1928 Pls
6098 1787 Pls
6105 1660 Pls
6111 1545 Pls
6117 1444 Pls
6123 1355 Pls
6129 1279 Pls
6135 1216 Pls
6141 1165 Pls
6148 1127 Pls
6154 1102 Pls
6160 1089 Pls
6166 1089 Pls
6172 1101 Pls
6178 1126 Pls
6185 1163 Pls
6191 1212 Pls
6197 1274 Pls
6203 1348 Pls
6209 1434 Pls
6215 1532 Pls
6221 1643 Pls
6228 1765 Pls
6234 1900 Pls
6240 2047 Pls
6246 2205 Pls
6252 2376 Pls
6258 2558 Pls
6264 2752 Pls
6271 2959 Pls
6277 3176 Pls
6283 3406 Pls
6289 3647 Pls
6295 3404 Pls
6301 3173 Pls
6308 2953 Pls
6314 2745 Pls
6320 2548 Pls
6326 2363 Pls
6332 2189 Pls
6338 2027 Pls
6344 1876 Pls
6351 1736 Pls
6357 1607 Pls
6363 1490 Pls
6369 1384 Pls
6375 1289 Pls
6381 1205 Pls
6387 1132 Pls
6394 1071 Pls
6400 1020 Pls
6406 980 Pls
6412 952 Pls
6418 934 Pls
6424 927 Pls
6430 931 Pls
6437 945 Pls
6443 971 Pls
6449 1007 Pls
6455 1054 Pls
6461 1111 Pls
6467 1179 Pls
6474 1258 Pls
6480 1347 Pls
6486 1447 Pls
6492 1557 Pls
6498 1678 Pls
6504 1809 Pls
6510 1951 Pls
6517 2103 Pls
6523 2265 Pls
6529 2437 Pls
6535 2620 Pls
6541 2813 Pls
6547 3016 Pls
6553 3229 Pls
6560 3453 Pls
6566 3686 Pls
6572 3930 Pls
6578 3688 Pls
6584 3455 Pls
6590 3233 Pls
6597 3020 Pls
6603 2818 Pls
6609 2625 Pls
6615 2443 Pls
6621 2270 Pls
6627 2106 Pls
6633 1953 Pls
6640 1809 Pls
6646 1675 Pls
6652 1550 Pls
6658 1436 Pls
6664 1330 Pls
6670 1235 Pls
6676 1149 Pls
6683 1072 Pls
6689 1005 Pls
6695 947 Pls
6701 899 Pls
6707 860 Pls
6713 830 Pls
6719 810 Pls
6726 799 Pls
6732 797 Pls
6738 805 Pls
6744 821 Pls
6750 847 Pls
6756 882 Pls
6763 926 Pls
6769 980 Pls
6775 1042 Pls
6781 1113 Pls
6787 1194 Pls
6793 1283 Pls
6799 1381 Pls
6806 1489 Pls
6812 1605 Pls
6818 1730 Pls
6824 1864 Pls
6830 2006 Pls
6836 2158 Pls
6842 2318 Pls
6849 2487 Pls
6855 2665 Pls
6861 2851 Pls
6867 3046 Pls
6873 3250 Pls
6879 3462 Pls
6886 3683 Pls
6892 3912 Pls
6898 4150 Pls
6904 4397 Pls
6910 4156 Pls
6916 3923 Pls
6922 3699 Pls
6929 3483 Pls
6935 3276 Pls
6941 3077 Pls
6947 2887 Pls
6579 4738 Pls
% End plot #1
% Begin plot #2
1.000 UP
1.000 UL
LT1
LCb setrgbcolor
6296 4598 M
[ [(Helvetica) 140.0 0.0 true true 0 (ErrorSuma2)]
] -46.7 MRshow
LT1
804 432 Crs
810 327 Crs
816 292 Crs
823 424 Crs
829 309 Crs
835 526 Crs
841 517 Crs
847 578 Crs
853 373 Crs
859 637 Crs
866 578 Crs
872 548 Crs
878 370 Crs
884 291 Crs
890 309 Crs
896 325 Crs
903 326 Crs
909 333 Crs
915 497 Crs
921 507 Crs
927 722 Crs
933 559 Crs
939 604 Crs
946 778 Crs
952 573 Crs
958 597 Crs
964 489 Crs
970 509 Crs
976 305 Crs
982 367 Crs
989 440 Crs
995 424 Crs
1001 458 Crs
1007 667 Crs
1013 867 Crs
1019 879 Crs
1026 800 Crs
1032 718 Crs
1038 910 Crs
1044 987 Crs
1050 1050 Crs
1056 798 Crs
1062 640 Crs
1069 778 Crs
1075 778 Crs
1081 648 Crs
1087 897 Crs
1093 1075 Crs
1099 827 Crs
1105 938 Crs
1112 854 Crs
1118 729 Crs
1124 941 Crs
1130 1122 Crs
1136 1177 Crs
1142 1311 Crs
1148 1539 Crs
1155 1703 Crs
1161 1490 Crs
1167 1445 Crs
1173 1479 Crs
1179 1379 Crs
1185 1324 Crs
1192 1386 Crs
1198 1542 Crs
1204 1683 Crs
1210 1613 Crs
1216 1564 Crs
1222 1697 Crs
1228 1607 Crs
1235 1826 Crs
1241 1833 Crs
1247 2050 Crs
1253 1852 Crs
1259 2068 Crs
1265 1982 Crs
1271 1840 Crs
1278 1847 Crs
1284 1677 Crs
1290 1466 Crs
1296 1322 Crs
1302 1322 Crs
1308 1517 Crs
1315 1430 Crs
1321 1562 Crs
1327 1388 Crs
1333 1364 Crs
1339 1424 Crs
1345 1482 Crs
1351 1437 Crs
1358 1666 Crs
1364 1534 Crs
1370 1387 Crs
1376 1559 Crs
1382 1368 Crs
1388 1121 Crs
1394 1111 Crs
1401 1119 Crs
1407 915 Crs
1413 759 Crs
1419 899 Crs
1425 1076 Crs
1431 1019 Crs
1437 951 Crs
1444 1083 Crs
1450 1122 Crs
1456 1265 Crs
1462 1202 Crs
1468 1116 Crs
1474 1184 Crs
1481 1077 Crs
1487 958 Crs
1493 986 Crs
1499 815 Crs
1505 593 Crs
1511 460 Crs
1517 556 Crs
1524 513 Crs
1530 461 Crs
1536 523 Crs
1542 322 Crs
1548 471 Crs
1554 584 Crs
1560 770 Crs
1567 637 Crs
1573 783 Crs
1579 811 Crs
1585 815 Crs
1591 888 Crs
1597 1120 Crs
1604 1100 Crs
1610 912 Crs
1616 1137 Crs
1622 1355 Crs
1628 1147 Crs
1634 1085 Crs
1640 1241 Crs
1647 1189 Crs
1653 997 Crs
1659 1230 Crs
1665 1454 Crs
1671 1234 Crs
1677 1130 Crs
1683 1202 Crs
1690 1008 Crs
1696 1104 Crs
1702 1046 Crs
1708 888 Crs
1714 681 Crs
1720 476 Crs
1726 322 Crs
1733 293 Crs
1739 358 Crs
1745 418 Crs
1751 399 Crs
1757 599 Crs
1763 478 Crs
1770 494 Crs
1776 607 Crs
1782 776 Crs
1788 965 Crs
1794 1137 Crs
1800 1254 Crs
1806 1283 Crs
1813 1188 Crs
1819 1434 Crs
1825 1490 Crs
1831 1324 Crs
1837 1402 Crs
1843 1197 Crs
1849 1176 Crs
1856 1311 Crs
1862 1074 Crs
1868 936 Crs
1874 869 Crs
1880 848 Crs
1886 846 Crs
1893 837 Crs
1899 798 Crs
1905 703 Crs
1911 529 Crs
1917 751 Crs
1923 847 Crs
1929 797 Crs
1936 577 Crs
1942 665 Crs
1948 542 Crs
1954 685 Crs
1960 577 Crs
1966 696 Crs
1972 525 Crs
1979 542 Crs
1985 730 Crs
1991 574 Crs
1997 552 Crs
2003 648 Crs
2009 845 Crs
2016 629 Crs
2022 481 Crs
2028 386 Crs
2034 327 Crs
2040 289 Crs
2046 302 Crs
2052 341 Crs
2059 403 Crs
2065 501 Crs
2071 650 Crs
2077 863 Crs
2083 657 Crs
2089 540 Crs
2095 527 Crs
2102 630 Crs
2108 861 Crs
2114 735 Crs
2120 761 Crs
2126 951 Crs
2132 818 Crs
2138 873 Crs
2145 627 Crs
2151 590 Crs
2157 772 Crs
2163 686 Crs
2169 840 Crs
2175 746 Crs
2182 912 Crs
2188 849 Crs
2194 1066 Crs
2200 1074 Crs
2206 882 Crs
2212 997 Crs
2218 930 Crs
2225 690 Crs
2231 783 Crs
2237 720 Crs
2243 509 Crs
2249 656 Crs
2255 672 Crs
2261 564 Crs
2268 341 Crs
2274 506 Crs
2280 571 Crs
2286 542 Crs
2292 428 Crs
2298 325 Crs
2305 467 Crs
2311 635 Crs
2317 744 Crs
2323 802 Crs
2329 816 Crs
2335 791 Crs
2341 734 Crs
2348 651 Crs
2354 550 Crs
2360 434 Crs
2366 312 Crs
2372 372 Crs
2378 492 Crs
2384 602 Crs
2391 695 Crs
2397 768 Crs
2403 814 Crs
2409 828 Crs
2415 805 Crs
2421 739 Crs
2427 626 Crs
2434 459 Crs
2440 324 Crs
2446 446 Crs
2452 589 Crs
2458 660 Crs
2464 654 Crs
2471 567 Crs
2477 393 Crs
2483 626 Crs
2489 764 Crs
2495 802 Crs
2501 737 Crs
2507 565 Crs
2514 777 Crs
2520 873 Crs
2526 849 Crs
2532 700 Crs
2538 921 Crs
2544 1009 Crs
2550 962 Crs
2557 775 Crs
2563 941 Crs
2569 961 Crs
2575 830 Crs
2581 1042 Crs
2587 1096 Crs
2594 988 Crs
2600 1213 Crs
2606 1270 Crs
2612 1156 Crs
2618 1364 Crs
2624 1394 Crs
2630 1243 Crs
2637 1405 Crs
2643 1379 Crs
2649 1163 Crs
2655 1250 Crs
2661 1141 Crs
2667 1330 Crs
2673 1316 Crs
2680 1096 Crs
2686 1166 Crs
2692 1025 Crs
2698 1166 Crs
2704 1092 Crs
2710 1295 Crs
2716 1277 Crs
2723 1034 Crs
2729 1061 Crs
2735 859 Crs
2741 921 Crs
2747 749 Crs
2753 837 Crs
2760 685 Crs
2766 789 Crs
2772 648 Crs
2778 757 Crs
2784 617 Crs
2790 723 Crs
2796 576 Crs
2803 669 Crs
2809 505 Crs
2815 578 Crs
2821 388 Crs
2827 431 Crs
2833 353 Crs
2839 348 Crs
2846 443 Crs
2852 401 Crs
2858 582 Crs
2864 486 Crs
2870 608 Crs
2876 449 Crs
2883 505 Crs
2889 283 Crs
2895 300 Crs
2901 451 Crs
2907 353 Crs
2913 459 Crs
2919 287 Crs
2926 288 Crs
2932 503 Crs
2938 419 Crs
2944 532 Crs
2950 343 Crs
2956 347 Crs
2962 542 Crs
2969 431 Crs
2975 508 Crs
2981 285 Crs
2987 333 Crs
2993 362 Crs
2999 377 Crs
3005 376 Crs
3012 364 Crs
3018 335 Crs
3024 298 Crs
3030 474 Crs
3036 362 Crs
3042 422 Crs
3049 652 Crs
3055 554 Crs
3061 624 Crs
3067 860 Crs
3073 764 Crs
3079 832 Crs
3085 1062 Crs
3092 956 Crs
3098 1010 Crs
3104 1222 Crs
3110 1095 Crs
3116 1123 Crs
3122 1306 Crs
3128 1146 Crs
3135 1137 Crs
3141 1280 Crs
3147 1076 Crs
3153 1021 Crs
3159 1112 Crs
3165 1351 Crs
3172 1237 Crs
3178 1268 Crs
3184 1442 Crs
3190 1261 Crs
3196 1220 Crs
3202 1320 Crs
3208 1557 Crs
3215 1436 Crs
3221 1451 Crs
3227 1602 Crs
3233 1391 Crs
3239 1313 Crs
3245 1367 Crs
3251 1553 Crs
3258 1372 Crs
3264 1321 Crs
3270 1399 Crs
3276 1604 Crs
3282 1439 Crs
3288 1399 Crs
3294 1485 Crs
3301 1694 Crs
3307 1529 Crs
3313 1487 Crs
3319 1565 Crs
3325 1764 Crs
3331 1586 Crs
3338 1526 Crs
3344 1584 Crs
3350 1758 Crs
3356 1552 Crs
3362 1461 Crs
3368 1484 Crs
3374 1621 Crs
3381 1374 Crs
3387 1238 Crs
3393 1214 Crs
3399 1300 Crs
3405 1495 Crs
3411 1303 Crs
3417 1218 Crs
3424 1241 Crs
3430 1370 Crs
3436 1605 Crs
3442 1448 Crs
3448 1396 Crs
3454 1447 Crs
3461 1600 Crs
3467 1360 Crs
3473 1220 Crs
3479 1182 Crs
3485 1243 Crs
3491 1404 Crs
3497 1167 Crs
3504 1028 Crs
3510 986 Crs
3516 1040 Crs
3522 1191 Crs
3528 1437 Crs
3534 1281 Crs
3540 1219 Crs
3547 1251 Crs
3553 1375 Crs
3559 1592 Crs
3565 1404 Crs
3571 1307 Crs
3577 1300 Crs
3583 1382 Crs
3590 1554 Crs
3596 1318 Crs
3602 1170 Crs
3608 1110 Crs
3614 1136 Crs
3620 1248 Crs
3627 1447 Crs
3633 1234 Crs
3639 1105 Crs
3645 1061 Crs
3651 1100 Crs
3657 1222 Crs
3663 1427 Crs
3670 1217 Crs
3676 1088 Crs
3682 1040 Crs
3688 1073 Crs
3694 1185 Crs
3700 1377 Crs
3706 1151 Crs
3713 1004 Crs
3719 934 Crs
3725 942 Crs
3731 1026 Crs
3737 1187 Crs
3743 1424 Crs
3750 1240 Crs
3756 1131 Crs
3762 1096 Crs
3768 1135 Crs
3774 1248 Crs
3780 1434 Crs
3786 1196 Crs
3793 1031 Crs
3799 937 Crs
3805 915 Crs
3811 963 Crs
3817 1082 Crs
3823 1271 Crs
3829 1033 Crs
3836 865 Crs
3842 765 Crs
3848 733 Crs
3854 770 Crs
3860 874 Crs
3866 1045 Crs
3873 1282 Crs
3879 1090 Crs
3885 964 Crs
3891 903 Crs
3897 907 Crs
3903 977 Crs
3909 1110 Crs
3916 1307 Crs
3922 1072 Crs
3928 900 Crs
3934 791 Crs
3940 745 Crs
3946 760 Crs
3952 837 Crs
3959 976 Crs
3965 1176 Crs
3971 940 Crs
3977 764 Crs
3983 649 Crs
3989 593 Crs
3995 596 Crs
4002 658 Crs
4008 779 Crs
4014 959 Crs
4020 1196 Crs
4026 994 Crs
4032 850 Crs
4039 763 Crs
4045 733 Crs
4051 758 Crs
4057 840 Crs
4063 978 Crs
4069 1170 Crs
4075 1418 Crs
4082 1225 Crs
4088 1086 Crs
4094 1001 Crs
4100 970 Crs
4106 992 Crs
4112 1068 Crs
4118 1196 Crs
4125 1377 Crs
4131 1611 Crs
4137 1400 Crs
4143 1242 Crs
4149 1134 Crs
4155 1078 Crs
4162 1073 Crs
4168 1119 Crs
4174 1214 Crs
4180 1360 Crs
4186 1556 Crs
4192 1802 Crs
4198 1600 Crs
4205 1448 Crs
4211 1344 Crs
4217 1289 Crs
4223 1282 Crs
4229 1323 Crs
4235 1412 Crs
4241 1548 Crs
4248 1731 Crs
4254 1961 Crs
4260 1742 Crs
4266 1570 Crs
4272 1443 Crs
4278 1363 Crs
4284 1328 Crs
4291 1339 Crs
4297 1395 Crs
4303 1496 Crs
4309 1642 Crs
4315 1832 Crs
4321 2067 Crs
4328 1849 Crs
4334 1675 Crs
4340 1545 Crs
4346 1459 Crs
4352 1415 Crs
4358 1415 Crs
4364 1457 Crs
4371 1542 Crs
4377 1669 Crs
4383 1838 Crs
4389 2049 Crs
4395 1805 Crs
4401 1603 Crs
4407 1442 Crs
4414 1322 Crs
4420 1243 Crs
4426 1204 Crs
4432 1206 Crs
4438 1248 Crs
4444 1330 Crs
4451 1451 Crs
4457 1612 Crs
4463 1813 Crs
4469 2053 Crs
4475 1835 Crs
4481 1657 Crs
4487 1517 Crs
4494 1415 Crs
4500 1351 Crs
4506 1326 Crs
4512 1338 Crs
4518 1388 Crs
4524 1476 Crs
4530 1601 Crs
4537 1762 Crs
4543 1961 Crs
4549 2196 Crs
4555 1972 Crs
4561 1784 Crs
4567 1633 Crs
4573 1517 Crs
4580 1437 Crs
4586 1393 Crs
4592 1385 Crs
4598 1411 Crs
4604 1473 Crs
4610 1570 Crs
4617 1701 Crs
4623 1867 Crs
4629 2068 Crs
4635 2303 Crs
4641 2076 Crs
4647 1883 Crs
4653 1723 Crs
4660 1598 Crs
4666 1506 Crs
4672 1447 Crs
4678 1421 Crs
4684 1429 Crs
4690 1469 Crs
4696 1542 Crs
4703 1647 Crs
4709 1785 Crs
4715 1955 Crs
4721 2157 Crs
4727 2391 Crs
4733 2161 Crs
4740 1963 Crs
4746 1796 Crs
4752 1660 Crs
4758 1555 Crs
4764 1482 Crs
4770 1439 Crs
4776 1427 Crs
4783 1446 Crs
4789 1496 Crs
4795 1575 Crs
4801 1685 Crs
4807 1825 Crs
4813 1995 Crs
4819 2194 Crs
4826 2424 Crs
4832 2186 Crs
4838 1979 Crs
4844 1800 Crs
4850 1650 Crs
4856 1530 Crs
4862 1438 Crs
4869 1375 Crs
4875 1341 Crs
4881 1335 Crs
4887 1357 Crs
4893 1408 Crs
4899 1487 Crs
4906 1593 Crs
4912 1728 Crs
4918 1890 Crs
4924 2079 Crs
4930 2297 Crs
4936 2541 Crs
4942 2317 Crs
4949 2120 Crs
4955 1949 Crs
4961 1806 Crs
4967 1689 Crs
4973 1599 Crs
4979 1536 Crs
4985 1499 Crs
4992 1488 Crs
4998 1503 Crs
5004 1544 Crs
5010 1611 Crs
5016 1704 Crs
5022 1823 Crs
5029 1967 Crs
5035 2137 Crs
5041 2332 Crs
5047 2552 Crs
5053 2798 Crs
5059 2572 Crs
5065 2372 Crs
5072 2196 Crs
5078 2045 Crs
5084 1919 Crs
5090 1817 Crs
5096 1739 Crs
5102 1686 Crs
5108 1657 Crs
5115 1652 Crs
5121 1671 Crs
5127 1714 Crs
5133 1780 Crs
5139 1871 Crs
5145 1984 Crs
5151 2122 Crs
5158 2282 Crs
5164 2466 Crs
5170 2674 Crs
5176 2904 Crs
5182 2661 Crs
5188 2441 Crs
5195 2244 Crs
5201 2070 Crs
5207 1918 Crs
5213 1789 Crs
5219 1682 Crs
5225 1597 Crs
5231 1535 Crs
5238 1495 Crs
5244 1476 Crs
5250 1480 Crs
5256 1506 Crs
5262 1553 Crs
5268 1622 Crs
5274 1713 Crs
5281 1825 Crs
5287 1959 Crs
5293 2114 Crs
5299 2290 Crs
5305 2487 Crs
5311 2705 Crs
5318 2945 Crs
5324 2709 Crs
5330 2494 Crs
5336 2300 Crs
5342 2126 Crs
5348 1973 Crs
5354 1841 Crs
5361 1729 Crs
5367 1637 Crs
5373 1565 Crs
5379 1514 Crs
5385 1482 Crs
5391 1471 Crs
5397 1479 Crs
5404 1508 Crs
5410 1556 Crs
5416 1623 Crs
5422 1711 Crs
5428 1817 Crs
5434 1944 Crs
5440 2089 Crs
5447 2254 Crs
5453 2438 Crs
5459 2641 Crs
5465 2863 Crs
5471 3105 Crs
5477 2869 Crs
5484 2652 Crs
5490 2454 Crs
5496 2274 Crs
5502 2113 Crs
5508 1970 Crs
5514 1846 Crs
5520 1741 Crs
5527 1653 Crs
5533 1584 Crs
5539 1534 Crs
5545 1501 Crs
5551 1486 Crs
5557 1489 Crs
5563 1510 Crs
5570 1549 Crs
5576 1606 Crs
5582 1680 Crs
5588 1772 Crs
5594 1882 Crs
5600 2009 Crs
5607 2153 Crs
5613 2315 Crs
5619 2494 Crs
5625 2690 Crs
5631 2904 Crs
5637 3134 Crs
5643 3382 Crs
5650 3150 Crs
5656 2936 Crs
5662 2738 Crs
5668 2557 Crs
5674 2393 Crs
5680 2245 Crs
5686 2114 Crs
5693 2000 Crs
5699 1901 Crs
5705 1820 Crs
5711 1754 Crs
5717 1705 Crs
5723 1672 Crs
5729 1656 Crs
5736 1655 Crs
5742 1670 Crs
5748 1702 Crs
5754 1749 Crs
5760 1812 Crs
5766 1891 Crs
5773 1985 Crs
5779 2096 Crs
5785 2221 Crs
5791 2363 Crs
5797 2520 Crs
5803 2692 Crs
5809 2880 Crs
5816 3083 Crs
5822 3301 Crs
5828 3535 Crs
5834 3288 Crs
5840 3056 Crs
5846 2839 Crs
5852 2636 Crs
5859 2449 Crs
5865 2277 Crs
5871 2120 Crs
5877 1977 Crs
5883 1849 Crs
5889 1736 Crs
5896 1637 Crs
5902 1553 Crs
5908 1484 Crs
5914 1429 Crs
5920 1388 Crs
5926 1362 Crs
5932 1350 Crs
5939 1352 Crs
5945 1368 Crs
5951 1399 Crs
5957 1444 Crs
5963 1502 Crs
5969 1575 Crs
5975 1662 Crs
5982 1762 Crs
5988 1877 Crs
5994 2005 Crs
6000 2147 Crs
6006 2303 Crs
6012 2472 Crs
6019 2655 Crs
6025 2852 Crs
6031 3062 Crs
6037 3285 Crs
6043 3522 Crs
6049 3276 Crs
6055 3044 Crs
6062 2825 Crs
6068 2619 Crs
6074 2427 Crs
6080 2247 Crs
6086 2081 Crs
6092 1928 Crs
6098 1787 Crs
6105 1660 Crs
6111 1545 Crs
6117 1444 Crs
6123 1355 Crs
6129 1279 Crs
6135 1216 Crs
6141 1165 Crs
6148 1127 Crs
6154 1102 Crs
6160 1089 Crs
6166 1089 Crs
6172 1101 Crs
6178 1126 Crs
6185 1163 Crs
6191 1212 Crs
6197 1274 Crs
6203 1348 Crs
6209 1434 Crs
6215 1532 Crs
6221 1643 Crs
6228 1765 Crs
6234 1900 Crs
6240 2047 Crs
6246 2205 Crs
6252 2376 Crs
6258 2558 Crs
6264 2752 Crs
6271 2959 Crs
6277 3176 Crs
6283 3406 Crs
6289 3647 Crs
6295 3404 Crs
6301 3173 Crs
6308 2953 Crs
6314 2745 Crs
6320 2548 Crs
6326 2363 Crs
6332 2189 Crs
6338 2027 Crs
6344 1876 Crs
6351 1736 Crs
6357 1607 Crs
6363 1490 Crs
6369 1384 Crs
6375 1289 Crs
6381 1205 Crs
6387 1132 Crs
6394 1071 Crs
6400 1020 Crs
6406 980 Crs
6412 952 Crs
6418 934 Crs
6424 927 Crs
6430 931 Crs
6437 945 Crs
6443 971 Crs
6449 1007 Crs
6455 1054 Crs
6461 1111 Crs
6467 1179 Crs
6474 1258 Crs
6480 1347 Crs
6486 1447 Crs
6492 1557 Crs
6498 1678 Crs
6504 1809 Crs
6510 1951 Crs
6517 2103 Crs
6523 2265 Crs
6529 2437 Crs
6535 2620 Crs
6541 2813 Crs
6547 3016 Crs
6553 3229 Crs
6560 3453 Crs
6566 3686 Crs
6572 3930 Crs
6578 3688 Crs
6584 3455 Crs
6590 3233 Crs
6597 3021 Crs
6603 2818 Crs
6609 2625 Crs
6615 2443 Crs
6621 2270 Crs
6627 2106 Crs
6633 1953 Crs
6640 1809 Crs
6646 1675 Crs
6652 1550 Crs
6658 1436 Crs
6664 1330 Crs
6670 1235 Crs
6676 1149 Crs
6683 1072 Crs
6689 1005 Crs
6695 947 Crs
6701 899 Crs
6707 860 Crs
6713 830 Crs
6719 810 Crs
6726 799 Crs
6732 797 Crs
6738 805 Crs
6744 821 Crs
6750 847 Crs
6756 882 Crs
6763 926 Crs
6769 980 Crs
6775 1042 Crs
6781 1113 Crs
6787 1194 Crs
6793 1283 Crs
6799 1381 Crs
6806 1489 Crs
6812 1605 Crs
6818 1730 Crs
6824 1864 Crs
6830 2006 Crs
6836 2158 Crs
6842 2318 Crs
6849 2487 Crs
6855 2665 Crs
6861 2851 Crs
6867 3046 Crs
6873 3250 Crs
6879 3462 Crs
6886 3683 Crs
6892 3912 Crs
6898 4150 Crs
6904 4397 Crs
6910 4156 Crs
6916 3923 Crs
6922 3699 Crs
6929 3483 Crs
6935 3276 Crs
6941 3077 Crs
6947 2887 Crs
6579 4598 Crs
% End plot #2
1.000 UL
LTb
798 4871 N
798 280 L
6149 0 V
0 4591 V
-6149 0 V
Z stroke
1.000 UP
1.000 UL
LTb
stroke
grestore
end
showpage
%%Page: 2 2
gnudict begin
gsave
doclip
50 50 translate
0.050 0.050 scale
0 setgray
newpath
(Helvetica) findfont 140 scalefont setfont
BackgroundColor 0 lt 3 1 roll 0 lt exch 0 lt or or not {BackgroundColor C 1.000 0 0 7200.00 5040.00 BoxColFill} if
1.000 UL
LTb
798 280 M
63 0 V
6086 0 R
-63 0 V
stroke
714 280 M
[ [(Helvetica) 140.0 0.0 true true 0 (0.00000)]
] -46.7 MRshow
1.000 UL
LTb
798 790 M
63 0 V
6086 0 R
-63 0 V
stroke
714 790 M
[ [(Helvetica) 140.0 0.0 true true 0 (0.00001)]
] -46.7 MRshow
1.000 UL
LTb
798 1300 M
63 0 V
6086 0 R
-63 0 V
stroke
714 1300 M
[ [(Helvetica) 140.0 0.0 true true 0 (0.00002)]
] -46.7 MRshow
1.000 UL
LTb
798 1810 M
63 0 V
6086 0 R
-63 0 V
stroke
714 1810 M
[ [(Helvetica) 140.0 0.0 true true 0 (0.00003)]
] -46.7 MRshow
1.000 UL
LTb
798 2320 M
63 0 V
6086 0 R
-63 0 V
stroke
714 2320 M
[ [(Helvetica) 140.0 0.0 true true 0 (0.00004)]
] -46.7 MRshow
1.000 UL
LTb
798 2831 M
63 0 V
6086 0 R
-63 0 V
stroke
714 2831 M
[ [(Helvetica) 140.0 0.0 true true 0 (0.00005)]
] -46.7 MRshow
1.000 UL
LTb
798 3341 M
63 0 V
6086 0 R
-63 0 V
stroke
714 3341 M
[ [(Helvetica) 140.0 0.0 true true 0 (0.00006)]
] -46.7 MRshow
1.000 UL
LTb
798 3851 M
63 0 V
6086 0 R
-63 0 V
stroke
714 3851 M
[ [(Helvetica) 140.0 0.0 true true 0 (0.00007)]
] -46.7 MRshow
1.000 UL
LTb
798 4361 M
63 0 V
6086 0 R
-63 0 V
stroke
714 4361 M
[ [(Helvetica) 140.0 0.0 true true 0 (0.00008)]
] -46.7 MRshow
1.000 UL
LTb
798 4871 M
63 0 V
6086 0 R
-63 0 V
stroke
714 4871 M
[ [(Helvetica) 140.0 0.0 true true 0 (0.00009)]
] -46.7 MRshow
1.000 UL
LTb
798 280 M
0 63 V
0 4528 R
0 -63 V
stroke
798 140 M
[ [(Helvetica) 140.0 0.0 true true 0 ( 0)]
] -46.7 MCshow
1.000 UL
LTb
1413 280 M
0 63 V
0 4528 R
0 -63 V
stroke
1413 140 M
[ [(Helvetica) 140.0 0.0 true true 0 ( 100)]
] -46.7 MCshow
1.000 UL
LTb
2028 280 M
0 63 V
0 4528 R
0 -63 V
stroke
2028 140 M
[ [(Helvetica) 140.0 0.0 true true 0 ( 200)]
] -46.7 MCshow
1.000 UL
LTb
2643 280 M
0 63 V
0 4528 R
0 -63 V
stroke
2643 140 M
[ [(Helvetica) 140.0 0.0 true true 0 ( 300)]
] -46.7 MCshow
1.000 UL
LTb
3258 280 M
0 63 V
0 4528 R
0 -63 V
stroke
3258 140 M
[ [(Helvetica) 140.0 0.0 true true 0 ( 400)]
] -46.7 MCshow
1.000 UL
LTb
3873 280 M
0 63 V
0 4528 R
0 -63 V
stroke
3873 140 M
[ [(Helvetica) 140.0 0.0 true true 0 ( 500)]
] -46.7 MCshow
1.000 UL
LTb
4487 280 M
0 63 V
0 4528 R
0 -63 V
stroke
4487 140 M
[ [(Helvetica) 140.0 0.0 true true 0 ( 600)]
] -46.7 MCshow
1.000 UL
LTb
5102 280 M
0 63 V
0 4528 R
0 -63 V
stroke
5102 140 M
[ [(Helvetica) 140.0 0.0 true true 0 ( 700)]
] -46.7 MCshow
1.000 UL
LTb
5717 280 M
0 63 V
0 4528 R
0 -63 V
stroke
5717 140 M
[ [(Helvetica) 140.0 0.0 true true 0 ( 800)]
] -46.7 MCshow
1.000 UL
LTb
6332 280 M
0 63 V
0 4528 R
0 -63 V
stroke
6332 140 M
[ [(Helvetica) 140.0 0.0 true true 0 ( 900)]
] -46.7 MCshow
1.000 UL
LTb
6947 280 M
0 63 V
0 4528 R
0 -63 V
stroke
6947 140 M
[ [(Helvetica) 140.0 0.0 true true 0 ( 1000)]
] -46.7 MCshow
1.000 UL
LTb
1.000 UL
LTb
798 4871 N
798 280 L
6149 0 V
0 4591 V
-6149 0 V
Z stroke
1.000 UP
1.000 UL
LTb
% Begin plot #1
1.000 UP
1.000 UL
LT0
LCb setrgbcolor
6296 4738 M
[ [(Helvetica) 140.0 0.0 true true 0 (ErrorSuma1)]
] -46.7 MRshow
LT0
804 432 Pls
810 327 Pls
816 292 Pls
823 424 Pls
829 309 Pls
835 526 Pls
841 517 Pls
847 578 Pls
853 373 Pls
859 637 Pls
866 578 Pls
872 548 Pls
878 370 Pls
884 291 Pls
890 309 Pls
896 325 Pls
903 326 Pls
909 333 Pls
915 497 Pls
921 507 Pls
927 722 Pls
933 559 Pls
939 604 Pls
946 778 Pls
952 573 Pls
958 597 Pls
964 489 Pls
970 509 Pls
976 305 Pls
982 367 Pls
989 440 Pls
995 424 Pls
1001 458 Pls
1007 667 Pls
1013 867 Pls
1019 879 Pls
1026 800 Pls
1032 718 Pls
1038 910 Pls
1044 987 Pls
1050 1050 Pls
1056 798 Pls
1062 640 Pls
1069 778 Pls
1075 778 Pls
1081 648 Pls
1087 897 Pls
1093 1075 Pls
1099 827 Pls
1105 938 Pls
1112 854 Pls
1118 729 Pls
1124 941 Pls
1130 1122 Pls
1136 1177 Pls
1142 1311 Pls
1148 1539 Pls
1155 1703 Pls
1161 1490 Pls
1167 1445 Pls
1173 1479 Pls
1179 1379 Pls
1185 1324 Pls
1192 1386 Pls
1198 1542 Pls
1204 1683 Pls
1210 1613 Pls
1216 1564 Pls
1222 1697 Pls
1228 1607 Pls
1235 1826 Pls
1241 1833 Pls
1247 2050 Pls
1253 1852 Pls
1259 2068 Pls
1265 1982 Pls
1271 1840 Pls
1278 1847 Pls
1284 1677 Pls
1290 1466 Pls
1296 1322 Pls
1302 1322 Pls
1308 1517 Pls
1315 1430 Pls
1321 1562 Pls
1327 1388 Pls
1333 1364 Pls
1339 1424 Pls
1345 1482 Pls
1351 1437 Pls
1358 1666 Pls
1364 1534 Pls
1370 1387 Pls
1376 1559 Pls
1382 1368 Pls
1388 1121 Pls
1394 1111 Pls
1401 1119 Pls
1407 915 Pls
1413 759 Pls
1419 899 Pls
1425 1076 Pls
1431 1019 Pls
1437 951 Pls
1444 1083 Pls
1450 1122 Pls
1456 1265 Pls
1462 1202 Pls
1468 1116 Pls
1474 1184 Pls
1481 1077 Pls
1487 958 Pls
1493 986 Pls
1499 815 Pls
1505 593 Pls
1511 460 Pls
1517 556 Pls
1524 513 Pls
1530 461 Pls
1536 523 Pls
1542 322 Pls
1548 471 Pls
1554 584 Pls
1560 770 Pls
1567 637 Pls
1573 783 Pls
1579 811 Pls
1585 815 Pls
1591 888 Pls
1597 1120 Pls
1604 1100 Pls
1610 912 Pls
1616 1137 Pls
1622 1355 Pls
1628 1147 Pls
1634 1085 Pls
1640 1241 Pls
1647 1189 Pls
1653 997 Pls
1659 1230 Pls
1665 1454 Pls
1671 1234 Pls
1677 1130 Pls
1683 1202 Pls
1690 1008 Pls
1696 1104 Pls
1702 1046 Pls
1708 888 Pls
1714 681 Pls
1720 476 Pls
1726 322 Pls
1733 293 Pls
1739 358 Pls
1745 418 Pls
1751 399 Pls
1757 599 Pls
1763 478 Pls
1770 494 Pls
1776 607 Pls
1782 776 Pls
1788 965 Pls
1794 1137 Pls
1800 1254 Pls
1806 1283 Pls
1813 1188 Pls
1819 1434 Pls
1825 1490 Pls
1831 1324 Pls
1837 1402 Pls
1843 1197 Pls
1849 1176 Pls
1856 1311 Pls
1862 1074 Pls
1868 936 Pls
1874 869 Pls
1880 848 Pls
1886 846 Pls
1893 837 Pls
1899 798 Pls
1905 703 Pls
1911 529 Pls
1917 751 Pls
1923 847 Pls
1929 797 Pls
1936 577 Pls
1942 665 Pls
1948 542 Pls
1954 685 Pls
1960 577 Pls
1966 696 Pls
1972 525 Pls
1979 542 Pls
1985 730 Pls
1991 574 Pls
1997 552 Pls
2003 648 Pls
2009 845 Pls
2016 629 Pls
2022 481 Pls
2028 386 Pls
2034 327 Pls
2040 289 Pls
2046 302 Pls
2052 341 Pls
2059 403 Pls
2065 501 Pls
2071 650 Pls
2077 863 Pls
2083 657 Pls
2089 540 Pls
2095 527 Pls
2102 630 Pls
2108 861 Pls
2114 735 Pls
2120 761 Pls
2126 951 Pls
2132 818 Pls
2138 873 Pls
2145 627 Pls
2151 590 Pls
2157 772 Pls
2163 686 Pls
2169 840 Pls
2175 746 Pls
2182 912 Pls
2188 849 Pls
2194 1066 Pls
2200 1074 Pls
2206 882 Pls
2212 997 Pls
2218 930 Pls
2225 690 Pls
2231 783 Pls
2237 720 Pls
2243 509 Pls
2249 656 Pls
2255 672 Pls
2261 564 Pls
2268 341 Pls
2274 506 Pls
2280 571 Pls
2286 542 Pls
2292 428 Pls
2298 325 Pls
2305 467 Pls
2311 635 Pls
2317 744 Pls
2323 802 Pls
2329 816 Pls
2335 791 Pls
2341 734 Pls
2348 651 Pls
2354 550 Pls
2360 434 Pls
2366 312 Pls
2372 372 Pls
2378 492 Pls
2384 602 Pls
2391 695 Pls
2397 768 Pls
2403 814 Pls
2409 828 Pls
2415 805 Pls
2421 739 Pls
2427 626 Pls
2434 459 Pls
2440 324 Pls
2446 446 Pls
2452 589 Pls
2458 660 Pls
2464 654 Pls
2471 567 Pls
2477 393 Pls
2483 626 Pls
2489 764 Pls
2495 802 Pls
2501 737 Pls
2507 565 Pls
2514 777 Pls
2520 873 Pls
2526 849 Pls
2532 700 Pls
2538 921 Pls
2544 1009 Pls
2550 962 Pls
2557 775 Pls
2563 941 Pls
2569 961 Pls
2575 830 Pls
2581 1042 Pls
2587 1096 Pls
2594 988 Pls
2600 1213 Pls
2606 1270 Pls
2612 1156 Pls
2618 1364 Pls
2624 1394 Pls
2630 1243 Pls
2637 1405 Pls
2643 1379 Pls
2649 1163 Pls
2655 1250 Pls
2661 1141 Pls
2667 1330 Pls
2673 1316 Pls
2680 1096 Pls
2686 1166 Pls
2692 1025 Pls
2698 1166 Pls
2704 1092 Pls
2710 1295 Pls
2716 1277 Pls
2723 1034 Pls
2729 1061 Pls
2735 859 Pls
2741 921 Pls
2747 749 Pls
2753 837 Pls
2760 685 Pls
2766 789 Pls
2772 648 Pls
2778 757 Pls
2784 617 Pls
2790 723 Pls
2796 576 Pls
2803 669 Pls
2809 505 Pls
2815 578 Pls
2821 388 Pls
2827 431 Pls
2833 353 Pls
2839 348 Pls
2846 443 Pls
2852 401 Pls
2858 582 Pls
2864 486 Pls
2870 608 Pls
2876 449 Pls
2883 505 Pls
2889 283 Pls
2895 300 Pls
2901 451 Pls
2907 353 Pls
2913 459 Pls
2919 287 Pls
2926 288 Pls
2932 503 Pls
2938 419 Pls
2944 532 Pls
2950 343 Pls
2956 347 Pls
2962 542 Pls
2969 431 Pls
2975 508 Pls
2981 285 Pls
2987 333 Pls
2993 362 Pls
2999 377 Pls
3005 376 Pls
3012 364 Pls
3018 335 Pls
3024 298 Pls
3030 474 Pls
3036 362 Pls
3042 422 Pls
3049 652 Pls
3055 554 Pls
3061 624 Pls
3067 860 Pls
3073 764 Pls
3079 832 Pls
3085 1062 Pls
3092 956 Pls
3098 1010 Pls
3104 1222 Pls
3110 1095 Pls
3116 1123 Pls
3122 1306 Pls
3128 1146 Pls
3135 1137 Pls
3141 1280 Pls
3147 1076 Pls
3153 1021 Pls
3159 1112 Pls
3165 1351 Pls
3172 1237 Pls
3178 1268 Pls
3184 1442 Pls
3190 1261 Pls
3196 1220 Pls
3202 1320 Pls
3208 1557 Pls
3215 1436 Pls
3221 1451 Pls
3227 1602 Pls
3233 1391 Pls
3239 1313 Pls
3245 1367 Pls
3251 1553 Pls
3258 1372 Pls
3264 1321 Pls
3270 1399 Pls
3276 1604 Pls
3282 1439 Pls
3288 1399 Pls
3294 1485 Pls
3301 1694 Pls
3307 1529 Pls
3313 1487 Pls
3319 1565 Pls
3325 1764 Pls
3331 1586 Pls
3338 1526 Pls
3344 1584 Pls
3350 1758 Pls
3356 1552 Pls
3362 1461 Pls
3368 1484 Pls
3374 1621 Pls
3381 1374 Pls
3387 1238 Pls
3393 1214 Pls
3399 1300 Pls
3405 1495 Pls
3411 1303 Pls
3417 1218 Pls
3424 1241 Pls
3430 1370 Pls
3436 1605 Pls
3442 1448 Pls
3448 1396 Pls
3454 1447 Pls
3461 1600 Pls
3467 1360 Pls
3473 1220 Pls
3479 1182 Pls
3485 1243 Pls
3491 1404 Pls
3497 1167 Pls
3504 1028 Pls
3510 986 Pls
3516 1040 Pls
3522 1191 Pls
3528 1437 Pls
3534 1281 Pls
3540 1219 Pls
3547 1251 Pls
3553 1375 Pls
3559 1592 Pls
3565 1404 Pls
3571 1307 Pls
3577 1300 Pls
3583 1382 Pls
3590 1554 Pls
3596 1318 Pls
3602 1170 Pls
3608 1110 Pls
3614 1136 Pls
3620 1248 Pls
3627 1447 Pls
3633 1234 Pls
3639 1105 Pls
3645 1061 Pls
3651 1100 Pls
3657 1222 Pls
3663 1427 Pls
3670 1217 Pls
3676 1088 Pls
3682 1040 Pls
3688 1073 Pls
3694 1185 Pls
3700 1377 Pls
3706 1151 Pls
3713 1004 Pls
3719 934 Pls
3725 942 Pls
3731 1026 Pls
3737 1187 Pls
3743 1424 Pls
3750 1240 Pls
3756 1131 Pls
3762 1096 Pls
3768 1135 Pls
3774 1248 Pls
3780 1434 Pls
3786 1196 Pls
3793 1031 Pls
3799 937 Pls
3805 915 Pls
3811 963 Pls
3817 1082 Pls
3823 1271 Pls
3829 1033 Pls
3836 865 Pls
3842 765 Pls
3848 733 Pls
3854 770 Pls
3860 874 Pls
3866 1045 Pls
3873 1282 Pls
3879 1090 Pls
3885 964 Pls
3891 903 Pls
3897 907 Pls
3903 977 Pls
3909 1110 Pls
3916 1307 Pls
3922 1072 Pls
3928 900 Pls
3934 791 Pls
3940 745 Pls
3946 760 Pls
3952 837 Pls
3959 976 Pls
3965 1176 Pls
3971 940 Pls
3977 764 Pls
3983 649 Pls
3989 593 Pls
3995 596 Pls
4002 658 Pls
4008 779 Pls
4014 959 Pls
4020 1196 Pls
4026 994 Pls
4032 850 Pls
4039 763 Pls
4045 733 Pls
4051 758 Pls
4057 840 Pls
4063 978 Pls
4069 1170 Pls
4075 1418 Pls
4082 1225 Pls
4088 1086 Pls
4094 1001 Pls
4100 970 Pls
4106 992 Pls
4112 1068 Pls
4118 1196 Pls
4125 1377 Pls
4131 1611 Pls
4137 1400 Pls
4143 1242 Pls
4149 1134 Pls
4155 1078 Pls
4162 1073 Pls
4168 1119 Pls
4174 1214 Pls
4180 1360 Pls
4186 1556 Pls
4192 1802 Pls
4198 1600 Pls
4205 1448 Pls
4211 1344 Pls
4217 1289 Pls
4223 1282 Pls
4229 1323 Pls
4235 1412 Pls
4241 1548 Pls
4248 1731 Pls
4254 1961 Pls
4260 1742 Pls
4266 1570 Pls
4272 1443 Pls
4278 1363 Pls
4284 1328 Pls
4291 1339 Pls
4297 1395 Pls
4303 1496 Pls
4309 1642 Pls
4315 1832 Pls
4321 2067 Pls
4328 1849 Pls
4334 1675 Pls
4340 1545 Pls
4346 1459 Pls
4352 1415 Pls
4358 1415 Pls
4364 1457 Pls
4371 1542 Pls
4377 1669 Pls
4383 1838 Pls
4389 2049 Pls
4395 1805 Pls
4401 1603 Pls
4407 1442 Pls
4414 1322 Pls
4420 1243 Pls
4426 1204 Pls
4432 1206 Pls
4438 1248 Pls
4444 1330 Pls
4451 1451 Pls
4457 1612 Pls
4463 1813 Pls
4469 2053 Pls
4475 1835 Pls
4481 1657 Pls
4487 1517 Pls
4494 1415 Pls
4500 1351 Pls
4506 1326 Pls
4512 1338 Pls
4518 1388 Pls
4524 1476 Pls
4530 1601 Pls
4537 1762 Pls
4543 1961 Pls
4549 2196 Pls
4555 1972 Pls
4561 1784 Pls
4567 1633 Pls
4573 1517 Pls
4580 1437 Pls
4586 1393 Pls
4592 1385 Pls
4598 1411 Pls
4604 1473 Pls
4610 1570 Pls
4617 1701 Pls
4623 1867 Pls
4629 2068 Pls
4635 2303 Pls
4641 2076 Pls
4647 1883 Pls
4653 1723 Pls
4660 1598 Pls
4666 1506 Pls
4672 1447 Pls
4678 1421 Pls
4684 1429 Pls
4690 1469 Pls
4696 1542 Pls
4703 1647 Pls
4709 1785 Pls
4715 1955 Pls
4721 2157 Pls
4727 2391 Pls
4733 2161 Pls
4740 1963 Pls
4746 1796 Pls
4752 1660 Pls
4758 1555 Pls
4764 1482 Pls
4770 1439 Pls
4776 1427 Pls
4783 1446 Pls
4789 1496 Pls
4795 1575 Pls
4801 1685 Pls
4807 1825 Pls
4813 1995 Pls
4819 2194 Pls
4826 2424 Pls
4832 2186 Pls
4838 1979 Pls
4844 1800 Pls
4850 1650 Pls
4856 1530 Pls
4862 1438 Pls
4869 1375 Pls
4875 1341 Pls
4881 1335 Pls
4887 1357 Pls
4893 1408 Pls
4899 1486 Pls
4906 1593 Pls
4912 1728 Pls
4918 1890 Pls
4924 2079 Pls
4930 2297 Pls
4936 2541 Pls
4942 2317 Pls
4949 2120 Pls
4955 1949 Pls
4961 1806 Pls
4967 1689 Pls
4973 1599 Pls
4979 1536 Pls
4985 1499 Pls
4992 1488 Pls
4998 1503 Pls
5004 1544 Pls
5010 1611 Pls
5016 1704 Pls
5022 1823 Pls
5029 1967 Pls
5035 2137 Pls
5041 2332 Pls
5047 2552 Pls
5053 2798 Pls
5059 2572 Pls
5065 2372 Pls
5072 2196 Pls
5078 2045 Pls
5084 1919 Pls
5090 1817 Pls
5096 1739 Pls
5102 1686 Pls
5108 1657 Pls
5115 1652 Pls
5121 1671 Pls
5127 1714 Pls
5133 1780 Pls
5139 1871 Pls
5145 1984 Pls
5151 2122 Pls
5158 2282 Pls
5164 2466 Pls
5170 2674 Pls
5176 2904 Pls
5182 2661 Pls
5188 2441 Pls
5195 2244 Pls
5201 2070 Pls
5207 1918 Pls
5213 1789 Pls
5219 1682 Pls
5225 1597 Pls
5231 1535 Pls
5238 1495 Pls
5244 1476 Pls
5250 1480 Pls
5256 1506 Pls
5262 1553 Pls
5268 1622 Pls
5274 1713 Pls
5281 1825 Pls
5287 1959 Pls
5293 2114 Pls
5299 2290 Pls
5305 2487 Pls
5311 2705 Pls
5318 2945 Pls
5324 2709 Pls
5330 2494 Pls
5336 2300 Pls
5342 2126 Pls
5348 1973 Pls
5354 1841 Pls
5361 1729 Pls
5367 1637 Pls
5373 1565 Pls
5379 1514 Pls
5385 1482 Pls
5391 1471 Pls
5397 1479 Pls
5404 1508 Pls
5410 1556 Pls
5416 1623 Pls
5422 1711 Pls
5428 1817 Pls
5434 1944 Pls
5440 2089 Pls
5447 2254 Pls
5453 2438 Pls
5459 2641 Pls
5465 2863 Pls
5471 3105 Pls
5477 2869 Pls
5484 2652 Pls
5490 2453 Pls
5496 2274 Pls
5502 2113 Pls
5508 1970 Pls
5514 1846 Pls
5520 1741 Pls
5527 1653 Pls
5533 1584 Pls
5539 1533 Pls
5545 1501 Pls
5551 1486 Pls
5557 1489 Pls
5563 1510 Pls
5570 1549 Pls
5576 1606 Pls
5582 1680 Pls
5588 1772 Pls
5594 1882 Pls
5600 2009 Pls
5607 2153 Pls
5613 2315 Pls
5619 2494 Pls
5625 2690 Pls
5631 2904 Pls
5637 3134 Pls
5643 3382 Pls
5650 3150 Pls
5656 2936 Pls
5662 2738 Pls
5668 2557 Pls
5674 2393 Pls
5680 2245 Pls
5686 2114 Pls
5693 2000 Pls
5699 1901 Pls
5705 1820 Pls
5711 1754 Pls
5717 1705 Pls
5723 1672 Pls
5729 1656 Pls
5736 1655 Pls
5742 1670 Pls
5748 1702 Pls
5754 1749 Pls
5760 1812 Pls
5766 1891 Pls
5773 1985 Pls
5779 2096 Pls
5785 2221 Pls
5791 2363 Pls
5797 2520 Pls
5803 2692 Pls
5809 2880 Pls
5816 3083 Pls
5822 3301 Pls
5828 3535 Pls
5834 3288 Pls
5840 3056 Pls
5846 2839 Pls
5852 2636 Pls
5859 2449 Pls
5865 2277 Pls
5871 2120 Pls
5877 1977 Pls
5883 1849 Pls
5889 1736 Pls
5896 1637 Pls
5902 1553 Pls
5908 1484 Pls
5914 1429 Pls
5920 1388 Pls
5926 1362 Pls
5932 1350 Pls
5939 1352 Pls
5945 1368 Pls
5951 1399 Pls
5957 1444 Pls
5963 1502 Pls
5969 1575 Pls
5975 1662 Pls
5982 1762 Pls
5988 1877 Pls
5994 2005 Pls
6000 2147 Pls
6006 2303 Pls
6012 2472 Pls
6019 2655 Pls
6025 2852 Pls
6031 3062 Pls
6037 3285 Pls
6043 3522 Pls
6049 3276 Pls
6055 3044 Pls
6062 2825 Pls
6068 2619 Pls
6074 2427 Pls
6080 2247 Pls
6086 2081 Pls
6092 1928 Pls
6098 1787 Pls
6105 1660 Pls
6111 1545 Pls
6117 1444 Pls
6123 1355 Pls
6129 1279 Pls
6135 1216 Pls
6141 1165 Pls
6148 1127 Pls
6154 1102 Pls
6160 1089 Pls
6166 1089 Pls
6172 1101 Pls
6178 1126 Pls
6185 1163 Pls
6191 1212 Pls
6197 1274 Pls
6203 1348 Pls
6209 1434 Pls
6215 1532 Pls
6221 1643 Pls
6228 1765 Pls
6234 1900 Pls
6240 2047 Pls
6246 2205 Pls
6252 2376 Pls
6258 2558 Pls
6264 2752 Pls
6271 2959 Pls
6277 3176 Pls
6283 3406 Pls
6289 3647 Pls
6295 3404 Pls
6301 3173 Pls
6308 2953 Pls
6314 2745 Pls
6320 2548 Pls
6326 2363 Pls
6332 2189 Pls
6338 2027 Pls
6344 1876 Pls
6351 1736 Pls
6357 1607 Pls
6363 1490 Pls
6369 1384 Pls
6375 1289 Pls
6381 1205 Pls
6387 1132 Pls
6394 1071 Pls
6400 1020 Pls
6406 980 Pls
6412 952 Pls
6418 934 Pls
6424 927 Pls
6430 931 Pls
6437 945 Pls
6443 971 Pls
6449 1007 Pls
6455 1054 Pls
6461 1111 Pls
6467 1179 Pls
6474 1258 Pls
6480 1347 Pls
6486 1447 Pls
6492 1557 Pls
6498 1678 Pls
6504 1809 Pls
6510 1951 Pls
6517 2103 Pls
6523 2265 Pls
6529 2437 Pls
6535 2620 Pls
6541 2813 Pls
6547 3016 Pls
6553 3229 Pls
6560 3453 Pls
6566 3686 Pls
6572 3930 Pls
6578 3688 Pls
6584 3455 Pls
6590 3233 Pls
6597 3020 Pls
6603 2818 Pls
6609 2625 Pls
6615 2443 Pls
6621 2270 Pls
6627 2106 Pls
6633 1953 Pls
6640 1809 Pls
6646 1675 Pls
6652 1550 Pls
6658 1436 Pls
6664 1330 Pls
6670 1235 Pls
6676 1149 Pls
6683 1072 Pls
6689 1005 Pls
6695 947 Pls
6701 899 Pls
6707 860 Pls
6713 830 Pls
6719 810 Pls
6726 799 Pls
6732 797 Pls
6738 805 Pls
6744 821 Pls
6750 847 Pls
6756 882 Pls
6763 926 Pls
6769 980 Pls
6775 1042 Pls
6781 1113 Pls
6787 1194 Pls
6793 1283 Pls
6799 1381 Pls
6806 1489 Pls
6812 1605 Pls
6818 1730 Pls
6824 1864 Pls
6830 2006 Pls
6836 2158 Pls
6842 2318 Pls
6849 2487 Pls
6855 2665 Pls
6861 2851 Pls
6867 3046 Pls
6873 3250 Pls
6879 3462 Pls
6886 3683 Pls
6892 3912 Pls
6898 4150 Pls
6904 4397 Pls
6910 4156 Pls
6916 3923 Pls
6922 3699 Pls
6929 3483 Pls
6935 3276 Pls
6941 3077 Pls
6947 2887 Pls
6579 4738 Pls
% End plot #1
% Begin plot #2
1.000 UP
1.000 UL
LT1
LCb setrgbcolor
6296 4598 M
[ [(Helvetica) 140.0 0.0 true true 0 (ErrorSuma2)]
] -46.7 MRshow
LT1
804 432 Crs
810 327 Crs
816 292 Crs
823 424 Crs
829 309 Crs
835 526 Crs
841 517 Crs
847 578 Crs
853 373 Crs
859 637 Crs
866 578 Crs
872 548 Crs
878 370 Crs
884 291 Crs
890 309 Crs
896 325 Crs
903 326 Crs
909 333 Crs
915 497 Crs
921 507 Crs
927 722 Crs
933 559 Crs
939 604 Crs
946 778 Crs
952 573 Crs
958 597 Crs
964 489 Crs
970 509 Crs
976 305 Crs
982 367 Crs
989 440 Crs
995 424 Crs
1001 458 Crs
1007 667 Crs
1013 867 Crs
1019 879 Crs
1026 800 Crs
1032 718 Crs
1038 910 Crs
1044 987 Crs
1050 1050 Crs
1056 798 Crs
1062 640 Crs
1069 778 Crs
1075 778 Crs
1081 648 Crs
1087 897 Crs
1093 1075 Crs
1099 827 Crs
1105 938 Crs
1112 854 Crs
1118 729 Crs
1124 941 Crs
1130 1122 Crs
1136 1177 Crs
1142 1311 Crs
1148 1539 Crs
1155 1703 Crs
1161 1490 Crs
1167 1445 Crs
1173 1479 Crs
1179 1379 Crs
1185 1324 Crs
1192 1386 Crs
1198 1542 Crs
1204 1683 Crs
1210 1613 Crs
1216 1564 Crs
1222 1697 Crs
1228 1607 Crs
1235 1826 Crs
1241 1833 Crs
1247 2050 Crs
1253 1852 Crs
1259 2068 Crs
1265 1982 Crs
1271 1840 Crs
1278 1847 Crs
1284 1677 Crs
1290 1466 Crs
1296 1322 Crs
1302 1322 Crs
1308 1517 Crs
1315 1430 Crs
1321 1562 Crs
1327 1388 Crs
1333 1364 Crs
1339 1424 Crs
1345 1482 Crs
1351 1437 Crs
1358 1666 Crs
1364 1534 Crs
1370 1387 Crs
1376 1559 Crs
1382 1368 Crs
1388 1121 Crs
1394 1111 Crs
1401 1119 Crs
1407 915 Crs
1413 759 Crs
1419 899 Crs
1425 1076 Crs
1431 1019 Crs
1437 951 Crs
1444 1083 Crs
1450 1122 Crs
1456 1265 Crs
1462 1202 Crs
1468 1116 Crs
1474 1184 Crs
1481 1077 Crs
1487 958 Crs
1493 986 Crs
1499 815 Crs
1505 593 Crs
1511 460 Crs
1517 556 Crs
1524 513 Crs
1530 461 Crs
1536 523 Crs
1542 322 Crs
1548 471 Crs
1554 584 Crs
1560 770 Crs
1567 637 Crs
1573 783 Crs
1579 811 Crs
1585 815 Crs
1591 888 Crs
1597 1120 Crs
1604 1100 Crs
1610 912 Crs
1616 1137 Crs
1622 1355 Crs
1628 1147 Crs
1634 1085 Crs
1640 1241 Crs
1647 1189 Crs
1653 997 Crs
1659 1230 Crs
1665 1454 Crs
1671 1234 Crs
1677 1130 Crs
1683 1202 Crs
1690 1008 Crs
1696 1104 Crs
1702 1046 Crs
1708 888 Crs
1714 681 Crs
1720 476 Crs
1726 322 Crs
1733 293 Crs
1739 358 Crs
1745 418 Crs
1751 399 Crs
1757 599 Crs
1763 478 Crs
1770 494 Crs
1776 607 Crs
1782 776 Crs
1788 965 Crs
1794 1137 Crs
1800 1254 Crs
1806 1283 Crs
1813 1188 Crs
1819 1434 Crs
1825 1490 Crs
1831 1324 Crs
1837 1402 Crs
1843 1197 Crs
1849 1176 Crs
1856 1311 Crs
1862 1074 Crs
1868 936 Crs
1874 869 Crs
1880 848 Crs
1886 846 Crs
1893 837 Crs
1899 798 Crs
1905 703 Crs
1911 529 Crs
1917 751 Crs
1923 847 Crs
1929 797 Crs
1936 577 Crs
1942 665 Crs
1948 542 Crs
1954 685 Crs
1960 577 Crs
1966 696 Crs
1972 525 Crs
1979 542 Crs
1985 730 Crs
1991 574 Crs
1997 552 Crs
2003 648 Crs
2009 845 Crs
2016 629 Crs
2022 481 Crs
2028 386 Crs
2034 327 Crs
2040 289 Crs
2046 302 Crs
2052 341 Crs
2059 403 Crs
2065 501 Crs
2071 650 Crs
2077 863 Crs
2083 657 Crs
2089 540 Crs
2095 527 Crs
2102 630 Crs
2108 861 Crs
2114 735 Crs
2120 761 Crs
2126 951 Crs
2132 818 Crs
2138 873 Crs
2145 627 Crs
2151 590 Crs
2157 772 Crs
2163 686 Crs
2169 840 Crs
2175 746 Crs
2182 912 Crs
2188 849 Crs
2194 1066 Crs
2200 1074 Crs
2206 882 Crs
2212 997 Crs
2218 930 Crs
2225 690 Crs
2231 783 Crs
2237 720 Crs
2243 509 Crs
2249 656 Crs
2255 672 Crs
2261 564 Crs
2268 341 Crs
2274 506 Crs
2280 571 Crs
2286 542 Crs
2292 428 Crs
2298 325 Crs
2305 467 Crs
2311 635 Crs
2317 744 Crs
2323 802 Crs
2329 816 Crs
2335 791 Crs
2341 734 Crs
2348 651 Crs
2354 550 Crs
2360 434 Crs
2366 312 Crs
2372 372 Crs
2378 492 Crs
2384 602 Crs
2391 695 Crs
2397 768 Crs
2403 814 Crs
2409 828 Crs
2415 805 Crs
2421 739 Crs
2427 626 Crs
2434 459 Crs
2440 324 Crs
2446 446 Crs
2452 589 Crs
2458 660 Crs
2464 654 Crs
2471 567 Crs
2477 393 Crs
2483 626 Crs
2489 764 Crs
2495 802 Crs
2501 737 Crs
2507 565 Crs
2514 777 Crs
2520 873 Crs
2526 849 Crs
2532 700 Crs
2538 921 Crs
2544 1009 Crs
2550 962 Crs
2557 775 Crs
2563 941 Crs
2569 961 Crs
2575 830 Crs
2581 1042 Crs
2587 1096 Crs
2594 988 Crs
2600 1213 Crs
2606 1270 Crs
2612 1156 Crs
2618 1364 Crs
2624 1394 Crs
2630 1243 Crs
2637 1405 Crs
2643 1379 Crs
2649 1163 Crs
2655 1250 Crs
2661 1141 Crs
2667 1330 Crs
2673 1316 Crs
2680 1096 Crs
2686 1166 Crs
2692 1025 Crs
2698 1166 Crs
2704 1092 Crs
2710 1295 Crs
2716 1277 Crs
2723 1034 Crs
2729 1061 Crs
2735 859 Crs
2741 921 Crs
2747 749 Crs
2753 837 Crs
2760 685 Crs
2766 789 Crs
2772 648 Crs
2778 757 Crs
2784 617 Crs
2790 723 Crs
2796 576 Crs
2803 669 Crs
2809 505 Crs
2815 578 Crs
2821 388 Crs
2827 431 Crs
2833 353 Crs
2839 348 Crs
2846 443 Crs
2852 401 Crs
2858 582 Crs
2864 486 Crs
2870 608 Crs
2876 449 Crs
2883 505 Crs
2889 283 Crs
2895 300 Crs
2901 451 Crs
2907 353 Crs
2913 459 Crs
2919 287 Crs
2926 288 Crs
2932 503 Crs
2938 419 Crs
2944 532 Crs
2950 343 Crs
2956 347 Crs
2962 542 Crs
2969 431 Crs
2975 508 Crs
2981 285 Crs
2987 333 Crs
2993 362 Crs
2999 377 Crs
3005 376 Crs
3012 364 Crs
3018 335 Crs
3024 298 Crs
3030 474 Crs
3036 362 Crs
3042 422 Crs
3049 652 Crs
3055 554 Crs
3061 624 Crs
3067 860 Crs
3073 764 Crs
3079 832 Crs
3085 1062 Crs
3092 956 Crs
3098 1010 Crs
3104 1222 Crs
3110 1095 Crs
3116 1123 Crs
3122 1306 Crs
3128 1146 Crs
3135 1137 Crs
3141 1280 Crs
3147 1076 Crs
3153 1021 Crs
3159 1112 Crs
3165 1351 Crs
3172 1237 Crs
3178 1268 Crs
3184 1442 Crs
3190 1261 Crs
3196 1220 Crs
3202 1320 Crs
3208 1557 Crs
3215 1436 Crs
3221 1451 Crs
3227 1602 Crs
3233 1391 Crs
3239 1313 Crs
3245 1367 Crs
3251 1553 Crs
3258 1372 Crs
3264 1321 Crs
3270 1399 Crs
3276 1604 Crs
3282 1439 Crs
3288 1399 Crs
3294 1485 Crs
3301 1694 Crs
3307 1529 Crs
3313 1487 Crs
3319 1565 Crs
3325 1764 Crs
3331 1586 Crs
3338 1526 Crs
3344 1584 Crs
3350 1758 Crs
3356 1552 Crs
3362 1461 Crs
3368 1484 Crs
3374 1621 Crs
3381 1374 Crs
3387 1238 Crs
3393 1214 Crs
3399 1300 Crs
3405 1495 Crs
3411 1303 Crs
3417 1218 Crs
3424 1241 Crs
3430 1370 Crs
3436 1605 Crs
3442 1448 Crs
3448 1396 Crs
3454 1447 Crs
3461 1600 Crs
3467 1360 Crs
3473 1220 Crs
3479 1182 Crs
3485 1243 Crs
3491 1404 Crs
3497 1167 Crs
3504 1028 Crs
3510 986 Crs
3516 1040 Crs
3522 1191 Crs
3528 1437 Crs
3534 1281 Crs
3540 1219 Crs
3547 1251 Crs
3553 1375 Crs
3559 1592 Crs
3565 1404 Crs
3571 1307 Crs
3577 1300 Crs
3583 1382 Crs
3590 1554 Crs
3596 1318 Crs
3602 1170 Crs
3608 1110 Crs
3614 1136 Crs
3620 1248 Crs
3627 1447 Crs
3633 1234 Crs
3639 1105 Crs
3645 1061 Crs
3651 1100 Crs
3657 1222 Crs
3663 1427 Crs
3670 1217 Crs
3676 1088 Crs
3682 1040 Crs
3688 1073 Crs
3694 1185 Crs
3700 1377 Crs
3706 1151 Crs
3713 1004 Crs
3719 934 Crs
3725 942 Crs
3731 1026 Crs
3737 1187 Crs
3743 1424 Crs
3750 1240 Crs
3756 1131 Crs
3762 1096 Crs
3768 1135 Crs
3774 1248 Crs
3780 1434 Crs
3786 1196 Crs
3793 1031 Crs
3799 937 Crs
3805 915 Crs
3811 963 Crs
3817 1082 Crs
3823 1271 Crs
3829 1033 Crs
3836 865 Crs
3842 765 Crs
3848 733 Crs
3854 770 Crs
3860 874 Crs
3866 1045 Crs
3873 1282 Crs
3879 1090 Crs
3885 964 Crs
3891 903 Crs
3897 907 Crs
3903 977 Crs
3909 1110 Crs
3916 1307 Crs
3922 1072 Crs
3928 900 Crs
3934 791 Crs
3940 745 Crs
3946 760 Crs
3952 837 Crs
3959 976 Crs
3965 1176 Crs
3971 940 Crs
3977 764 Crs
3983 649 Crs
3989 593 Crs
3995 596 Crs
4002 658 Crs
4008 779 Crs
4014 959 Crs
4020 1196 Crs
4026 994 Crs
4032 850 Crs
4039 763 Crs
4045 733 Crs
4051 758 Crs
4057 840 Crs
4063 978 Crs
4069 1170 Crs
4075 1418 Crs
4082 1225 Crs
4088 1086 Crs
4094 1001 Crs
4100 970 Crs
4106 992 Crs
4112 1068 Crs
4118 1196 Crs
4125 1377 Crs
4131 1611 Crs
4137 1400 Crs
4143 1242 Crs
4149 1134 Crs
4155 1078 Crs
4162 1073 Crs
4168 1119 Crs
4174 1214 Crs
4180 1360 Crs
4186 1556 Crs
4192 1802 Crs
4198 1600 Crs
4205 1448 Crs
4211 1344 Crs
4217 1289 Crs
4223 1282 Crs
4229 1323 Crs
4235 1412 Crs
4241 1548 Crs
4248 1731 Crs
4254 1961 Crs
4260 1742 Crs
4266 1570 Crs
4272 1443 Crs
4278 1363 Crs
4284 1328 Crs
4291 1339 Crs
4297 1395 Crs
4303 1496 Crs
4309 1642 Crs
4315 1832 Crs
4321 2067 Crs
4328 1849 Crs
4334 1675 Crs
4340 1545 Crs
4346 1459 Crs
4352 1415 Crs
4358 1415 Crs
4364 1457 Crs
4371 1542 Crs
4377 1669 Crs
4383 1838 Crs
4389 2049 Crs
4395 1805 Crs
4401 1603 Crs
4407 1442 Crs
4414 1322 Crs
4420 1243 Crs
4426 1204 Crs
4432 1206 Crs
4438 1248 Crs
4444 1330 Crs
4451 1451 Crs
4457 1612 Crs
4463 1813 Crs
4469 2053 Crs
4475 1835 Crs
4481 1657 Crs
4487 1517 Crs
4494 1415 Crs
4500 1351 Crs
4506 1326 Crs
4512 1338 Crs
4518 1388 Crs
4524 1476 Crs
4530 1601 Crs
4537 1762 Crs
4543 1961 Crs
4549 2196 Crs
4555 1972 Crs
4561 1784 Crs
4567 1633 Crs
4573 1517 Crs
4580 1437 Crs
4586 1393 Crs
4592 1385 Crs
4598 1411 Crs
4604 1473 Crs
4610 1570 Crs
4617 1701 Crs
4623 1867 Crs
4629 2068 Crs
4635 2303 Crs
4641 2076 Crs
4647 1883 Crs
4653 1723 Crs
4660 1598 Crs
4666 1506 Crs
4672 1447 Crs
4678 1421 Crs
4684 1429 Crs
4690 1469 Crs
4696 1542 Crs
4703 1647 Crs
4709 1785 Crs
4715 1955 Crs
4721 2157 Crs
4727 2391 Crs
4733 2161 Crs
4740 1963 Crs
4746 1796 Crs
4752 1660 Crs
4758 1555 Crs
4764 1482 Crs
4770 1439 Crs
4776 1427 Crs
4783 1446 Crs
4789 1496 Crs
4795 1575 Crs
4801 1685 Crs
4807 1825 Crs
4813 1995 Crs
4819 2194 Crs
4826 2424 Crs
4832 2186 Crs
4838 1979 Crs
4844 1800 Crs
4850 1650 Crs
4856 1530 Crs
4862 1438 Crs
4869 1375 Crs
4875 1341 Crs
4881 1335 Crs
4887 1357 Crs
4893 1408 Crs
4899 1487 Crs
4906 1593 Crs
4912 1728 Crs
4918 1890 Crs
4924 2079 Crs
4930 2297 Crs
4936 2541 Crs
4942 2317 Crs
4949 2120 Crs
4955 1949 Crs
4961 1806 Crs
4967 1689 Crs
4973 1599 Crs
4979 1536 Crs
4985 1499 Crs
4992 1488 Crs
4998 1503 Crs
5004 1544 Crs
5010 1611 Crs
5016 1704 Crs
5022 1823 Crs
5029 1967 Crs
5035 2137 Crs
5041 2332 Crs
5047 2552 Crs
5053 2798 Crs
5059 2572 Crs
5065 2372 Crs
5072 2196 Crs
5078 2045 Crs
5084 1919 Crs
5090 1817 Crs
5096 1739 Crs
5102 1686 Crs
5108 1657 Crs
5115 1652 Crs
5121 1671 Crs
5127 1714 Crs
5133 1780 Crs
5139 1871 Crs
5145 1984 Crs
5151 2122 Crs
5158 2282 Crs
5164 2466 Crs
5170 2674 Crs
5176 2904 Crs
5182 2661 Crs
5188 2441 Crs
5195 2244 Crs
5201 2070 Crs
5207 1918 Crs
5213 1789 Crs
5219 1682 Crs
5225 1597 Crs
5231 1535 Crs
5238 1495 Crs
5244 1476 Crs
5250 1480 Crs
5256 1506 Crs
5262 1553 Crs
5268 1622 Crs
5274 1713 Crs
5281 1825 Crs
5287 1959 Crs
5293 2114 Crs
5299 2290 Crs
5305 2487 Crs
5311 2705 Crs
5318 2945 Crs
5324 2709 Crs
5330 2494 Crs
5336 2300 Crs
5342 2126 Crs
5348 1973 Crs
5354 1841 Crs
5361 1729 Crs
5367 1637 Crs
5373 1565 Crs
5379 1514 Crs
5385 1482 Crs
5391 1471 Crs
5397 1479 Crs
5404 1508 Crs
5410 1556 Crs
5416 1623 Crs
5422 1711 Crs
5428 1817 Crs
5434 1944 Crs
5440 2089 Crs
5447 2254 Crs
5453 2438 Crs
5459 2641 Crs
5465 2863 Crs
5471 3105 Crs
5477 2869 Crs
5484 2652 Crs
5490 2454 Crs
5496 2274 Crs
5502 2113 Crs
5508 1970 Crs
5514 1846 Crs
5520 1741 Crs
5527 1653 Crs
5533 1584 Crs
5539 1534 Crs
5545 1501 Crs
5551 1486 Crs
5557 1489 Crs
5563 1510 Crs
5570 1549 Crs
5576 1606 Crs
5582 1680 Crs
5588 1772 Crs
5594 1882 Crs
5600 2009 Crs
5607 2153 Crs
5613 2315 Crs
5619 2494 Crs
5625 2690 Crs
5631 2904 Crs
5637 3134 Crs
5643 3382 Crs
5650 3150 Crs
5656 2936 Crs
5662 2738 Crs
5668 2557 Crs
5674 2393 Crs
5680 2245 Crs
5686 2114 Crs
5693 2000 Crs
5699 1901 Crs
5705 1820 Crs
5711 1754 Crs
5717 1705 Crs
5723 1672 Crs
5729 1656 Crs
5736 1655 Crs
5742 1670 Crs
5748 1702 Crs
5754 1749 Crs
5760 1812 Crs
5766 1891 Crs
5773 1985 Crs
5779 2096 Crs
5785 2221 Crs
5791 2363 Crs
5797 2520 Crs
5803 2692 Crs
5809 2880 Crs
5816 3083 Crs
5822 3301 Crs
5828 3535 Crs
5834 3288 Crs
5840 3056 Crs
5846 2839 Crs
5852 2636 Crs
5859 2449 Crs
5865 2277 Crs
5871 2120 Crs
5877 1977 Crs
5883 1849 Crs
5889 1736 Crs
5896 1637 Crs
5902 1553 Crs
5908 1484 Crs
5914 1429 Crs
5920 1388 Crs
5926 1362 Crs
5932 1350 Crs
5939 1352 Crs
5945 1368 Crs
5951 1399 Crs
5957 1444 Crs
5963 1502 Crs
5969 1575 Crs
5975 1662 Crs
5982 1762 Crs
5988 1877 Crs
5994 2005 Crs
6000 2147 Crs
6006 2303 Crs
6012 2472 Crs
6019 2655 Crs
6025 2852 Crs
6031 3062 Crs
6037 3285 Crs
6043 3522 Crs
6049 3276 Crs
6055 3044 Crs
6062 2825 Crs
6068 2619 Crs
6074 2427 Crs
6080 2247 Crs
6086 2081 Crs
6092 1928 Crs
6098 1787 Crs
6105 1660 Crs
6111 1545 Crs
6117 1444 Crs
6123 1355 Crs
6129 1279 Crs
6135 1216 Crs
6141 1165 Crs
6148 1127 Crs
6154 1102 Crs
6160 1089 Crs
6166 1089 Crs
6172 1101 Crs
6178 1126 Crs
6185 1163 Crs
6191 1212 Crs
6197 1274 Crs
6203 1348 Crs
6209 1434 Crs
6215 1532 Crs
6221 1643 Crs
6228 1765 Crs
6234 1900 Crs
6240 2047 Crs
6246 2205 Crs
6252 2376 Crs
6258 2558 Crs
6264 2752 Crs
6271 2959 Crs
6277 3176 Crs
6283 3406 Crs
6289 3647 Crs
6295 3404 Crs
6301 3173 Crs
6308 2953 Crs
6314 2745 Crs
6320 2548 Crs
6326 2363 Crs
6332 2189 Crs
6338 2027 Crs
6344 1876 Crs
6351 1736 Crs
6357 1607 Crs
6363 1490 Crs
6369 1384 Crs
6375 1289 Crs
6381 1205 Crs
6387 1132 Crs
6394 1071 Crs
6400 1020 Crs
6406 980 Crs
6412 952 Crs
6418 934 Crs
6424 927 Crs
6430 931 Crs
6437 945 Crs
6443 971 Crs
6449 1007 Crs
6455 1054 Crs
6461 1111 Crs
6467 1179 Crs
6474 1258 Crs
6480 1347 Crs
6486 1447 Crs
6492 1557 Crs
6498 1678 Crs
6504 1809 Crs
6510 1951 Crs
6517 2103 Crs
6523 2265 Crs
6529 2437 Crs
6535 2620 Crs
6541 2813 Crs
6547 3016 Crs
6553 3229 Crs
6560 3453 Crs
6566 3686 Crs
6572 3930 Crs
6578 3688 Crs
6584 3455 Crs
6590 3233 Crs
6597 3021 Crs
6603 2818 Crs
6609 2625 Crs
6615 2443 Crs
6621 2270 Crs
6627 2106 Crs
6633 1953 Crs
6640 1809 Crs
6646 1675 Crs
6652 1550 Crs
6658 1436 Crs
6664 1330 Crs
6670 1235 Crs
6676 1149 Crs
6683 1072 Crs
6689 1005 Crs
6695 947 Crs
6701 899 Crs
6707 860 Crs
6713 830 Crs
6719 810 Crs
6726 799 Crs
6732 797 Crs
6738 805 Crs
6744 821 Crs
6750 847 Crs
6756 882 Crs
6763 926 Crs
6769 980 Crs
6775 1042 Crs
6781 1113 Crs
6787 1194 Crs
6793 1283 Crs
6799 1381 Crs
6806 1489 Crs
6812 1605 Crs
6818 1730 Crs
6824 1864 Crs
6830 2006 Crs
6836 2158 Crs
6842 2318 Crs
6849 2487 Crs
6855 2665 Crs
6861 2851 Crs
6867 3046 Crs
6873 3250 Crs
6879 3462 Crs
6886 3683 Crs
6892 3912 Crs
6898 4150 Crs
6904 4397 Crs
6910 4156 Crs
6916 3923 Crs
6922 3699 Crs
6929 3483 Crs
6935 3276 Crs
6941 3077 Crs
6947 2887 Crs
6579 4598 Crs
% End plot #2
1.000 UL
LTb
798 4871 N
798 280 L
6149 0 V
0 4591 V
-6149 0 V
Z stroke
1.000 UP
1.000 UL
LTb
stroke
grestore
end
showpage
