%!PS-Adobe-2.0 EPSF-2.0
%%Title: example.eps
%%Creator: gnuplot 4.6 patchlevel 0
%%CreationDate: Tue Oct  8 10:22:04 2013
%%DocumentFonts: (atend)
%%BoundingBox: 50 50 410 302
%%EndComments
%%BeginProlog
/gnudict 256 dict def
gnudict begin
%
% The following true/false flags may be edited by hand if desired.
% The unit line width and grayscale image gamma correction may also be changed.
%
/Color true def
/Blacktext false def
/Solid false def
/Dashlength 1 def
/Landscape false def
/Level1 false def
/Rounded false def
/ClipToBoundingBox false def
/SuppressPDFMark false def
/TransparentPatterns false def
/gnulinewidth 5.000 def
/userlinewidth gnulinewidth def
/Gamma 1.0 def
/BackgroundColor {-1.000 -1.000 -1.000} def
%
/vshift -46 def
/dl1 {
  10.0 Dashlength mul mul
  Rounded { currentlinewidth 0.75 mul sub dup 0 le { pop 0.01 } if } if
} def
/dl2 {
  10.0 Dashlength mul mul
  Rounded { currentlinewidth 0.75 mul add } if
} def
/hpt_ 31.5 def
/vpt_ 31.5 def
/hpt hpt_ def
/vpt vpt_ def
/doclip {
  ClipToBoundingBox {
    newpath 50 50 moveto 410 50 lineto 410 302 lineto 50 302 lineto closepath
    clip
  } if
} def
%
% Gnuplot Prolog Version 4.4 (August 2010)
%
%/SuppressPDFMark true def
%
/M {moveto} bind def
/L {lineto} bind def
/R {rmoveto} bind def
/V {rlineto} bind def
/N {newpath moveto} bind def
/Z {closepath} bind def
/C {setrgbcolor} bind def
/f {rlineto fill} bind def
/g {setgray} bind def
/Gshow {show} def   % May be redefined later in the file to support UTF-8
/vpt2 vpt 2 mul def
/hpt2 hpt 2 mul def
/Lshow {currentpoint stroke M 0 vshift R 
	Blacktext {gsave 0 setgray show grestore} {show} ifelse} def
/Rshow {currentpoint stroke M dup stringwidth pop neg vshift R
	Blacktext {gsave 0 setgray show grestore} {show} ifelse} def
/Cshow {currentpoint stroke M dup stringwidth pop -2 div vshift R 
	Blacktext {gsave 0 setgray show grestore} {show} ifelse} def
/UP {dup vpt_ mul /vpt exch def hpt_ mul /hpt exch def
  /hpt2 hpt 2 mul def /vpt2 vpt 2 mul def} def
/DL {Color {setrgbcolor Solid {pop []} if 0 setdash}
 {pop pop pop 0 setgray Solid {pop []} if 0 setdash} ifelse} def
/BL {stroke userlinewidth 2 mul setlinewidth
	Rounded {1 setlinejoin 1 setlinecap} if} def
/AL {stroke userlinewidth 2 div setlinewidth
	Rounded {1 setlinejoin 1 setlinecap} if} def
/UL {dup gnulinewidth mul /userlinewidth exch def
	dup 1 lt {pop 1} if 10 mul /udl exch def} def
/PL {stroke userlinewidth setlinewidth
	Rounded {1 setlinejoin 1 setlinecap} if} def
3.8 setmiterlimit
% Default Line colors
/LCw {1 1 1} def
/LCb {0 0 0} def
/LCa {0 0 0} def
/LC0 {1 0 0} def
/LC1 {0 1 0} def
/LC2 {0 0 1} def
/LC3 {1 0 1} def
/LC4 {0 1 1} def
/LC5 {1 1 0} def
/LC6 {0 0 0} def
/LC7 {1 0.3 0} def
/LC8 {0.5 0.5 0.5} def
% Default Line Types
/LTw {PL [] 1 setgray} def
/LTb {BL [] LCb DL} def
/LTa {AL [1 udl mul 2 udl mul] 0 setdash LCa setrgbcolor} def
/LT0 {PL [] LC0 DL} def
/LT1 {PL [4 dl1 2 dl2] LC1 DL} def
/LT2 {PL [2 dl1 3 dl2] LC2 DL} def
/LT3 {PL [1 dl1 1.5 dl2] LC3 DL} def
/LT4 {PL [6 dl1 2 dl2 1 dl1 2 dl2] LC4 DL} def
/LT5 {PL [3 dl1 3 dl2 1 dl1 3 dl2] LC5 DL} def
/LT6 {PL [2 dl1 2 dl2 2 dl1 6 dl2] LC6 DL} def
/LT7 {PL [1 dl1 2 dl2 6 dl1 2 dl2 1 dl1 2 dl2] LC7 DL} def
/LT8 {PL [2 dl1 2 dl2 2 dl1 2 dl2 2 dl1 2 dl2 2 dl1 4 dl2] LC8 DL} def
/Pnt {stroke [] 0 setdash gsave 1 setlinecap M 0 0 V stroke grestore} def
/Dia {stroke [] 0 setdash 2 copy vpt add M
  hpt neg vpt neg V hpt vpt neg V
  hpt vpt V hpt neg vpt V closepath stroke
  Pnt} def
/Pls {stroke [] 0 setdash vpt sub M 0 vpt2 V
  currentpoint stroke M
  hpt neg vpt neg R hpt2 0 V stroke
 } def
/Box {stroke [] 0 setdash 2 copy exch hpt sub exch vpt add M
  0 vpt2 neg V hpt2 0 V 0 vpt2 V
  hpt2 neg 0 V closepath stroke
  Pnt} def
/Crs {stroke [] 0 setdash exch hpt sub exch vpt add M
  hpt2 vpt2 neg V currentpoint stroke M
  hpt2 neg 0 R hpt2 vpt2 V stroke} def
/TriU {stroke [] 0 setdash 2 copy vpt 1.12 mul add M
  hpt neg vpt -1.62 mul V
  hpt 2 mul 0 V
  hpt neg vpt 1.62 mul V closepath stroke
  Pnt} def
/Star {2 copy Pls Crs} def
/BoxF {stroke [] 0 setdash exch hpt sub exch vpt add M
  0 vpt2 neg V hpt2 0 V 0 vpt2 V
  hpt2 neg 0 V closepath fill} def
/TriUF {stroke [] 0 setdash vpt 1.12 mul add M
  hpt neg vpt -1.62 mul V
  hpt 2 mul 0 V
  hpt neg vpt 1.62 mul V closepath fill} def
/TriD {stroke [] 0 setdash 2 copy vpt 1.12 mul sub M
  hpt neg vpt 1.62 mul V
  hpt 2 mul 0 V
  hpt neg vpt -1.62 mul V closepath stroke
  Pnt} def
/TriDF {stroke [] 0 setdash vpt 1.12 mul sub M
  hpt neg vpt 1.62 mul V
  hpt 2 mul 0 V
  hpt neg vpt -1.62 mul V closepath fill} def
/DiaF {stroke [] 0 setdash vpt add M
  hpt neg vpt neg V hpt vpt neg V
  hpt vpt V hpt neg vpt V closepath fill} def
/Pent {stroke [] 0 setdash 2 copy gsave
  translate 0 hpt M 4 {72 rotate 0 hpt L} repeat
  closepath stroke grestore Pnt} def
/PentF {stroke [] 0 setdash gsave
  translate 0 hpt M 4 {72 rotate 0 hpt L} repeat
  closepath fill grestore} def
/Circle {stroke [] 0 setdash 2 copy
  hpt 0 360 arc stroke Pnt} def
/CircleF {stroke [] 0 setdash hpt 0 360 arc fill} def
/C0 {BL [] 0 setdash 2 copy moveto vpt 90 450 arc} bind def
/C1 {BL [] 0 setdash 2 copy moveto
	2 copy vpt 0 90 arc closepath fill
	vpt 0 360 arc closepath} bind def
/C2 {BL [] 0 setdash 2 copy moveto
	2 copy vpt 90 180 arc closepath fill
	vpt 0 360 arc closepath} bind def
/C3 {BL [] 0 setdash 2 copy moveto
	2 copy vpt 0 180 arc closepath fill
	vpt 0 360 arc closepath} bind def
/C4 {BL [] 0 setdash 2 copy moveto
	2 copy vpt 180 270 arc closepath fill
	vpt 0 360 arc closepath} bind def
/C5 {BL [] 0 setdash 2 copy moveto
	2 copy vpt 0 90 arc
	2 copy moveto
	2 copy vpt 180 270 arc closepath fill
	vpt 0 360 arc} bind def
/C6 {BL [] 0 setdash 2 copy moveto
	2 copy vpt 90 270 arc closepath fill
	vpt 0 360 arc closepath} bind def
/C7 {BL [] 0 setdash 2 copy moveto
	2 copy vpt 0 270 arc closepath fill
	vpt 0 360 arc closepath} bind def
/C8 {BL [] 0 setdash 2 copy moveto
	2 copy vpt 270 360 arc closepath fill
	vpt 0 360 arc closepath} bind def
/C9 {BL [] 0 setdash 2 copy moveto
	2 copy vpt 270 450 arc closepath fill
	vpt 0 360 arc closepath} bind def
/C10 {BL [] 0 setdash 2 copy 2 copy moveto vpt 270 360 arc closepath fill
	2 copy moveto
	2 copy vpt 90 180 arc closepath fill
	vpt 0 360 arc closepath} bind def
/C11 {BL [] 0 setdash 2 copy moveto
	2 copy vpt 0 180 arc closepath fill
	2 copy moveto
	2 copy vpt 270 360 arc closepath fill
	vpt 0 360 arc closepath} bind def
/C12 {BL [] 0 setdash 2 copy moveto
	2 copy vpt 180 360 arc closepath fill
	vpt 0 360 arc closepath} bind def
/C13 {BL [] 0 setdash 2 copy moveto
	2 copy vpt 0 90 arc closepath fill
	2 copy moveto
	2 copy vpt 180 360 arc closepath fill
	vpt 0 360 arc closepath} bind def
/C14 {BL [] 0 setdash 2 copy moveto
	2 copy vpt 90 360 arc closepath fill
	vpt 0 360 arc} bind def
/C15 {BL [] 0 setdash 2 copy vpt 0 360 arc closepath fill
	vpt 0 360 arc closepath} bind def
/Rec {newpath 4 2 roll moveto 1 index 0 rlineto 0 exch rlineto
	neg 0 rlineto closepath} bind def
/Square {dup Rec} bind def
/Bsquare {vpt sub exch vpt sub exch vpt2 Square} bind def
/S0 {BL [] 0 setdash 2 copy moveto 0 vpt rlineto BL Bsquare} bind def
/S1 {BL [] 0 setdash 2 copy vpt Square fill Bsquare} bind def
/S2 {BL [] 0 setdash 2 copy exch vpt sub exch vpt Square fill Bsquare} bind def
/S3 {BL [] 0 setdash 2 copy exch vpt sub exch vpt2 vpt Rec fill Bsquare} bind def
/S4 {BL [] 0 setdash 2 copy exch vpt sub exch vpt sub vpt Square fill Bsquare} bind def
/S5 {BL [] 0 setdash 2 copy 2 copy vpt Square fill
	exch vpt sub exch vpt sub vpt Square fill Bsquare} bind def
/S6 {BL [] 0 setdash 2 copy exch vpt sub exch vpt sub vpt vpt2 Rec fill Bsquare} bind def
/S7 {BL [] 0 setdash 2 copy exch vpt sub exch vpt sub vpt vpt2 Rec fill
	2 copy vpt Square fill Bsquare} bind def
/S8 {BL [] 0 setdash 2 copy vpt sub vpt Square fill Bsquare} bind def
/S9 {BL [] 0 setdash 2 copy vpt sub vpt vpt2 Rec fill Bsquare} bind def
/S10 {BL [] 0 setdash 2 copy vpt sub vpt Square fill 2 copy exch vpt sub exch vpt Square fill
	Bsquare} bind def
/S11 {BL [] 0 setdash 2 copy vpt sub vpt Square fill 2 copy exch vpt sub exch vpt2 vpt Rec fill
	Bsquare} bind def
/S12 {BL [] 0 setdash 2 copy exch vpt sub exch vpt sub vpt2 vpt Rec fill Bsquare} bind def
/S13 {BL [] 0 setdash 2 copy exch vpt sub exch vpt sub vpt2 vpt Rec fill
	2 copy vpt Square fill Bsquare} bind def
/S14 {BL [] 0 setdash 2 copy exch vpt sub exch vpt sub vpt2 vpt Rec fill
	2 copy exch vpt sub exch vpt Square fill Bsquare} bind def
/S15 {BL [] 0 setdash 2 copy Bsquare fill Bsquare} bind def
/D0 {gsave translate 45 rotate 0 0 S0 stroke grestore} bind def
/D1 {gsave translate 45 rotate 0 0 S1 stroke grestore} bind def
/D2 {gsave translate 45 rotate 0 0 S2 stroke grestore} bind def
/D3 {gsave translate 45 rotate 0 0 S3 stroke grestore} bind def
/D4 {gsave translate 45 rotate 0 0 S4 stroke grestore} bind def
/D5 {gsave translate 45 rotate 0 0 S5 stroke grestore} bind def
/D6 {gsave translate 45 rotate 0 0 S6 stroke grestore} bind def
/D7 {gsave translate 45 rotate 0 0 S7 stroke grestore} bind def
/D8 {gsave translate 45 rotate 0 0 S8 stroke grestore} bind def
/D9 {gsave translate 45 rotate 0 0 S9 stroke grestore} bind def
/D10 {gsave translate 45 rotate 0 0 S10 stroke grestore} bind def
/D11 {gsave translate 45 rotate 0 0 S11 stroke grestore} bind def
/D12 {gsave translate 45 rotate 0 0 S12 stroke grestore} bind def
/D13 {gsave translate 45 rotate 0 0 S13 stroke grestore} bind def
/D14 {gsave translate 45 rotate 0 0 S14 stroke grestore} bind def
/D15 {gsave translate 45 rotate 0 0 S15 stroke grestore} bind def
/DiaE {stroke [] 0 setdash vpt add M
  hpt neg vpt neg V hpt vpt neg V
  hpt vpt V hpt neg vpt V closepath stroke} def
/BoxE {stroke [] 0 setdash exch hpt sub exch vpt add M
  0 vpt2 neg V hpt2 0 V 0 vpt2 V
  hpt2 neg 0 V closepath stroke} def
/TriUE {stroke [] 0 setdash vpt 1.12 mul add M
  hpt neg vpt -1.62 mul V
  hpt 2 mul 0 V
  hpt neg vpt 1.62 mul V closepath stroke} def
/TriDE {stroke [] 0 setdash vpt 1.12 mul sub M
  hpt neg vpt 1.62 mul V
  hpt 2 mul 0 V
  hpt neg vpt -1.62 mul V closepath stroke} def
/PentE {stroke [] 0 setdash gsave
  translate 0 hpt M 4 {72 rotate 0 hpt L} repeat
  closepath stroke grestore} def
/CircE {stroke [] 0 setdash 
  hpt 0 360 arc stroke} def
/Opaque {gsave closepath 1 setgray fill grestore 0 setgray closepath} def
/DiaW {stroke [] 0 setdash vpt add M
  hpt neg vpt neg V hpt vpt neg V
  hpt vpt V hpt neg vpt V Opaque stroke} def
/BoxW {stroke [] 0 setdash exch hpt sub exch vpt add M
  0 vpt2 neg V hpt2 0 V 0 vpt2 V
  hpt2 neg 0 V Opaque stroke} def
/TriUW {stroke [] 0 setdash vpt 1.12 mul add M
  hpt neg vpt -1.62 mul V
  hpt 2 mul 0 V
  hpt neg vpt 1.62 mul V Opaque stroke} def
/TriDW {stroke [] 0 setdash vpt 1.12 mul sub M
  hpt neg vpt 1.62 mul V
  hpt 2 mul 0 V
  hpt neg vpt -1.62 mul V Opaque stroke} def
/PentW {stroke [] 0 setdash gsave
  translate 0 hpt M 4 {72 rotate 0 hpt L} repeat
  Opaque stroke grestore} def
/CircW {stroke [] 0 setdash 
  hpt 0 360 arc Opaque stroke} def
/BoxFill {gsave Rec 1 setgray fill grestore} def
/Density {
  /Fillden exch def
  currentrgbcolor
  /ColB exch def /ColG exch def /ColR exch def
  /ColR ColR Fillden mul Fillden sub 1 add def
  /ColG ColG Fillden mul Fillden sub 1 add def
  /ColB ColB Fillden mul Fillden sub 1 add def
  ColR ColG ColB setrgbcolor} def
/BoxColFill {gsave Rec PolyFill} def
/PolyFill {gsave Density fill grestore grestore} def
/h {rlineto rlineto rlineto gsave closepath fill grestore} bind def
%
% PostScript Level 1 Pattern Fill routine for rectangles
% Usage: x y w h s a XX PatternFill
%	x,y = lower left corner of box to be filled
%	w,h = width and height of box
%	  a = angle in degrees between lines and x-axis
%	 XX = 0/1 for no/yes cross-hatch
%
/PatternFill {gsave /PFa [ 9 2 roll ] def
  PFa 0 get PFa 2 get 2 div add PFa 1 get PFa 3 get 2 div add translate
  PFa 2 get -2 div PFa 3 get -2 div PFa 2 get PFa 3 get Rec
  gsave 1 setgray fill grestore clip
  currentlinewidth 0.5 mul setlinewidth
  /PFs PFa 2 get dup mul PFa 3 get dup mul add sqrt def
  0 0 M PFa 5 get rotate PFs -2 div dup translate
  0 1 PFs PFa 4 get div 1 add floor cvi
	{PFa 4 get mul 0 M 0 PFs V} for
  0 PFa 6 get ne {
	0 1 PFs PFa 4 get div 1 add floor cvi
	{PFa 4 get mul 0 2 1 roll M PFs 0 V} for
 } if
  stroke grestore} def
%
/languagelevel where
 {pop languagelevel} {1} ifelse
 2 lt
	{/InterpretLevel1 true def}
	{/InterpretLevel1 Level1 def}
 ifelse
%
% PostScript level 2 pattern fill definitions
%
/Level2PatternFill {
/Tile8x8 {/PaintType 2 /PatternType 1 /TilingType 1 /BBox [0 0 8 8] /XStep 8 /YStep 8}
	bind def
/KeepColor {currentrgbcolor [/Pattern /DeviceRGB] setcolorspace} bind def
<< Tile8x8
 /PaintProc {0.5 setlinewidth pop 0 0 M 8 8 L 0 8 M 8 0 L stroke} 
>> matrix makepattern
/Pat1 exch def
<< Tile8x8
 /PaintProc {0.5 setlinewidth pop 0 0 M 8 8 L 0 8 M 8 0 L stroke
	0 4 M 4 8 L 8 4 L 4 0 L 0 4 L stroke}
>> matrix makepattern
/Pat2 exch def
<< Tile8x8
 /PaintProc {0.5 setlinewidth pop 0 0 M 0 8 L
	8 8 L 8 0 L 0 0 L fill}
>> matrix makepattern
/Pat3 exch def
<< Tile8x8
 /PaintProc {0.5 setlinewidth pop -4 8 M 8 -4 L
	0 12 M 12 0 L stroke}
>> matrix makepattern
/Pat4 exch def
<< Tile8x8
 /PaintProc {0.5 setlinewidth pop -4 0 M 8 12 L
	0 -4 M 12 8 L stroke}
>> matrix makepattern
/Pat5 exch def
<< Tile8x8
 /PaintProc {0.5 setlinewidth pop -2 8 M 4 -4 L
	0 12 M 8 -4 L 4 12 M 10 0 L stroke}
>> matrix makepattern
/Pat6 exch def
<< Tile8x8
 /PaintProc {0.5 setlinewidth pop -2 0 M 4 12 L
	0 -4 M 8 12 L 4 -4 M 10 8 L stroke}
>> matrix makepattern
/Pat7 exch def
<< Tile8x8
 /PaintProc {0.5 setlinewidth pop 8 -2 M -4 4 L
	12 0 M -4 8 L 12 4 M 0 10 L stroke}
>> matrix makepattern
/Pat8 exch def
<< Tile8x8
 /PaintProc {0.5 setlinewidth pop 0 -2 M 12 4 L
	-4 0 M 12 8 L -4 4 M 8 10 L stroke}
>> matrix makepattern
/Pat9 exch def
/Pattern1 {PatternBgnd KeepColor Pat1 setpattern} bind def
/Pattern2 {PatternBgnd KeepColor Pat2 setpattern} bind def
/Pattern3 {PatternBgnd KeepColor Pat3 setpattern} bind def
/Pattern4 {PatternBgnd KeepColor Landscape {Pat5} {Pat4} ifelse setpattern} bind def
/Pattern5 {PatternBgnd KeepColor Landscape {Pat4} {Pat5} ifelse setpattern} bind def
/Pattern6 {PatternBgnd KeepColor Landscape {Pat9} {Pat6} ifelse setpattern} bind def
/Pattern7 {PatternBgnd KeepColor Landscape {Pat8} {Pat7} ifelse setpattern} bind def
} def
%
%
%End of PostScript Level 2 code
%
/PatternBgnd {
  TransparentPatterns {} {gsave 1 setgray fill grestore} ifelse
} def
%
% Substitute for Level 2 pattern fill codes with
% grayscale if Level 2 support is not selected.
%
/Level1PatternFill {
/Pattern1 {0.250 Density} bind def
/Pattern2 {0.500 Density} bind def
/Pattern3 {0.750 Density} bind def
/Pattern4 {0.125 Density} bind def
/Pattern5 {0.375 Density} bind def
/Pattern6 {0.625 Density} bind def
/Pattern7 {0.875 Density} bind def
} def
%
% Now test for support of Level 2 code
%
Level1 {Level1PatternFill} {Level2PatternFill} ifelse
%
/Symbol-Oblique /Symbol findfont [1 0 .167 1 0 0] makefont
dup length dict begin {1 index /FID eq {pop pop} {def} ifelse} forall
currentdict end definefont pop
/MFshow {
   { dup 5 get 3 ge
     { 5 get 3 eq {gsave} {grestore} ifelse }
     {dup dup 0 get findfont exch 1 get scalefont setfont
     [ currentpoint ] exch dup 2 get 0 exch R dup 5 get 2 ne {dup dup 6
     get exch 4 get {Gshow} {stringwidth pop 0 R} ifelse }if dup 5 get 0 eq
     {dup 3 get {2 get neg 0 exch R pop} {pop aload pop M} ifelse} {dup 5
     get 1 eq {dup 2 get exch dup 3 get exch 6 get stringwidth pop -2 div
     dup 0 R} {dup 6 get stringwidth pop -2 div 0 R 6 get
     show 2 index {aload pop M neg 3 -1 roll neg R pop pop} {pop pop pop
     pop aload pop M} ifelse }ifelse }ifelse }
     ifelse }
   forall} def
/Gswidth {dup type /stringtype eq {stringwidth} {pop (n) stringwidth} ifelse} def
/MFwidth {0 exch { dup 5 get 3 ge { 5 get 3 eq { 0 } { pop } ifelse }
 {dup 3 get{dup dup 0 get findfont exch 1 get scalefont setfont
     6 get Gswidth pop add} {pop} ifelse} ifelse} forall} def
/MLshow { currentpoint stroke M
  0 exch R
  Blacktext {gsave 0 setgray MFshow grestore} {MFshow} ifelse } bind def
/MRshow { currentpoint stroke M
  exch dup MFwidth neg 3 -1 roll R
  Blacktext {gsave 0 setgray MFshow grestore} {MFshow} ifelse } bind def
/MCshow { currentpoint stroke M
  exch dup MFwidth -2 div 3 -1 roll R
  Blacktext {gsave 0 setgray MFshow grestore} {MFshow} ifelse } bind def
/XYsave    { [( ) 1 2 true false 3 ()] } bind def
/XYrestore { [( ) 1 2 true false 4 ()] } bind def
Level1 SuppressPDFMark or 
{} {
/SDict 10 dict def
systemdict /pdfmark known not {
  userdict /pdfmark systemdict /cleartomark get put
} if
SDict begin [
  /Title (example.eps)
  /Subject (gnuplot plot)
  /Creator (gnuplot 4.6 patchlevel 0)
  /Author (joagonzalezve)
%  /Producer (gnuplot)
%  /Keywords ()
  /CreationDate (Tue Oct  8 10:22:04 2013)
  /DOCINFO pdfmark
end
} ifelse
end
%%EndProlog
%%Page: 1 1
gnudict begin
gsave
doclip
50 50 translate
0.050 0.050 scale
0 setgray
newpath
(Helvetica) findfont 140 scalefont setfont
BackgroundColor 0 lt 3 1 roll 0 lt exch 0 lt or or not {BackgroundColor C 1.000 0 0 7200.00 5040.00 BoxColFill} if
1.000 UL
LTb
1.000 UL
LTa
630 586 M
6317 0 V
stroke
LTb
630 586 M
63 0 V
6254 0 R
-63 0 V
stroke
546 586 M
[ [(Helvetica) 140.0 0.0 true true 0 ( 0)]
] -46.7 MRshow
1.000 UL
LTb
1.000 UL
LTa
630 1351 M
6317 0 V
stroke
LTb
630 1351 M
63 0 V
6254 0 R
-63 0 V
stroke
546 1351 M
[ [(Helvetica) 140.0 0.0 true true 0 ( 200)]
] -46.7 MRshow
1.000 UL
LTb
1.000 UL
LTa
630 2116 M
6317 0 V
stroke
LTb
630 2116 M
63 0 V
6254 0 R
-63 0 V
stroke
546 2116 M
[ [(Helvetica) 140.0 0.0 true true 0 ( 400)]
] -46.7 MRshow
1.000 UL
LTb
1.000 UL
LTa
630 2882 M
6317 0 V
stroke
LTb
630 2882 M
63 0 V
6254 0 R
-63 0 V
stroke
546 2882 M
[ [(Helvetica) 140.0 0.0 true true 0 ( 600)]
] -46.7 MRshow
1.000 UL
LTb
1.000 UL
LTa
630 3647 M
6317 0 V
stroke
LTb
630 3647 M
63 0 V
6254 0 R
-63 0 V
stroke
546 3647 M
[ [(Helvetica) 140.0 0.0 true true 0 ( 800)]
] -46.7 MRshow
1.000 UL
LTb
1.000 UL
LTa
630 4412 M
6317 0 V
stroke
LTb
630 4412 M
63 0 V
6254 0 R
-63 0 V
stroke
546 4412 M
[ [(Helvetica) 140.0 0.0 true true 0 ( 1000)]
] -46.7 MRshow
1.000 UL
LTb
1.000 UL
LTa
630 280 M
0 4591 V
stroke
LTb
630 280 M
0 63 V
0 4528 R
0 -63 V
stroke
630 140 M
[ [(Helvetica) 140.0 0.0 true true 0 ( 0)]
] -46.7 MCshow
1.000 UL
LTb
1.000 UL
LTa
1332 280 M
0 4591 V
stroke
LTb
1332 280 M
0 63 V
0 4528 R
0 -63 V
stroke
1332 140 M
[ [(Helvetica) 140.0 0.0 true true 0 ( 20)]
] -46.7 MCshow
1.000 UL
LTb
1.000 UL
LTa
2034 280 M
0 4591 V
stroke
LTb
2034 280 M
0 63 V
0 4528 R
0 -63 V
stroke
2034 140 M
[ [(Helvetica) 140.0 0.0 true true 0 ( 40)]
] -46.7 MCshow
1.000 UL
LTb
1.000 UL
LTa
2736 280 M
0 4591 V
stroke
LTb
2736 280 M
0 63 V
0 4528 R
0 -63 V
stroke
2736 140 M
[ [(Helvetica) 140.0 0.0 true true 0 ( 60)]
] -46.7 MCshow
1.000 UL
LTb
1.000 UL
LTa
3438 280 M
0 4591 V
stroke
LTb
3438 280 M
0 63 V
0 4528 R
0 -63 V
stroke
3438 140 M
[ [(Helvetica) 140.0 0.0 true true 0 ( 80)]
] -46.7 MCshow
1.000 UL
LTb
1.000 UL
LTa
4139 280 M
0 4591 V
stroke
LTb
4139 280 M
0 63 V
0 4528 R
0 -63 V
stroke
4139 140 M
[ [(Helvetica) 140.0 0.0 true true 0 ( 100)]
] -46.7 MCshow
1.000 UL
LTb
1.000 UL
LTa
4841 280 M
0 4591 V
stroke
LTb
4841 280 M
0 63 V
0 4528 R
0 -63 V
stroke
4841 140 M
[ [(Helvetica) 140.0 0.0 true true 0 ( 120)]
] -46.7 MCshow
1.000 UL
LTb
1.000 UL
LTa
5543 280 M
0 4591 V
stroke
LTb
5543 280 M
0 63 V
0 4528 R
0 -63 V
stroke
5543 140 M
[ [(Helvetica) 140.0 0.0 true true 0 ( 140)]
] -46.7 MCshow
1.000 UL
LTb
1.000 UL
LTa
6245 280 M
0 4248 V
0 280 R
0 63 V
stroke
LTb
6245 280 M
0 63 V
0 4528 R
0 -63 V
stroke
6245 140 M
[ [(Helvetica) 140.0 0.0 true true 0 ( 160)]
] -46.7 MCshow
1.000 UL
LTb
1.000 UL
LTa
6947 280 M
0 4591 V
stroke
LTb
6947 280 M
0 63 V
0 4528 R
0 -63 V
stroke
6947 140 M
[ [(Helvetica) 140.0 0.0 true true 0 ( 180)]
] -46.7 MCshow
1.000 UL
LTb
1.000 UL
LTb
630 4871 N
630 280 L
6317 0 V
0 4591 V
-6317 0 V
Z stroke
1.000 UP
1.000 UL
LTb
% Begin plot #1
1.000 UP
1.000 UL
LT0
LCb setrgbcolor
6296 4738 M
[ [(Helvetica) 140.0 0.0 true true 0 (Lagrange)]
] -46.7 MRshow
LT0
665 566 Pls
700 1354 Pls
735 622 Pls
770 617 Pls
805 618 Pls
841 620 Pls
876 623 Pls
911 625 Pls
946 629 Pls
981 635 Pls
1016 637 Pls
1051 642 Pls
1086 646 Pls
1121 648 Pls
1156 651 Pls
1192 656 Pls
1227 661 Pls
1262 663 Pls
1297 668 Pls
1332 672 Pls
1367 673 Pls
1402 678 Pls
1437 681 Pls
1472 686 Pls
1507 692 Pls
1542 695 Pls
1578 697 Pls
1613 700 Pls
1648 702 Pls
1683 705 Pls
1718 715 Pls
1753 718 Pls
1788 723 Pls
1823 724 Pls
1858 731 Pls
1893 733 Pls
1928 737 Pls
1964 742 Pls
1999 744 Pls
2034 749 Pls
2069 753 Pls
2104 754 Pls
2139 761 Pls
2174 763 Pls
2209 766 Pls
2244 767 Pls
2279 775 Pls
2315 783 Pls
2350 786 Pls
2385 787 Pls
2420 790 Pls
2455 794 Pls
2490 796 Pls
2525 802 Pls
2560 806 Pls
2595 810 Pls
2630 814 Pls
2665 816 Pls
2701 819 Pls
2736 822 Pls
2771 823 Pls
2806 830 Pls
2841 839 Pls
2876 842 Pls
2911 843 Pls
2946 845 Pls
2981 854 Pls
3016 858 Pls
3052 865 Pls
3087 866 Pls
3122 868 Pls
3157 872 Pls
3192 877 Pls
3227 881 Pls
3262 885 Pls
3297 887 Pls
3332 891 Pls
3367 896 Pls
3402 899 Pls
3438 903 Pls
3473 910 Pls
3508 911 Pls
3543 917 Pls
3578 918 Pls
3613 922 Pls
3648 924 Pls
3683 928 Pls
3718 933 Pls
3753 935 Pls
3788 937 Pls
3824 939 Pls
3859 946 Pls
3894 951 Pls
3929 953 Pls
3964 958 Pls
3999 961 Pls
4034 964 Pls
4069 971 Pls
4104 973 Pls
4139 983 Pls
4175 987 Pls
4210 993 Pls
4245 996 Pls
4280 1000 Pls
4315 1001 Pls
4350 1005 Pls
4385 1010 Pls
4420 1014 Pls
4455 1018 Pls
4490 1019 Pls
4525 1022 Pls
4561 1026 Pls
4596 1028 Pls
4631 1029 Pls
4666 1036 Pls
4701 1042 Pls
4736 1043 Pls
4771 1045 Pls
4806 1049 Pls
4841 1052 Pls
4876 1054 Pls
4912 1060 Pls
4947 1063 Pls
4982 1066 Pls
5017 1071 Pls
5052 1076 Pls
5087 1081 Pls
5122 1087 Pls
5157 1091 Pls
5192 1095 Pls
5227 1098 Pls
5262 1100 Pls
5298 1105 Pls
5333 1108 Pls
5368 1111 Pls
5403 1115 Pls
5438 1117 Pls
5473 1125 Pls
5508 1131 Pls
5543 1138 Pls
5578 1139 Pls
5613 1144 Pls
5649 1145 Pls
5684 1148 Pls
5719 1149 Pls
5754 1154 Pls
5789 1162 Pls
5824 1164 Pls
5859 1165 Pls
5894 1168 Pls
5929 1175 Pls
5964 1178 Pls
5999 1179 Pls
6035 1181 Pls
6070 1192 Pls
6105 1194 Pls
6140 1199 Pls
6175 1204 Pls
6210 1209 Pls
6245 1211 Pls
6280 1214 Pls
6315 1217 Pls
6350 1225 Pls
6385 1227 Pls
6421 1230 Pls
6456 1234 Pls
6491 1238 Pls
6526 1241 Pls
6579 4738 Pls
% End plot #1
% Begin plot #2
1.000 UP
1.000 UL
LT1
LCb setrgbcolor
6296 4598 M
[ [(Helvetica) 140.0 0.0 true true 0 (Exacta)]
] -46.7 MRshow
LT1
665 594 Crs
700 598 Crs
735 605 Crs
770 613 Crs
805 628 Crs
841 636 Crs
876 651 Crs
911 659 Crs
946 674 Crs
981 697 Crs
1016 705 Crs
1051 728 Crs
1086 743 Crs
1121 751 Crs
1156 766 Crs
1192 789 Crs
1227 812 Crs
1262 819 Crs
1297 842 Crs
1332 858 Crs
1367 865 Crs
1402 888 Crs
1437 904 Crs
1472 927 Crs
1507 957 Crs
1542 972 Crs
1578 980 Crs
1613 995 Crs
1648 1003 Crs
1683 1018 Crs
1718 1072 Crs
1753 1087 Crs
1788 1110 Crs
1823 1118 Crs
1858 1156 Crs
1893 1164 Crs
1928 1187 Crs
1964 1210 Crs
1999 1225 Crs
2034 1248 Crs
2069 1271 Crs
2104 1279 Crs
2139 1317 Crs
2174 1324 Crs
2209 1340 Crs
2244 1347 Crs
2279 1393 Crs
2315 1439 Crs
2350 1455 Crs
2385 1462 Crs
2420 1477 Crs
2455 1500 Crs
2490 1508 Crs
2525 1546 Crs
2560 1569 Crs
2595 1592 Crs
2630 1615 Crs
2665 1623 Crs
2701 1646 Crs
2736 1661 Crs
2771 1669 Crs
2806 1707 Crs
2841 1761 Crs
2876 1776 Crs
2911 1784 Crs
2946 1799 Crs
2981 1852 Crs
3016 1875 Crs
3052 1914 Crs
3087 1921 Crs
3122 1937 Crs
3157 1960 Crs
3192 1990 Crs
3227 2013 Crs
3262 2036 Crs
3297 2051 Crs
3332 2074 Crs
3367 2105 Crs
3402 2120 Crs
3438 2151 Crs
3473 2189 Crs
3508 2197 Crs
3543 2235 Crs
3578 2243 Crs
3613 2266 Crs
3648 2281 Crs
3683 2304 Crs
3718 2334 Crs
3753 2350 Crs
3788 2357 Crs
3824 2373 Crs
3859 2419 Crs
3894 2449 Crs
3929 2465 Crs
3964 2495 Crs
3999 2510 Crs
4034 2533 Crs
4069 2579 Crs
4104 2587 Crs
4139 2656 Crs
4175 2679 Crs
4210 2717 Crs
4245 2740 Crs
4280 2763 Crs
4315 2771 Crs
4350 2794 Crs
4385 2832 Crs
4420 2855 Crs
4455 2878 Crs
4490 2885 Crs
4525 2908 Crs
4561 2931 Crs
4596 2947 Crs
4631 2954 Crs
4666 3000 Crs
4701 3038 Crs
4736 3046 Crs
4771 3061 Crs
4806 3084 Crs
4841 3107 Crs
4876 3115 Crs
4912 3161 Crs
4947 3176 Crs
4982 3199 Crs
5017 3230 Crs
5052 3268 Crs
5087 3299 Crs
5122 3337 Crs
5157 3367 Crs
5192 3390 Crs
5227 3413 Crs
5262 3429 Crs
5298 3459 Crs
5333 3482 Crs
5368 3498 Crs
5403 3528 Crs
5438 3543 Crs
5473 3597 Crs
5508 3635 Crs
5543 3681 Crs
5578 3689 Crs
5613 3727 Crs
5649 3735 Crs
5684 3750 Crs
5719 3758 Crs
5754 3796 Crs
5789 3850 Crs
5824 3865 Crs
5859 3872 Crs
5894 3888 Crs
5929 3941 Crs
5964 3957 Crs
5999 3964 Crs
6035 3980 Crs
6070 4056 Crs
6105 4071 Crs
6140 4102 Crs
6175 4140 Crs
6210 4171 Crs
6245 4186 Crs
6280 4209 Crs
6315 4232 Crs
6350 4286 Crs
6385 4301 Crs
6421 4324 Crs
6456 4347 Crs
6491 4377 Crs
6526 4400 Crs
6579 4598 Crs
% End plot #2
1.000 UL
LTb
630 4871 N
630 280 L
6317 0 V
0 4591 V
-6317 0 V
Z stroke
1.000 UP
1.000 UL
LTb
stroke
grestore
end
showpage
%%Page: 2 2
gnudict begin
gsave
doclip
50 50 translate
0.050 0.050 scale
0 setgray
newpath
(Helvetica) findfont 140 scalefont setfont
BackgroundColor 0 lt 3 1 roll 0 lt exch 0 lt or or not {BackgroundColor C 1.000 0 0 7200.00 5040.00 BoxColFill} if
1.000 UL
LTb
1.000 UL
LTa
630 586 M
6317 0 V
stroke
LTb
630 586 M
63 0 V
6254 0 R
-63 0 V
stroke
546 586 M
[ [(Helvetica) 140.0 0.0 true true 0 ( 0)]
] -46.7 MRshow
1.000 UL
LTb
1.000 UL
LTa
630 1351 M
6317 0 V
stroke
LTb
630 1351 M
63 0 V
6254 0 R
-63 0 V
stroke
546 1351 M
[ [(Helvetica) 140.0 0.0 true true 0 ( 200)]
] -46.7 MRshow
1.000 UL
LTb
1.000 UL
LTa
630 2116 M
6317 0 V
stroke
LTb
630 2116 M
63 0 V
6254 0 R
-63 0 V
stroke
546 2116 M
[ [(Helvetica) 140.0 0.0 true true 0 ( 400)]
] -46.7 MRshow
1.000 UL
LTb
1.000 UL
LTa
630 2882 M
6317 0 V
stroke
LTb
630 2882 M
63 0 V
6254 0 R
-63 0 V
stroke
546 2882 M
[ [(Helvetica) 140.0 0.0 true true 0 ( 600)]
] -46.7 MRshow
1.000 UL
LTb
1.000 UL
LTa
630 3647 M
6317 0 V
stroke
LTb
630 3647 M
63 0 V
6254 0 R
-63 0 V
stroke
546 3647 M
[ [(Helvetica) 140.0 0.0 true true 0 ( 800)]
] -46.7 MRshow
1.000 UL
LTb
1.000 UL
LTa
630 4412 M
6317 0 V
stroke
LTb
630 4412 M
63 0 V
6254 0 R
-63 0 V
stroke
546 4412 M
[ [(Helvetica) 140.0 0.0 true true 0 ( 1000)]
] -46.7 MRshow
1.000 UL
LTb
1.000 UL
LTa
630 280 M
0 4591 V
stroke
LTb
630 280 M
0 63 V
0 4528 R
0 -63 V
stroke
630 140 M
[ [(Helvetica) 140.0 0.0 true true 0 ( 0)]
] -46.7 MCshow
1.000 UL
LTb
1.000 UL
LTa
1332 280 M
0 4591 V
stroke
LTb
1332 280 M
0 63 V
0 4528 R
0 -63 V
stroke
1332 140 M
[ [(Helvetica) 140.0 0.0 true true 0 ( 20)]
] -46.7 MCshow
1.000 UL
LTb
1.000 UL
LTa
2034 280 M
0 4591 V
stroke
LTb
2034 280 M
0 63 V
0 4528 R
0 -63 V
stroke
2034 140 M
[ [(Helvetica) 140.0 0.0 true true 0 ( 40)]
] -46.7 MCshow
1.000 UL
LTb
1.000 UL
LTa
2736 280 M
0 4591 V
stroke
LTb
2736 280 M
0 63 V
0 4528 R
0 -63 V
stroke
2736 140 M
[ [(Helvetica) 140.0 0.0 true true 0 ( 60)]
] -46.7 MCshow
1.000 UL
LTb
1.000 UL
LTa
3438 280 M
0 4591 V
stroke
LTb
3438 280 M
0 63 V
0 4528 R
0 -63 V
stroke
3438 140 M
[ [(Helvetica) 140.0 0.0 true true 0 ( 80)]
] -46.7 MCshow
1.000 UL
LTb
1.000 UL
LTa
4139 280 M
0 4591 V
stroke
LTb
4139 280 M
0 63 V
0 4528 R
0 -63 V
stroke
4139 140 M
[ [(Helvetica) 140.0 0.0 true true 0 ( 100)]
] -46.7 MCshow
1.000 UL
LTb
1.000 UL
LTa
4841 280 M
0 4591 V
stroke
LTb
4841 280 M
0 63 V
0 4528 R
0 -63 V
stroke
4841 140 M
[ [(Helvetica) 140.0 0.0 true true 0 ( 120)]
] -46.7 MCshow
1.000 UL
LTb
1.000 UL
LTa
5543 280 M
0 4591 V
stroke
LTb
5543 280 M
0 63 V
0 4528 R
0 -63 V
stroke
5543 140 M
[ [(Helvetica) 140.0 0.0 true true 0 ( 140)]
] -46.7 MCshow
1.000 UL
LTb
1.000 UL
LTa
6245 280 M
0 4388 V
0 140 R
0 63 V
stroke
LTb
6245 280 M
0 63 V
0 4528 R
0 -63 V
stroke
6245 140 M
[ [(Helvetica) 140.0 0.0 true true 0 ( 160)]
] -46.7 MCshow
1.000 UL
LTb
1.000 UL
LTa
6947 280 M
0 4591 V
stroke
LTb
6947 280 M
0 63 V
0 4528 R
0 -63 V
stroke
6947 140 M
[ [(Helvetica) 140.0 0.0 true true 0 ( 180)]
] -46.7 MCshow
1.000 UL
LTb
1.000 UL
LTb
630 4871 N
630 280 L
6317 0 V
0 4591 V
-6317 0 V
Z stroke
1.000 UP
1.000 UL
LTb
% Begin plot #1
1.000 UP
1.000 UL
LT0
LCb setrgbcolor
6296 4738 M
[ [(Helvetica) 140.0 0.0 true true 0 (Erro)]
] -46.7 MRshow
LT0
665 2928 Pls
735 1416 Pls
770 980 Pls
805 844 Pls
841 763 Pls
876 735 Pls
911 692 Pls
946 680 Pls
981 689 Pls
1016 662 Pls
1051 670 Pls
1086 662 Pls
1121 642 Pls
1156 637 Pls
1192 643 Pls
1227 647 Pls
1262 632 Pls
1297 636 Pls
1332 631 Pls
1367 618 Pls
1402 622 Pls
1437 617 Pls
1472 620 Pls
1507 629 Pls
1542 624 Pls
1578 614 Pls
1613 611 Pls
1648 602 Pls
1683 599 Pls
1718 620 Pls
1753 617 Pls
1788 617 Pls
1823 610 Pls
1858 619 Pls
1893 611 Pls
1928 612 Pls
1964 613 Pls
1999 610 Pls
2034 610 Pls
2069 611 Pls
2104 604 Pls
2139 611 Pls
2174 605 Pls
2209 602 Pls
2244 597 Pls
2279 606 Pls
2315 615 Pls
2350 612 Pls
2385 606 Pls
2420 604 Pls
2455 604 Pls
2490 599 Pls
2525 604 Pls
2560 604 Pls
2595 604 Pls
2630 604 Pls
2665 599 Pls
2701 599 Pls
2736 597 Pls
2771 593 Pls
2806 597 Pls
2841 605 Pls
2876 603 Pls
2911 599 Pls
2946 597 Pls
2981 604 Pls
3016 604 Pls
3052 607 Pls
3087 603 Pls
3122 601 Pls
3157 601 Pls
3192 602 Pls
3227 602 Pls
3262 602 Pls
3297 600 Pls
3332 600 Pls
3367 601 Pls
3402 599 Pls
3438 600 Pls
3473 603 Pls
3508 600 Pls
3543 602 Pls
3578 599 Pls
3613 599 Pls
3648 597 Pls
3683 597 Pls
3718 598 Pls
3753 596 Pls
3788 593 Pls
3824 591 Pls
3859 595 Pls
3894 596 Pls
3929 594 Pls
3964 595 Pls
3999 594 Pls
4034 593 Pls
4069 597 Pls
4104 594 Pls
4139 601 Pls
4175 600 Pls
4210 602 Pls
4245 602 Pls
4280 601 Pls
4315 599 Pls
4350 598 Pls
4385 600 Pls
4420 600 Pls
4455 599 Pls
4490 597 Pls
4525 596 Pls
4561 596 Pls
4596 595 Pls
4631 592 Pls
4666 595 Pls
4701 596 Pls
4736 594 Pls
4771 593 Pls
4806 592 Pls
4841 592 Pls
4876 590 Pls
4912 592 Pls
4947 591 Pls
4982 591 Pls
5017 591 Pls
5052 593 Pls
5087 593 Pls
5122 595 Pls
5157 595 Pls
5192 595 Pls
5227 594 Pls
5262 593 Pls
5298 594 Pls
5333 593 Pls
5368 592 Pls
5403 592 Pls
5438 591 Pls
5473 594 Pls
5508 595 Pls
5543 597 Pls
5578 595 Pls
5613 597 Pls
5649 595 Pls
5684 593 Pls
5719 592 Pls
5754 593 Pls
5789 595 Pls
5824 594 Pls
5859 592 Pls
5894 591 Pls
5929 594 Pls
5964 593 Pls
5999 591 Pls
6035 590 Pls
6070 594 Pls
6105 593 Pls
6140 594 Pls
6175 595 Pls
6210 595 Pls
6245 594 Pls
6280 594 Pls
6315 593 Pls
6350 595 Pls
6385 594 Pls
6421 594 Pls
6456 594 Pls
6491 594 Pls
6526 594 Pls
6579 4738 Pls
% End plot #1
1.000 UL
LTb
630 4871 N
630 280 L
6317 0 V
0 4591 V
-6317 0 V
Z stroke
1.000 UP
1.000 UL
LTb
stroke
grestore
end
showpage
%%Page: 3 3
gnudict begin
gsave
doclip
50 50 translate
0.050 0.050 scale
0 setgray
newpath
(Helvetica) findfont 140 scalefont setfont
BackgroundColor 0 lt 3 1 roll 0 lt exch 0 lt or or not {BackgroundColor C 1.000 0 0 7200.00 5040.00 BoxColFill} if
/Helvetica findfont 140 scalefont setfont
1.000 UL
LTb
1.000 UL
LTa
630 586 M
6317 0 V
stroke
LTb
630 586 M
63 0 V
6254 0 R
-63 0 V
stroke
546 586 M
[ [(Helvetica) 140.0 0.0 true true 0 ( 0)]
] -46.7 MRshow
1.000 UL
LTb
1.000 UL
LTa
630 1351 M
6317 0 V
stroke
LTb
630 1351 M
63 0 V
6254 0 R
-63 0 V
stroke
546 1351 M
[ [(Helvetica) 140.0 0.0 true true 0 ( 200)]
] -46.7 MRshow
1.000 UL
LTb
1.000 UL
LTa
630 2116 M
6317 0 V
stroke
LTb
630 2116 M
63 0 V
6254 0 R
-63 0 V
stroke
546 2116 M
[ [(Helvetica) 140.0 0.0 true true 0 ( 400)]
] -46.7 MRshow
1.000 UL
LTb
1.000 UL
LTa
630 2882 M
6317 0 V
stroke
LTb
630 2882 M
63 0 V
6254 0 R
-63 0 V
stroke
546 2882 M
[ [(Helvetica) 140.0 0.0 true true 0 ( 600)]
] -46.7 MRshow
1.000 UL
LTb
1.000 UL
LTa
630 3647 M
6317 0 V
stroke
LTb
630 3647 M
63 0 V
6254 0 R
-63 0 V
stroke
546 3647 M
[ [(Helvetica) 140.0 0.0 true true 0 ( 800)]
] -46.7 MRshow
1.000 UL
LTb
1.000 UL
LTa
630 4412 M
6317 0 V
stroke
LTb
630 4412 M
63 0 V
6254 0 R
-63 0 V
stroke
546 4412 M
[ [(Helvetica) 140.0 0.0 true true 0 ( 1000)]
] -46.7 MRshow
1.000 UL
LTb
1.000 UL
LTa
630 280 M
0 4591 V
stroke
LTb
630 280 M
0 63 V
0 4528 R
0 -63 V
stroke
630 140 M
[ [(Helvetica) 140.0 0.0 true true 0 ( 0)]
] -46.7 MCshow
1.000 UL
LTb
1.000 UL
LTa
1332 280 M
0 4591 V
stroke
LTb
1332 280 M
0 63 V
0 4528 R
0 -63 V
stroke
1332 140 M
[ [(Helvetica) 140.0 0.0 true true 0 ( 20)]
] -46.7 MCshow
1.000 UL
LTb
1.000 UL
LTa
2034 280 M
0 4591 V
stroke
LTb
2034 280 M
0 63 V
0 4528 R
0 -63 V
stroke
2034 140 M
[ [(Helvetica) 140.0 0.0 true true 0 ( 40)]
] -46.7 MCshow
1.000 UL
LTb
1.000 UL
LTa
2736 280 M
0 4591 V
stroke
LTb
2736 280 M
0 63 V
0 4528 R
0 -63 V
stroke
2736 140 M
[ [(Helvetica) 140.0 0.0 true true 0 ( 60)]
] -46.7 MCshow
1.000 UL
LTb
1.000 UL
LTa
3438 280 M
0 4591 V
stroke
LTb
3438 280 M
0 63 V
0 4528 R
0 -63 V
stroke
3438 140 M
[ [(Helvetica) 140.0 0.0 true true 0 ( 80)]
] -46.7 MCshow
1.000 UL
LTb
1.000 UL
LTa
4139 280 M
0 4591 V
stroke
LTb
4139 280 M
0 63 V
0 4528 R
0 -63 V
stroke
4139 140 M
[ [(Helvetica) 140.0 0.0 true true 0 ( 100)]
] -46.7 MCshow
1.000 UL
LTb
1.000 UL
LTa
4841 280 M
0 4591 V
stroke
LTb
4841 280 M
0 63 V
0 4528 R
0 -63 V
stroke
4841 140 M
[ [(Helvetica) 140.0 0.0 true true 0 ( 120)]
] -46.7 MCshow
1.000 UL
LTb
1.000 UL
LTa
5543 280 M
0 4388 V
0 140 R
0 63 V
stroke
LTb
5543 280 M
0 63 V
0 4528 R
0 -63 V
stroke
5543 140 M
[ [(Helvetica) 140.0 0.0 true true 0 ( 140)]
] -46.7 MCshow
1.000 UL
LTb
1.000 UL
LTa
6245 280 M
0 4388 V
0 140 R
0 63 V
stroke
LTb
6245 280 M
0 63 V
0 4528 R
0 -63 V
stroke
6245 140 M
[ [(Helvetica) 140.0 0.0 true true 0 ( 160)]
] -46.7 MCshow
1.000 UL
LTb
1.000 UL
LTa
6947 280 M
0 4591 V
stroke
LTb
6947 280 M
0 63 V
0 4528 R
0 -63 V
stroke
6947 140 M
[ [(Helvetica) 140.0 0.0 true true 0 ( 180)]
] -46.7 MCshow
1.000 UL
LTb
1.000 UL
LTb
630 4871 N
630 280 L
6317 0 V
0 4591 V
-6317 0 V
Z stroke
1.000 UP
1.000 UL
LTb
% Begin plot #1
1.000 UP
1.000 UL
LT0
/Helvetica findfont 140 scalefont setfont
LCb setrgbcolor
6296 4738 M
("./example.txt") Rshow
LT0
700 590 Pls
735 594 Pls
805 598 Pls
876 601 Pls
1016 605 Pls
1086 609 Pls
1227 613 Pls
1297 617 Pls
1437 620 Pls
1648 624 Pls
1718 628 Pls
1928 632 Pls
2069 636 Pls
2139 640 Pls
2279 643 Pls
2490 647 Pls
2701 651 Pls
2771 655 Pls
2981 659 Pls
3122 663 Pls
3192 666 Pls
3402 670 Pls
3543 674 Pls
3753 678 Pls
4034 682 Pls
4175 686 Pls
4245 689 Pls
4385 693 Pls
4455 697 Pls
4596 701 Pls
5087 705 Pls
5227 708 Pls
5438 712 Pls
5508 716 Pls
5859 720 Pls
5929 724 Pls
6140 728 Pls
6350 731 Pls
6491 735 Pls
6701 739 Pls
6912 743 Pls
6579 4738 Pls
% End plot #1
1.000 UL
LTb
630 4871 N
630 280 L
6317 0 V
0 4591 V
-6317 0 V
Z stroke
1.000 UP
1.000 UL
LTb
stroke
grestore
end
showpage
%%Page: 4 4
gnudict begin
gsave
doclip
50 50 translate
0.050 0.050 scale
0 setgray
newpath
(Helvetica) findfont 140 scalefont setfont
BackgroundColor 0 lt 3 1 roll 0 lt exch 0 lt or or not {BackgroundColor C 1.000 0 0 7200.00 5040.00 BoxColFill} if
1.000 UL
LTb
1.000 UL
LTa
630 586 M
6317 0 V
stroke
LTb
630 586 M
63 0 V
6254 0 R
-63 0 V
stroke
546 586 M
[ [(Helvetica) 140.0 0.0 true true 0 ( 0)]
] -46.7 MRshow
1.000 UL
LTb
1.000 UL
LTa
630 1351 M
6317 0 V
stroke
LTb
630 1351 M
63 0 V
6254 0 R
-63 0 V
stroke
546 1351 M
[ [(Helvetica) 140.0 0.0 true true 0 ( 200)]
] -46.7 MRshow
1.000 UL
LTb
1.000 UL
LTa
630 2116 M
6317 0 V
stroke
LTb
630 2116 M
63 0 V
6254 0 R
-63 0 V
stroke
546 2116 M
[ [(Helvetica) 140.0 0.0 true true 0 ( 400)]
] -46.7 MRshow
1.000 UL
LTb
1.000 UL
LTa
630 2882 M
6317 0 V
stroke
LTb
630 2882 M
63 0 V
6254 0 R
-63 0 V
stroke
546 2882 M
[ [(Helvetica) 140.0 0.0 true true 0 ( 600)]
] -46.7 MRshow
1.000 UL
LTb
1.000 UL
LTa
630 3647 M
6317 0 V
stroke
LTb
630 3647 M
63 0 V
6254 0 R
-63 0 V
stroke
546 3647 M
[ [(Helvetica) 140.0 0.0 true true 0 ( 800)]
] -46.7 MRshow
1.000 UL
LTb
1.000 UL
LTa
630 4412 M
6317 0 V
stroke
LTb
630 4412 M
63 0 V
6254 0 R
-63 0 V
stroke
546 4412 M
[ [(Helvetica) 140.0 0.0 true true 0 ( 1000)]
] -46.7 MRshow
1.000 UL
LTb
1.000 UL
LTa
630 280 M
0 4591 V
stroke
LTb
630 280 M
0 63 V
0 4528 R
0 -63 V
stroke
630 140 M
[ [(Helvetica) 140.0 0.0 true true 0 ( 0)]
] -46.7 MCshow
1.000 UL
LTb
1.000 UL
LTa
1332 280 M
0 4591 V
stroke
LTb
1332 280 M
0 63 V
0 4528 R
0 -63 V
stroke
1332 140 M
[ [(Helvetica) 140.0 0.0 true true 0 ( 20)]
] -46.7 MCshow
1.000 UL
LTb
1.000 UL
LTa
2034 280 M
0 4591 V
stroke
LTb
2034 280 M
0 63 V
0 4528 R
0 -63 V
stroke
2034 140 M
[ [(Helvetica) 140.0 0.0 true true 0 ( 40)]
] -46.7 MCshow
1.000 UL
LTb
1.000 UL
LTa
2736 280 M
0 4591 V
stroke
LTb
2736 280 M
0 63 V
0 4528 R
0 -63 V
stroke
2736 140 M
[ [(Helvetica) 140.0 0.0 true true 0 ( 60)]
] -46.7 MCshow
1.000 UL
LTb
1.000 UL
LTa
3438 280 M
0 4591 V
stroke
LTb
3438 280 M
0 63 V
0 4528 R
0 -63 V
stroke
3438 140 M
[ [(Helvetica) 140.0 0.0 true true 0 ( 80)]
] -46.7 MCshow
1.000 UL
LTb
1.000 UL
LTa
4139 280 M
0 4591 V
stroke
LTb
4139 280 M
0 63 V
0 4528 R
0 -63 V
stroke
4139 140 M
[ [(Helvetica) 140.0 0.0 true true 0 ( 100)]
] -46.7 MCshow
1.000 UL
LTb
1.000 UL
LTa
4841 280 M
0 4591 V
stroke
LTb
4841 280 M
0 63 V
0 4528 R
0 -63 V
stroke
4841 140 M
[ [(Helvetica) 140.0 0.0 true true 0 ( 120)]
] -46.7 MCshow
1.000 UL
LTb
1.000 UL
LTa
5543 280 M
0 4591 V
stroke
LTb
5543 280 M
0 63 V
0 4528 R
0 -63 V
stroke
5543 140 M
[ [(Helvetica) 140.0 0.0 true true 0 ( 140)]
] -46.7 MCshow
1.000 UL
LTb
1.000 UL
LTa
6245 280 M
0 4388 V
0 140 R
0 63 V
stroke
LTb
6245 280 M
0 63 V
0 4528 R
0 -63 V
stroke
6245 140 M
[ [(Helvetica) 140.0 0.0 true true 0 ( 160)]
] -46.7 MCshow
1.000 UL
LTb
1.000 UL
LTa
6947 280 M
0 4591 V
stroke
LTb
6947 280 M
0 63 V
0 4528 R
0 -63 V
stroke
6947 140 M
[ [(Helvetica) 140.0 0.0 true true 0 ( 180)]
] -46.7 MCshow
1.000 UL
LTb
1.000 UL
LTb
630 4871 N
630 280 L
6317 0 V
0 4591 V
-6317 0 V
Z stroke
1.000 UP
1.000 UL
LTb
% Begin plot #1
1.000 UP
1.000 UL
LT0
LCb setrgbcolor
6296 4738 M
[ [(Helvetica) 140.0 0.0 true true 0 (Error)]
] -46.7 MRshow
LT0
665 2928 Pls
735 1416 Pls
770 980 Pls
805 844 Pls
841 763 Pls
876 735 Pls
911 692 Pls
946 680 Pls
981 689 Pls
1016 662 Pls
1051 670 Pls
1086 662 Pls
1121 642 Pls
1156 637 Pls
1192 643 Pls
1227 647 Pls
1262 632 Pls
1297 636 Pls
1332 631 Pls
1367 618 Pls
1402 622 Pls
1437 617 Pls
1472 620 Pls
1507 629 Pls
1542 624 Pls
1578 614 Pls
1613 611 Pls
1648 602 Pls
1683 599 Pls
1718 620 Pls
1753 617 Pls
1788 617 Pls
1823 610 Pls
1858 619 Pls
1893 611 Pls
1928 612 Pls
1964 613 Pls
1999 610 Pls
2034 610 Pls
2069 611 Pls
2104 604 Pls
2139 611 Pls
2174 605 Pls
2209 602 Pls
2244 597 Pls
2279 606 Pls
2315 615 Pls
2350 612 Pls
2385 606 Pls
2420 604 Pls
2455 604 Pls
2490 599 Pls
2525 604 Pls
2560 604 Pls
2595 604 Pls
2630 604 Pls
2665 599 Pls
2701 599 Pls
2736 597 Pls
2771 593 Pls
2806 597 Pls
2841 605 Pls
2876 603 Pls
2911 599 Pls
2946 597 Pls
2981 604 Pls
3016 604 Pls
3052 607 Pls
3087 603 Pls
3122 601 Pls
3157 601 Pls
3192 602 Pls
3227 602 Pls
3262 602 Pls
3297 600 Pls
3332 600 Pls
3367 601 Pls
3402 599 Pls
3438 600 Pls
3473 603 Pls
3508 600 Pls
3543 602 Pls
3578 599 Pls
3613 599 Pls
3648 597 Pls
3683 597 Pls
3718 598 Pls
3753 596 Pls
3788 593 Pls
3824 591 Pls
3859 595 Pls
3894 596 Pls
3929 594 Pls
3964 595 Pls
3999 594 Pls
4034 593 Pls
4069 597 Pls
4104 594 Pls
4139 601 Pls
4175 600 Pls
4210 602 Pls
4245 602 Pls
4280 601 Pls
4315 599 Pls
4350 598 Pls
4385 600 Pls
4420 600 Pls
4455 599 Pls
4490 597 Pls
4525 596 Pls
4561 596 Pls
4596 595 Pls
4631 592 Pls
4666 595 Pls
4701 596 Pls
4736 594 Pls
4771 593 Pls
4806 592 Pls
4841 592 Pls
4876 590 Pls
4912 592 Pls
4947 591 Pls
4982 591 Pls
5017 591 Pls
5052 593 Pls
5087 593 Pls
5122 595 Pls
5157 595 Pls
5192 595 Pls
5227 594 Pls
5262 593 Pls
5298 594 Pls
5333 593 Pls
5368 592 Pls
5403 592 Pls
5438 591 Pls
5473 594 Pls
5508 595 Pls
5543 597 Pls
5578 595 Pls
5613 597 Pls
5649 595 Pls
5684 593 Pls
5719 592 Pls
5754 593 Pls
5789 595 Pls
5824 594 Pls
5859 592 Pls
5894 591 Pls
5929 594 Pls
5964 593 Pls
5999 591 Pls
6035 590 Pls
6070 594 Pls
6105 593 Pls
6140 594 Pls
6175 595 Pls
6210 595 Pls
6245 594 Pls
6280 594 Pls
6315 593 Pls
6350 595 Pls
6385 594 Pls
6421 594 Pls
6456 594 Pls
6491 594 Pls
6526 594 Pls
6579 4738 Pls
% End plot #1
1.000 UL
LTb
630 4871 N
630 280 L
6317 0 V
0 4591 V
-6317 0 V
Z stroke
1.000 UP
1.000 UL
LTb
stroke
grestore
end
showpage
%%Page: 5 5
gnudict begin
gsave
doclip
50 50 translate
0.050 0.050 scale
0 setgray
newpath
(Helvetica) findfont 140 scalefont setfont
BackgroundColor 0 lt 3 1 roll 0 lt exch 0 lt or or not {BackgroundColor C 1.000 0 0 7200.00 5040.00 BoxColFill} if
1.000 UL
LTb
1.000 UL
LTa
630 586 M
6317 0 V
stroke
LTb
630 586 M
63 0 V
6254 0 R
-63 0 V
stroke
546 586 M
[ [(Helvetica) 140.0 0.0 true true 0 ( 0)]
] -46.7 MRshow
1.000 UL
LTb
1.000 UL
LTa
630 1351 M
6317 0 V
stroke
LTb
630 1351 M
63 0 V
6254 0 R
-63 0 V
stroke
546 1351 M
[ [(Helvetica) 140.0 0.0 true true 0 ( 200)]
] -46.7 MRshow
1.000 UL
LTb
1.000 UL
LTa
630 2116 M
6317 0 V
stroke
LTb
630 2116 M
63 0 V
6254 0 R
-63 0 V
stroke
546 2116 M
[ [(Helvetica) 140.0 0.0 true true 0 ( 400)]
] -46.7 MRshow
1.000 UL
LTb
1.000 UL
LTa
630 2882 M
6317 0 V
stroke
LTb
630 2882 M
63 0 V
6254 0 R
-63 0 V
stroke
546 2882 M
[ [(Helvetica) 140.0 0.0 true true 0 ( 600)]
] -46.7 MRshow
1.000 UL
LTb
1.000 UL
LTa
630 3647 M
6317 0 V
stroke
LTb
630 3647 M
63 0 V
6254 0 R
-63 0 V
stroke
546 3647 M
[ [(Helvetica) 140.0 0.0 true true 0 ( 800)]
] -46.7 MRshow
1.000 UL
LTb
1.000 UL
LTa
630 4412 M
6317 0 V
stroke
LTb
630 4412 M
63 0 V
6254 0 R
-63 0 V
stroke
546 4412 M
[ [(Helvetica) 140.0 0.0 true true 0 ( 1000)]
] -46.7 MRshow
1.000 UL
LTb
1.000 UL
LTa
630 280 M
0 4591 V
stroke
LTb
630 280 M
0 63 V
0 4528 R
0 -63 V
stroke
630 140 M
[ [(Helvetica) 140.0 0.0 true true 0 ( 0)]
] -46.7 MCshow
1.000 UL
LTb
1.000 UL
LTa
1332 280 M
0 4591 V
stroke
LTb
1332 280 M
0 63 V
0 4528 R
0 -63 V
stroke
1332 140 M
[ [(Helvetica) 140.0 0.0 true true 0 ( 20)]
] -46.7 MCshow
1.000 UL
LTb
1.000 UL
LTa
2034 280 M
0 4591 V
stroke
LTb
2034 280 M
0 63 V
0 4528 R
0 -63 V
stroke
2034 140 M
[ [(Helvetica) 140.0 0.0 true true 0 ( 40)]
] -46.7 MCshow
1.000 UL
LTb
1.000 UL
LTa
2736 280 M
0 4591 V
stroke
LTb
2736 280 M
0 63 V
0 4528 R
0 -63 V
stroke
2736 140 M
[ [(Helvetica) 140.0 0.0 true true 0 ( 60)]
] -46.7 MCshow
1.000 UL
LTb
1.000 UL
LTa
3438 280 M
0 4591 V
stroke
LTb
3438 280 M
0 63 V
0 4528 R
0 -63 V
stroke
3438 140 M
[ [(Helvetica) 140.0 0.0 true true 0 ( 80)]
] -46.7 MCshow
1.000 UL
LTb
1.000 UL
LTa
4139 280 M
0 4591 V
stroke
LTb
4139 280 M
0 63 V
0 4528 R
0 -63 V
stroke
4139 140 M
[ [(Helvetica) 140.0 0.0 true true 0 ( 100)]
] -46.7 MCshow
1.000 UL
LTb
1.000 UL
LTa
4841 280 M
0 4591 V
stroke
LTb
4841 280 M
0 63 V
0 4528 R
0 -63 V
stroke
4841 140 M
[ [(Helvetica) 140.0 0.0 true true 0 ( 120)]
] -46.7 MCshow
1.000 UL
LTb
1.000 UL
LTa
5543 280 M
0 4591 V
stroke
LTb
5543 280 M
0 63 V
0 4528 R
0 -63 V
stroke
5543 140 M
[ [(Helvetica) 140.0 0.0 true true 0 ( 140)]
] -46.7 MCshow
1.000 UL
LTb
1.000 UL
LTa
6245 280 M
0 4388 V
0 140 R
0 63 V
stroke
LTb
6245 280 M
0 63 V
0 4528 R
0 -63 V
stroke
6245 140 M
[ [(Helvetica) 140.0 0.0 true true 0 ( 160)]
] -46.7 MCshow
1.000 UL
LTb
1.000 UL
LTa
6947 280 M
0 4591 V
stroke
LTb
6947 280 M
0 63 V
0 4528 R
0 -63 V
stroke
6947 140 M
[ [(Helvetica) 140.0 0.0 true true 0 ( 180)]
] -46.7 MCshow
1.000 UL
LTb
1.000 UL
LTb
630 4871 N
630 280 L
6317 0 V
0 4591 V
-6317 0 V
Z stroke
1.000 UP
1.000 UL
LTb
% Begin plot #1
1.000 UP
1.000 UL
LT0
LCb setrgbcolor
6296 4738 M
[ [(Helvetica) 140.0 0.0 true true 0 (Error)]
] -46.7 MRshow
LT0
665 2928 Pls
735 1416 Pls
770 980 Pls
805 844 Pls
841 763 Pls
876 735 Pls
911 692 Pls
946 680 Pls
981 689 Pls
1016 662 Pls
1051 670 Pls
1086 662 Pls
1121 642 Pls
1156 637 Pls
1192 643 Pls
1227 647 Pls
1262 632 Pls
1297 636 Pls
1332 631 Pls
1367 618 Pls
1402 622 Pls
1437 617 Pls
1472 620 Pls
1507 629 Pls
1542 624 Pls
1578 614 Pls
1613 611 Pls
1648 602 Pls
1683 599 Pls
1718 620 Pls
1753 617 Pls
1788 617 Pls
1823 610 Pls
1858 619 Pls
1893 611 Pls
1928 612 Pls
1964 613 Pls
1999 610 Pls
2034 610 Pls
2069 611 Pls
2104 604 Pls
2139 611 Pls
2174 605 Pls
2209 602 Pls
2244 597 Pls
2279 606 Pls
2315 615 Pls
2350 612 Pls
2385 606 Pls
2420 604 Pls
2455 604 Pls
2490 599 Pls
2525 604 Pls
2560 604 Pls
2595 604 Pls
2630 604 Pls
2665 599 Pls
2701 599 Pls
2736 597 Pls
2771 593 Pls
2806 597 Pls
2841 605 Pls
2876 603 Pls
2911 599 Pls
2946 597 Pls
2981 604 Pls
3016 604 Pls
3052 607 Pls
3087 603 Pls
3122 601 Pls
3157 601 Pls
3192 602 Pls
3227 602 Pls
3262 602 Pls
3297 600 Pls
3332 600 Pls
3367 601 Pls
3402 599 Pls
3438 600 Pls
3473 603 Pls
3508 600 Pls
3543 602 Pls
3578 599 Pls
3613 599 Pls
3648 597 Pls
3683 597 Pls
3718 598 Pls
3753 596 Pls
3788 593 Pls
3824 591 Pls
3859 595 Pls
3894 596 Pls
3929 594 Pls
3964 595 Pls
3999 594 Pls
4034 593 Pls
4069 597 Pls
4104 594 Pls
4139 601 Pls
4175 600 Pls
4210 602 Pls
4245 602 Pls
4280 601 Pls
4315 599 Pls
4350 598 Pls
4385 600 Pls
4420 600 Pls
4455 599 Pls
4490 597 Pls
4525 596 Pls
4561 596 Pls
4596 595 Pls
4631 592 Pls
4666 595 Pls
4701 596 Pls
4736 594 Pls
4771 593 Pls
4806 592 Pls
4841 592 Pls
4876 590 Pls
4912 592 Pls
4947 591 Pls
4982 591 Pls
5017 591 Pls
5052 593 Pls
5087 593 Pls
5122 595 Pls
5157 595 Pls
5192 595 Pls
5227 594 Pls
5262 593 Pls
5298 594 Pls
5333 593 Pls
5368 592 Pls
5403 592 Pls
5438 591 Pls
5473 594 Pls
5508 595 Pls
5543 597 Pls
5578 595 Pls
5613 597 Pls
5649 595 Pls
5684 593 Pls
5719 592 Pls
5754 593 Pls
5789 595 Pls
5824 594 Pls
5859 592 Pls
5894 591 Pls
5929 594 Pls
5964 593 Pls
5999 591 Pls
6035 590 Pls
6070 594 Pls
6105 593 Pls
6140 594 Pls
6175 595 Pls
6210 595 Pls
6245 594 Pls
6280 594 Pls
6315 593 Pls
6350 595 Pls
6385 594 Pls
6421 594 Pls
6456 594 Pls
6491 594 Pls
6526 594 Pls
6579 4738 Pls
% End plot #1
1.000 UL
LTb
630 4871 N
630 280 L
6317 0 V
0 4591 V
-6317 0 V
Z stroke
1.000 UP
1.000 UL
LTb
stroke
grestore
end
showpage
%%Page: 6 6
gnudict begin
gsave
doclip
50 50 translate
0.050 0.050 scale
0 setgray
newpath
(Helvetica) findfont 140 scalefont setfont
BackgroundColor 0 lt 3 1 roll 0 lt exch 0 lt or or not {BackgroundColor C 1.000 0 0 7200.00 5040.00 BoxColFill} if
/Helvetica findfont 140 scalefont setfont
1.000 UL
LTb
1.000 UL
LTa
630 586 M
6317 0 V
stroke
LTb
630 586 M
63 0 V
6254 0 R
-63 0 V
stroke
546 586 M
[ [(Helvetica) 140.0 0.0 true true 0 ( 0)]
] -46.7 MRshow
1.000 UL
LTb
1.000 UL
LTa
630 1351 M
6317 0 V
stroke
LTb
630 1351 M
63 0 V
6254 0 R
-63 0 V
stroke
546 1351 M
[ [(Helvetica) 140.0 0.0 true true 0 ( 200)]
] -46.7 MRshow
1.000 UL
LTb
1.000 UL
LTa
630 2116 M
6317 0 V
stroke
LTb
630 2116 M
63 0 V
6254 0 R
-63 0 V
stroke
546 2116 M
[ [(Helvetica) 140.0 0.0 true true 0 ( 400)]
] -46.7 MRshow
1.000 UL
LTb
1.000 UL
LTa
630 2882 M
6317 0 V
stroke
LTb
630 2882 M
63 0 V
6254 0 R
-63 0 V
stroke
546 2882 M
[ [(Helvetica) 140.0 0.0 true true 0 ( 600)]
] -46.7 MRshow
1.000 UL
LTb
1.000 UL
LTa
630 3647 M
6317 0 V
stroke
LTb
630 3647 M
63 0 V
6254 0 R
-63 0 V
stroke
546 3647 M
[ [(Helvetica) 140.0 0.0 true true 0 ( 800)]
] -46.7 MRshow
1.000 UL
LTb
1.000 UL
LTa
630 4412 M
6317 0 V
stroke
LTb
630 4412 M
63 0 V
6254 0 R
-63 0 V
stroke
546 4412 M
[ [(Helvetica) 140.0 0.0 true true 0 ( 1000)]
] -46.7 MRshow
1.000 UL
LTb
1.000 UL
LTa
630 280 M
0 4591 V
stroke
LTb
630 280 M
0 63 V
0 4528 R
0 -63 V
stroke
630 140 M
[ [(Helvetica) 140.0 0.0 true true 0 ( 0)]
] -46.7 MCshow
1.000 UL
LTb
1.000 UL
LTa
1332 280 M
0 4591 V
stroke
LTb
1332 280 M
0 63 V
0 4528 R
0 -63 V
stroke
1332 140 M
[ [(Helvetica) 140.0 0.0 true true 0 ( 20)]
] -46.7 MCshow
1.000 UL
LTb
1.000 UL
LTa
2034 280 M
0 4591 V
stroke
LTb
2034 280 M
0 63 V
0 4528 R
0 -63 V
stroke
2034 140 M
[ [(Helvetica) 140.0 0.0 true true 0 ( 40)]
] -46.7 MCshow
1.000 UL
LTb
1.000 UL
LTa
2736 280 M
0 4591 V
stroke
LTb
2736 280 M
0 63 V
0 4528 R
0 -63 V
stroke
2736 140 M
[ [(Helvetica) 140.0 0.0 true true 0 ( 60)]
] -46.7 MCshow
1.000 UL
LTb
1.000 UL
LTa
3438 280 M
0 4591 V
stroke
LTb
3438 280 M
0 63 V
0 4528 R
0 -63 V
stroke
3438 140 M
[ [(Helvetica) 140.0 0.0 true true 0 ( 80)]
] -46.7 MCshow
1.000 UL
LTb
1.000 UL
LTa
4139 280 M
0 4591 V
stroke
LTb
4139 280 M
0 63 V
0 4528 R
0 -63 V
stroke
4139 140 M
[ [(Helvetica) 140.0 0.0 true true 0 ( 100)]
] -46.7 MCshow
1.000 UL
LTb
1.000 UL
LTa
4841 280 M
0 4591 V
stroke
LTb
4841 280 M
0 63 V
0 4528 R
0 -63 V
stroke
4841 140 M
[ [(Helvetica) 140.0 0.0 true true 0 ( 120)]
] -46.7 MCshow
1.000 UL
LTb
1.000 UL
LTa
5543 280 M
0 4388 V
0 140 R
0 63 V
stroke
LTb
5543 280 M
0 63 V
0 4528 R
0 -63 V
stroke
5543 140 M
[ [(Helvetica) 140.0 0.0 true true 0 ( 140)]
] -46.7 MCshow
1.000 UL
LTb
1.000 UL
LTa
6245 280 M
0 4388 V
0 140 R
0 63 V
stroke
LTb
6245 280 M
0 63 V
0 4528 R
0 -63 V
stroke
6245 140 M
[ [(Helvetica) 140.0 0.0 true true 0 ( 160)]
] -46.7 MCshow
1.000 UL
LTb
1.000 UL
LTa
6947 280 M
0 4591 V
stroke
LTb
6947 280 M
0 63 V
0 4528 R
0 -63 V
stroke
6947 140 M
[ [(Helvetica) 140.0 0.0 true true 0 ( 180)]
] -46.7 MCshow
1.000 UL
LTb
1.000 UL
LTb
630 4871 N
630 280 L
6317 0 V
0 4591 V
-6317 0 V
Z stroke
1.000 UP
1.000 UL
LTb
% Begin plot #1
1.000 UP
1.000 UL
LT0
/Helvetica findfont 140 scalefont setfont
LCb setrgbcolor
6296 4738 M
("./example.txt") Rshow
LT0
700 590 Pls
735 594 Pls
805 598 Pls
876 601 Pls
1016 605 Pls
1086 609 Pls
1227 613 Pls
1297 617 Pls
1437 620 Pls
1648 624 Pls
1718 628 Pls
1928 632 Pls
2069 636 Pls
2139 640 Pls
2279 643 Pls
2490 647 Pls
2701 651 Pls
2771 655 Pls
2981 659 Pls
3122 663 Pls
3192 666 Pls
3402 670 Pls
3543 674 Pls
3753 678 Pls
4034 682 Pls
4175 686 Pls
4245 689 Pls
4385 693 Pls
4455 697 Pls
4596 701 Pls
5087 705 Pls
5227 708 Pls
5438 712 Pls
5508 716 Pls
5859 720 Pls
5929 724 Pls
6140 728 Pls
6350 731 Pls
6491 735 Pls
6701 739 Pls
6912 743 Pls
6579 4738 Pls
% End plot #1
1.000 UL
LTb
630 4871 N
630 280 L
6317 0 V
0 4591 V
-6317 0 V
Z stroke
1.000 UP
1.000 UL
LTb
stroke
grestore
end
showpage
%%Trailer
%%DocumentFonts: Helvetica
