%!PS-Adobe-2.0 EPSF-2.0
%%Title: exampleError.eps
%%Creator: gnuplot 4.6 patchlevel 0
%%CreationDate: Tue Oct  8 10:26:07 2013
%%DocumentFonts: (atend)
%%BoundingBox: 50 50 410 302
%%EndComments
%%BeginProlog
/gnudict 256 dict def
gnudict begin
%
% The following true/false flags may be edited by hand if desired.
% The unit line width and grayscale image gamma correction may also be changed.
%
/Color true def
/Blacktext false def
/Solid false def
/Dashlength 1 def
/Landscape false def
/Level1 false def
/Rounded false def
/ClipToBoundingBox false def
/SuppressPDFMark false def
/TransparentPatterns false def
/gnulinewidth 5.000 def
/userlinewidth gnulinewidth def
/Gamma 1.0 def
/BackgroundColor {-1.000 -1.000 -1.000} def
%
/vshift -46 def
/dl1 {
  10.0 Dashlength mul mul
  Rounded { currentlinewidth 0.75 mul sub dup 0 le { pop 0.01 } if } if
} def
/dl2 {
  10.0 Dashlength mul mul
  Rounded { currentlinewidth 0.75 mul add } if
} def
/hpt_ 31.5 def
/vpt_ 31.5 def
/hpt hpt_ def
/vpt vpt_ def
/doclip {
  ClipToBoundingBox {
    newpath 50 50 moveto 410 50 lineto 410 302 lineto 50 302 lineto closepath
    clip
  } if
} def
%
% Gnuplot Prolog Version 4.4 (August 2010)
%
%/SuppressPDFMark true def
%
/M {moveto} bind def
/L {lineto} bind def
/R {rmoveto} bind def
/V {rlineto} bind def
/N {newpath moveto} bind def
/Z {closepath} bind def
/C {setrgbcolor} bind def
/f {rlineto fill} bind def
/g {setgray} bind def
/Gshow {show} def   % May be redefined later in the file to support UTF-8
/vpt2 vpt 2 mul def
/hpt2 hpt 2 mul def
/Lshow {currentpoint stroke M 0 vshift R 
	Blacktext {gsave 0 setgray show grestore} {show} ifelse} def
/Rshow {currentpoint stroke M dup stringwidth pop neg vshift R
	Blacktext {gsave 0 setgray show grestore} {show} ifelse} def
/Cshow {currentpoint stroke M dup stringwidth pop -2 div vshift R 
	Blacktext {gsave 0 setgray show grestore} {show} ifelse} def
/UP {dup vpt_ mul /vpt exch def hpt_ mul /hpt exch def
  /hpt2 hpt 2 mul def /vpt2 vpt 2 mul def} def
/DL {Color {setrgbcolor Solid {pop []} if 0 setdash}
 {pop pop pop 0 setgray Solid {pop []} if 0 setdash} ifelse} def
/BL {stroke userlinewidth 2 mul setlinewidth
	Rounded {1 setlinejoin 1 setlinecap} if} def
/AL {stroke userlinewidth 2 div setlinewidth
	Rounded {1 setlinejoin 1 setlinecap} if} def
/UL {dup gnulinewidth mul /userlinewidth exch def
	dup 1 lt {pop 1} if 10 mul /udl exch def} def
/PL {stroke userlinewidth setlinewidth
	Rounded {1 setlinejoin 1 setlinecap} if} def
3.8 setmiterlimit
% Default Line colors
/LCw {1 1 1} def
/LCb {0 0 0} def
/LCa {0 0 0} def
/LC0 {1 0 0} def
/LC1 {0 1 0} def
/LC2 {0 0 1} def
/LC3 {1 0 1} def
/LC4 {0 1 1} def
/LC5 {1 1 0} def
/LC6 {0 0 0} def
/LC7 {1 0.3 0} def
/LC8 {0.5 0.5 0.5} def
% Default Line Types
/LTw {PL [] 1 setgray} def
/LTb {BL [] LCb DL} def
/LTa {AL [1 udl mul 2 udl mul] 0 setdash LCa setrgbcolor} def
/LT0 {PL [] LC0 DL} def
/LT1 {PL [4 dl1 2 dl2] LC1 DL} def
/LT2 {PL [2 dl1 3 dl2] LC2 DL} def
/LT3 {PL [1 dl1 1.5 dl2] LC3 DL} def
/LT4 {PL [6 dl1 2 dl2 1 dl1 2 dl2] LC4 DL} def
/LT5 {PL [3 dl1 3 dl2 1 dl1 3 dl2] LC5 DL} def
/LT6 {PL [2 dl1 2 dl2 2 dl1 6 dl2] LC6 DL} def
/LT7 {PL [1 dl1 2 dl2 6 dl1 2 dl2 1 dl1 2 dl2] LC7 DL} def
/LT8 {PL [2 dl1 2 dl2 2 dl1 2 dl2 2 dl1 2 dl2 2 dl1 4 dl2] LC8 DL} def
/Pnt {stroke [] 0 setdash gsave 1 setlinecap M 0 0 V stroke grestore} def
/Dia {stroke [] 0 setdash 2 copy vpt add M
  hpt neg vpt neg V hpt vpt neg V
  hpt vpt V hpt neg vpt V closepath stroke
  Pnt} def
/Pls {stroke [] 0 setdash vpt sub M 0 vpt2 V
  currentpoint stroke M
  hpt neg vpt neg R hpt2 0 V stroke
 } def
/Box {stroke [] 0 setdash 2 copy exch hpt sub exch vpt add M
  0 vpt2 neg V hpt2 0 V 0 vpt2 V
  hpt2 neg 0 V closepath stroke
  Pnt} def
/Crs {stroke [] 0 setdash exch hpt sub exch vpt add M
  hpt2 vpt2 neg V currentpoint stroke M
  hpt2 neg 0 R hpt2 vpt2 V stroke} def
/TriU {stroke [] 0 setdash 2 copy vpt 1.12 mul add M
  hpt neg vpt -1.62 mul V
  hpt 2 mul 0 V
  hpt neg vpt 1.62 mul V closepath stroke
  Pnt} def
/Star {2 copy Pls Crs} def
/BoxF {stroke [] 0 setdash exch hpt sub exch vpt add M
  0 vpt2 neg V hpt2 0 V 0 vpt2 V
  hpt2 neg 0 V closepath fill} def
/TriUF {stroke [] 0 setdash vpt 1.12 mul add M
  hpt neg vpt -1.62 mul V
  hpt 2 mul 0 V
  hpt neg vpt 1.62 mul V closepath fill} def
/TriD {stroke [] 0 setdash 2 copy vpt 1.12 mul sub M
  hpt neg vpt 1.62 mul V
  hpt 2 mul 0 V
  hpt neg vpt -1.62 mul V closepath stroke
  Pnt} def
/TriDF {stroke [] 0 setdash vpt 1.12 mul sub M
  hpt neg vpt 1.62 mul V
  hpt 2 mul 0 V
  hpt neg vpt -1.62 mul V closepath fill} def
/DiaF {stroke [] 0 setdash vpt add M
  hpt neg vpt neg V hpt vpt neg V
  hpt vpt V hpt neg vpt V closepath fill} def
/Pent {stroke [] 0 setdash 2 copy gsave
  translate 0 hpt M 4 {72 rotate 0 hpt L} repeat
  closepath stroke grestore Pnt} def
/PentF {stroke [] 0 setdash gsave
  translate 0 hpt M 4 {72 rotate 0 hpt L} repeat
  closepath fill grestore} def
/Circle {stroke [] 0 setdash 2 copy
  hpt 0 360 arc stroke Pnt} def
/CircleF {stroke [] 0 setdash hpt 0 360 arc fill} def
/C0 {BL [] 0 setdash 2 copy moveto vpt 90 450 arc} bind def
/C1 {BL [] 0 setdash 2 copy moveto
	2 copy vpt 0 90 arc closepath fill
	vpt 0 360 arc closepath} bind def
/C2 {BL [] 0 setdash 2 copy moveto
	2 copy vpt 90 180 arc closepath fill
	vpt 0 360 arc closepath} bind def
/C3 {BL [] 0 setdash 2 copy moveto
	2 copy vpt 0 180 arc closepath fill
	vpt 0 360 arc closepath} bind def
/C4 {BL [] 0 setdash 2 copy moveto
	2 copy vpt 180 270 arc closepath fill
	vpt 0 360 arc closepath} bind def
/C5 {BL [] 0 setdash 2 copy moveto
	2 copy vpt 0 90 arc
	2 copy moveto
	2 copy vpt 180 270 arc closepath fill
	vpt 0 360 arc} bind def
/C6 {BL [] 0 setdash 2 copy moveto
	2 copy vpt 90 270 arc closepath fill
	vpt 0 360 arc closepath} bind def
/C7 {BL [] 0 setdash 2 copy moveto
	2 copy vpt 0 270 arc closepath fill
	vpt 0 360 arc closepath} bind def
/C8 {BL [] 0 setdash 2 copy moveto
	2 copy vpt 270 360 arc closepath fill
	vpt 0 360 arc closepath} bind def
/C9 {BL [] 0 setdash 2 copy moveto
	2 copy vpt 270 450 arc closepath fill
	vpt 0 360 arc closepath} bind def
/C10 {BL [] 0 setdash 2 copy 2 copy moveto vpt 270 360 arc closepath fill
	2 copy moveto
	2 copy vpt 90 180 arc closepath fill
	vpt 0 360 arc closepath} bind def
/C11 {BL [] 0 setdash 2 copy moveto
	2 copy vpt 0 180 arc closepath fill
	2 copy moveto
	2 copy vpt 270 360 arc closepath fill
	vpt 0 360 arc closepath} bind def
/C12 {BL [] 0 setdash 2 copy moveto
	2 copy vpt 180 360 arc closepath fill
	vpt 0 360 arc closepath} bind def
/C13 {BL [] 0 setdash 2 copy moveto
	2 copy vpt 0 90 arc closepath fill
	2 copy moveto
	2 copy vpt 180 360 arc closepath fill
	vpt 0 360 arc closepath} bind def
/C14 {BL [] 0 setdash 2 copy moveto
	2 copy vpt 90 360 arc closepath fill
	vpt 0 360 arc} bind def
/C15 {BL [] 0 setdash 2 copy vpt 0 360 arc closepath fill
	vpt 0 360 arc closepath} bind def
/Rec {newpath 4 2 roll moveto 1 index 0 rlineto 0 exch rlineto
	neg 0 rlineto closepath} bind def
/Square {dup Rec} bind def
/Bsquare {vpt sub exch vpt sub exch vpt2 Square} bind def
/S0 {BL [] 0 setdash 2 copy moveto 0 vpt rlineto BL Bsquare} bind def
/S1 {BL [] 0 setdash 2 copy vpt Square fill Bsquare} bind def
/S2 {BL [] 0 setdash 2 copy exch vpt sub exch vpt Square fill Bsquare} bind def
/S3 {BL [] 0 setdash 2 copy exch vpt sub exch vpt2 vpt Rec fill Bsquare} bind def
/S4 {BL [] 0 setdash 2 copy exch vpt sub exch vpt sub vpt Square fill Bsquare} bind def
/S5 {BL [] 0 setdash 2 copy 2 copy vpt Square fill
	exch vpt sub exch vpt sub vpt Square fill Bsquare} bind def
/S6 {BL [] 0 setdash 2 copy exch vpt sub exch vpt sub vpt vpt2 Rec fill Bsquare} bind def
/S7 {BL [] 0 setdash 2 copy exch vpt sub exch vpt sub vpt vpt2 Rec fill
	2 copy vpt Square fill Bsquare} bind def
/S8 {BL [] 0 setdash 2 copy vpt sub vpt Square fill Bsquare} bind def
/S9 {BL [] 0 setdash 2 copy vpt sub vpt vpt2 Rec fill Bsquare} bind def
/S10 {BL [] 0 setdash 2 copy vpt sub vpt Square fill 2 copy exch vpt sub exch vpt Square fill
	Bsquare} bind def
/S11 {BL [] 0 setdash 2 copy vpt sub vpt Square fill 2 copy exch vpt sub exch vpt2 vpt Rec fill
	Bsquare} bind def
/S12 {BL [] 0 setdash 2 copy exch vpt sub exch vpt sub vpt2 vpt Rec fill Bsquare} bind def
/S13 {BL [] 0 setdash 2 copy exch vpt sub exch vpt sub vpt2 vpt Rec fill
	2 copy vpt Square fill Bsquare} bind def
/S14 {BL [] 0 setdash 2 copy exch vpt sub exch vpt sub vpt2 vpt Rec fill
	2 copy exch vpt sub exch vpt Square fill Bsquare} bind def
/S15 {BL [] 0 setdash 2 copy Bsquare fill Bsquare} bind def
/D0 {gsave translate 45 rotate 0 0 S0 stroke grestore} bind def
/D1 {gsave translate 45 rotate 0 0 S1 stroke grestore} bind def
/D2 {gsave translate 45 rotate 0 0 S2 stroke grestore} bind def
/D3 {gsave translate 45 rotate 0 0 S3 stroke grestore} bind def
/D4 {gsave translate 45 rotate 0 0 S4 stroke grestore} bind def
/D5 {gsave translate 45 rotate 0 0 S5 stroke grestore} bind def
/D6 {gsave translate 45 rotate 0 0 S6 stroke grestore} bind def
/D7 {gsave translate 45 rotate 0 0 S7 stroke grestore} bind def
/D8 {gsave translate 45 rotate 0 0 S8 stroke grestore} bind def
/D9 {gsave translate 45 rotate 0 0 S9 stroke grestore} bind def
/D10 {gsave translate 45 rotate 0 0 S10 stroke grestore} bind def
/D11 {gsave translate 45 rotate 0 0 S11 stroke grestore} bind def
/D12 {gsave translate 45 rotate 0 0 S12 stroke grestore} bind def
/D13 {gsave translate 45 rotate 0 0 S13 stroke grestore} bind def
/D14 {gsave translate 45 rotate 0 0 S14 stroke grestore} bind def
/D15 {gsave translate 45 rotate 0 0 S15 stroke grestore} bind def
/DiaE {stroke [] 0 setdash vpt add M
  hpt neg vpt neg V hpt vpt neg V
  hpt vpt V hpt neg vpt V closepath stroke} def
/BoxE {stroke [] 0 setdash exch hpt sub exch vpt add M
  0 vpt2 neg V hpt2 0 V 0 vpt2 V
  hpt2 neg 0 V closepath stroke} def
/TriUE {stroke [] 0 setdash vpt 1.12 mul add M
  hpt neg vpt -1.62 mul V
  hpt 2 mul 0 V
  hpt neg vpt 1.62 mul V closepath stroke} def
/TriDE {stroke [] 0 setdash vpt 1.12 mul sub M
  hpt neg vpt 1.62 mul V
  hpt 2 mul 0 V
  hpt neg vpt -1.62 mul V closepath stroke} def
/PentE {stroke [] 0 setdash gsave
  translate 0 hpt M 4 {72 rotate 0 hpt L} repeat
  closepath stroke grestore} def
/CircE {stroke [] 0 setdash 
  hpt 0 360 arc stroke} def
/Opaque {gsave closepath 1 setgray fill grestore 0 setgray closepath} def
/DiaW {stroke [] 0 setdash vpt add M
  hpt neg vpt neg V hpt vpt neg V
  hpt vpt V hpt neg vpt V Opaque stroke} def
/BoxW {stroke [] 0 setdash exch hpt sub exch vpt add M
  0 vpt2 neg V hpt2 0 V 0 vpt2 V
  hpt2 neg 0 V Opaque stroke} def
/TriUW {stroke [] 0 setdash vpt 1.12 mul add M
  hpt neg vpt -1.62 mul V
  hpt 2 mul 0 V
  hpt neg vpt 1.62 mul V Opaque stroke} def
/TriDW {stroke [] 0 setdash vpt 1.12 mul sub M
  hpt neg vpt 1.62 mul V
  hpt 2 mul 0 V
  hpt neg vpt -1.62 mul V Opaque stroke} def
/PentW {stroke [] 0 setdash gsave
  translate 0 hpt M 4 {72 rotate 0 hpt L} repeat
  Opaque stroke grestore} def
/CircW {stroke [] 0 setdash 
  hpt 0 360 arc Opaque stroke} def
/BoxFill {gsave Rec 1 setgray fill grestore} def
/Density {
  /Fillden exch def
  currentrgbcolor
  /ColB exch def /ColG exch def /ColR exch def
  /ColR ColR Fillden mul Fillden sub 1 add def
  /ColG ColG Fillden mul Fillden sub 1 add def
  /ColB ColB Fillden mul Fillden sub 1 add def
  ColR ColG ColB setrgbcolor} def
/BoxColFill {gsave Rec PolyFill} def
/PolyFill {gsave Density fill grestore grestore} def
/h {rlineto rlineto rlineto gsave closepath fill grestore} bind def
%
% PostScript Level 1 Pattern Fill routine for rectangles
% Usage: x y w h s a XX PatternFill
%	x,y = lower left corner of box to be filled
%	w,h = width and height of box
%	  a = angle in degrees between lines and x-axis
%	 XX = 0/1 for no/yes cross-hatch
%
/PatternFill {gsave /PFa [ 9 2 roll ] def
  PFa 0 get PFa 2 get 2 div add PFa 1 get PFa 3 get 2 div add translate
  PFa 2 get -2 div PFa 3 get -2 div PFa 2 get PFa 3 get Rec
  gsave 1 setgray fill grestore clip
  currentlinewidth 0.5 mul setlinewidth
  /PFs PFa 2 get dup mul PFa 3 get dup mul add sqrt def
  0 0 M PFa 5 get rotate PFs -2 div dup translate
  0 1 PFs PFa 4 get div 1 add floor cvi
	{PFa 4 get mul 0 M 0 PFs V} for
  0 PFa 6 get ne {
	0 1 PFs PFa 4 get div 1 add floor cvi
	{PFa 4 get mul 0 2 1 roll M PFs 0 V} for
 } if
  stroke grestore} def
%
/languagelevel where
 {pop languagelevel} {1} ifelse
 2 lt
	{/InterpretLevel1 true def}
	{/InterpretLevel1 Level1 def}
 ifelse
%
% PostScript level 2 pattern fill definitions
%
/Level2PatternFill {
/Tile8x8 {/PaintType 2 /PatternType 1 /TilingType 1 /BBox [0 0 8 8] /XStep 8 /YStep 8}
	bind def
/KeepColor {currentrgbcolor [/Pattern /DeviceRGB] setcolorspace} bind def
<< Tile8x8
 /PaintProc {0.5 setlinewidth pop 0 0 M 8 8 L 0 8 M 8 0 L stroke} 
>> matrix makepattern
/Pat1 exch def
<< Tile8x8
 /PaintProc {0.5 setlinewidth pop 0 0 M 8 8 L 0 8 M 8 0 L stroke
	0 4 M 4 8 L 8 4 L 4 0 L 0 4 L stroke}
>> matrix makepattern
/Pat2 exch def
<< Tile8x8
 /PaintProc {0.5 setlinewidth pop 0 0 M 0 8 L
	8 8 L 8 0 L 0 0 L fill}
>> matrix makepattern
/Pat3 exch def
<< Tile8x8
 /PaintProc {0.5 setlinewidth pop -4 8 M 8 -4 L
	0 12 M 12 0 L stroke}
>> matrix makepattern
/Pat4 exch def
<< Tile8x8
 /PaintProc {0.5 setlinewidth pop -4 0 M 8 12 L
	0 -4 M 12 8 L stroke}
>> matrix makepattern
/Pat5 exch def
<< Tile8x8
 /PaintProc {0.5 setlinewidth pop -2 8 M 4 -4 L
	0 12 M 8 -4 L 4 12 M 10 0 L stroke}
>> matrix makepattern
/Pat6 exch def
<< Tile8x8
 /PaintProc {0.5 setlinewidth pop -2 0 M 4 12 L
	0 -4 M 8 12 L 4 -4 M 10 8 L stroke}
>> matrix makepattern
/Pat7 exch def
<< Tile8x8
 /PaintProc {0.5 setlinewidth pop 8 -2 M -4 4 L
	12 0 M -4 8 L 12 4 M 0 10 L stroke}
>> matrix makepattern
/Pat8 exch def
<< Tile8x8
 /PaintProc {0.5 setlinewidth pop 0 -2 M 12 4 L
	-4 0 M 12 8 L -4 4 M 8 10 L stroke}
>> matrix makepattern
/Pat9 exch def
/Pattern1 {PatternBgnd KeepColor Pat1 setpattern} bind def
/Pattern2 {PatternBgnd KeepColor Pat2 setpattern} bind def
/Pattern3 {PatternBgnd KeepColor Pat3 setpattern} bind def
/Pattern4 {PatternBgnd KeepColor Landscape {Pat5} {Pat4} ifelse setpattern} bind def
/Pattern5 {PatternBgnd KeepColor Landscape {Pat4} {Pat5} ifelse setpattern} bind def
/Pattern6 {PatternBgnd KeepColor Landscape {Pat9} {Pat6} ifelse setpattern} bind def
/Pattern7 {PatternBgnd KeepColor Landscape {Pat8} {Pat7} ifelse setpattern} bind def
} def
%
%
%End of PostScript Level 2 code
%
/PatternBgnd {
  TransparentPatterns {} {gsave 1 setgray fill grestore} ifelse
} def
%
% Substitute for Level 2 pattern fill codes with
% grayscale if Level 2 support is not selected.
%
/Level1PatternFill {
/Pattern1 {0.250 Density} bind def
/Pattern2 {0.500 Density} bind def
/Pattern3 {0.750 Density} bind def
/Pattern4 {0.125 Density} bind def
/Pattern5 {0.375 Density} bind def
/Pattern6 {0.625 Density} bind def
/Pattern7 {0.875 Density} bind def
} def
%
% Now test for support of Level 2 code
%
Level1 {Level1PatternFill} {Level2PatternFill} ifelse
%
/Symbol-Oblique /Symbol findfont [1 0 .167 1 0 0] makefont
dup length dict begin {1 index /FID eq {pop pop} {def} ifelse} forall
currentdict end definefont pop
/MFshow {
   { dup 5 get 3 ge
     { 5 get 3 eq {gsave} {grestore} ifelse }
     {dup dup 0 get findfont exch 1 get scalefont setfont
     [ currentpoint ] exch dup 2 get 0 exch R dup 5 get 2 ne {dup dup 6
     get exch 4 get {Gshow} {stringwidth pop 0 R} ifelse }if dup 5 get 0 eq
     {dup 3 get {2 get neg 0 exch R pop} {pop aload pop M} ifelse} {dup 5
     get 1 eq {dup 2 get exch dup 3 get exch 6 get stringwidth pop -2 div
     dup 0 R} {dup 6 get stringwidth pop -2 div 0 R 6 get
     show 2 index {aload pop M neg 3 -1 roll neg R pop pop} {pop pop pop
     pop aload pop M} ifelse }ifelse }ifelse }
     ifelse }
   forall} def
/Gswidth {dup type /stringtype eq {stringwidth} {pop (n) stringwidth} ifelse} def
/MFwidth {0 exch { dup 5 get 3 ge { 5 get 3 eq { 0 } { pop } ifelse }
 {dup 3 get{dup dup 0 get findfont exch 1 get scalefont setfont
     6 get Gswidth pop add} {pop} ifelse} ifelse} forall} def
/MLshow { currentpoint stroke M
  0 exch R
  Blacktext {gsave 0 setgray MFshow grestore} {MFshow} ifelse } bind def
/MRshow { currentpoint stroke M
  exch dup MFwidth neg 3 -1 roll R
  Blacktext {gsave 0 setgray MFshow grestore} {MFshow} ifelse } bind def
/MCshow { currentpoint stroke M
  exch dup MFwidth -2 div 3 -1 roll R
  Blacktext {gsave 0 setgray MFshow grestore} {MFshow} ifelse } bind def
/XYsave    { [( ) 1 2 true false 3 ()] } bind def
/XYrestore { [( ) 1 2 true false 4 ()] } bind def
Level1 SuppressPDFMark or 
{} {
/SDict 10 dict def
systemdict /pdfmark known not {
  userdict /pdfmark systemdict /cleartomark get put
} if
SDict begin [
  /Title (exampleError.eps)
  /Subject (gnuplot plot)
  /Creator (gnuplot 4.6 patchlevel 0)
  /Author (joagonzalezve)
%  /Producer (gnuplot)
%  /Keywords ()
  /CreationDate (Tue Oct  8 10:26:07 2013)
  /DOCINFO pdfmark
end
} ifelse
end
%%EndProlog
%%Page: 1 1
gnudict begin
gsave
doclip
50 50 translate
0.050 0.050 scale
0 setgray
newpath
(Helvetica) findfont 140 scalefont setfont
BackgroundColor 0 lt 3 1 roll 0 lt exch 0 lt or or not {BackgroundColor C 1.000 0 0 7200.00 5040.00 BoxColFill} if
1.000 UL
LTb
546 568 M
63 0 V
6338 0 R
-63 0 V
stroke
462 568 M
[ [(Helvetica) 140.0 0.0 true true 0 ( 0)]
] -46.7 MRshow
1.000 UL
LTb
546 1114 M
63 0 V
6338 0 R
-63 0 V
stroke
462 1114 M
[ [(Helvetica) 140.0 0.0 true true 0 ( 100)]
] -46.7 MRshow
1.000 UL
LTb
546 1659 M
63 0 V
6338 0 R
-63 0 V
stroke
462 1659 M
[ [(Helvetica) 140.0 0.0 true true 0 ( 200)]
] -46.7 MRshow
1.000 UL
LTb
546 2205 M
63 0 V
6338 0 R
-63 0 V
stroke
462 2205 M
[ [(Helvetica) 140.0 0.0 true true 0 ( 300)]
] -46.7 MRshow
1.000 UL
LTb
546 2751 M
63 0 V
6338 0 R
-63 0 V
stroke
462 2751 M
[ [(Helvetica) 140.0 0.0 true true 0 ( 400)]
] -46.7 MRshow
1.000 UL
LTb
546 3296 M
63 0 V
6338 0 R
-63 0 V
stroke
462 3296 M
[ [(Helvetica) 140.0 0.0 true true 0 ( 500)]
] -46.7 MRshow
1.000 UL
LTb
546 3842 M
63 0 V
6338 0 R
-63 0 V
stroke
462 3842 M
[ [(Helvetica) 140.0 0.0 true true 0 ( 600)]
] -46.7 MRshow
1.000 UL
LTb
546 4387 M
63 0 V
6338 0 R
-63 0 V
stroke
462 4387 M
[ [(Helvetica) 140.0 0.0 true true 0 ( 700)]
] -46.7 MRshow
1.000 UL
LTb
603 280 M
0 63 V
0 4528 R
0 -63 V
stroke
603 140 M
[ [(Helvetica) 140.0 0.0 true true 0 ( 0)]
] -46.7 MCshow
1.000 UL
LTb
1333 280 M
0 63 V
0 4528 R
0 -63 V
stroke
1333 140 M
[ [(Helvetica) 140.0 0.0 true true 0 ( 20)]
] -46.7 MCshow
1.000 UL
LTb
2064 280 M
0 63 V
0 4528 R
0 -63 V
stroke
2064 140 M
[ [(Helvetica) 140.0 0.0 true true 0 ( 40)]
] -46.7 MCshow
1.000 UL
LTb
2794 280 M
0 63 V
0 4528 R
0 -63 V
stroke
2794 140 M
[ [(Helvetica) 140.0 0.0 true true 0 ( 60)]
] -46.7 MCshow
1.000 UL
LTb
3525 280 M
0 63 V
0 4528 R
0 -63 V
stroke
3525 140 M
[ [(Helvetica) 140.0 0.0 true true 0 ( 80)]
] -46.7 MCshow
1.000 UL
LTb
4255 280 M
0 63 V
0 4528 R
0 -63 V
stroke
4255 140 M
[ [(Helvetica) 140.0 0.0 true true 0 ( 100)]
] -46.7 MCshow
1.000 UL
LTb
4986 280 M
0 63 V
0 4528 R
0 -63 V
stroke
4986 140 M
[ [(Helvetica) 140.0 0.0 true true 0 ( 120)]
] -46.7 MCshow
1.000 UL
LTb
5716 280 M
0 63 V
0 4528 R
0 -63 V
stroke
5716 140 M
[ [(Helvetica) 140.0 0.0 true true 0 ( 140)]
] -46.7 MCshow
1.000 UL
LTb
6447 280 M
0 63 V
0 4528 R
0 -63 V
stroke
6447 140 M
[ [(Helvetica) 140.0 0.0 true true 0 ( 160)]
] -46.7 MCshow
1.000 UL
LTb
1.000 UL
LTb
546 4871 N
546 280 L
6401 0 V
0 4591 V
-6401 0 V
Z stroke
1.000 UP
1.000 UL
LTb
% Begin plot #1
1.000 UP
1.000 UL
LT0
LCb setrgbcolor
6296 4738 M
[ [(Helvetica) 140.0 0.0 true true 0 (Error)]
] -46.7 MRshow
LT0
639 3908 Pls
712 1752 Pls
749 1130 Pls
785 936 Pls
822 821 Pls
858 780 Pls
895 719 Pls
931 702 Pls
968 716 Pls
1004 677 Pls
1041 688 Pls
1077 677 Pls
1114 649 Pls
1150 641 Pls
1187 649 Pls
1223 655 Pls
1260 634 Pls
1297 639 Pls
1333 632 Pls
1370 614 Pls
1406 619 Pls
1443 613 Pls
1479 617 Pls
1516 629 Pls
1552 623 Pls
1589 609 Pls
1625 604 Pls
1662 591 Pls
1698 587 Pls
1735 617 Pls
1771 612 Pls
1808 613 Pls
1844 602 Pls
1881 615 Pls
1917 605 Pls
1954 606 Pls
1991 606 Pls
2027 602 Pls
2064 603 Pls
2100 603 Pls
2137 594 Pls
2173 604 Pls
2210 595 Pls
2246 592 Pls
2283 583 Pls
2319 597 Pls
2356 609 Pls
2392 605 Pls
2429 597 Pls
2465 594 Pls
2502 594 Pls
2538 587 Pls
2575 594 Pls
2611 594 Pls
2648 594 Pls
2685 594 Pls
2721 587 Pls
2758 587 Pls
2794 584 Pls
2831 578 Pls
2867 584 Pls
2904 595 Pls
2940 592 Pls
2977 586 Pls
3013 583 Pls
3050 594 Pls
3086 594 Pls
3123 599 Pls
3159 593 Pls
3196 590 Pls
3232 590 Pls
3269 592 Pls
3305 591 Pls
3342 591 Pls
3379 588 Pls
3415 588 Pls
3452 589 Pls
3488 587 Pls
3525 589 Pls
3561 592 Pls
3598 588 Pls
3634 591 Pls
3671 587 Pls
3707 586 Pls
3744 584 Pls
3780 583 Pls
3817 585 Pls
3853 582 Pls
3890 578 Pls
3926 576 Pls
3963 581 Pls
3999 583 Pls
4036 580 Pls
4073 582 Pls
4109 579 Pls
4146 579 Pls
4182 584 Pls
4219 580 Pls
4255 589 Pls
4292 589 Pls
4328 592 Pls
4365 591 Pls
4401 590 Pls
4438 586 Pls
4474 586 Pls
4511 588 Pls
4547 588 Pls
4584 587 Pls
4620 584 Pls
4657 583 Pls
4693 583 Pls
4730 581 Pls
4767 577 Pls
4803 581 Pls
4840 583 Pls
4876 580 Pls
4913 578 Pls
4949 577 Pls
4986 577 Pls
5022 574 Pls
5059 577 Pls
5095 575 Pls
5132 575 Pls
5168 576 Pls
5205 578 Pls
5241 579 Pls
5278 581 Pls
5314 581 Pls
5351 581 Pls
5387 580 Pls
5424 578 Pls
5461 579 Pls
5497 579 Pls
5534 577 Pls
5570 578 Pls
5607 576 Pls
5643 580 Pls
5680 582 Pls
5716 585 Pls
5753 582 Pls
5789 583 Pls
5826 581 Pls
5862 579 Pls
5899 576 Pls
5935 578 Pls
5972 582 Pls
6008 580 Pls
6045 577 Pls
6081 576 Pls
6118 579 Pls
6155 578 Pls
6191 575 Pls
6228 574 Pls
6264 580 Pls
6301 579 Pls
6337 579 Pls
6374 581 Pls
6410 581 Pls
6447 580 Pls
6483 579 Pls
6520 578 Pls
6556 582 Pls
6593 580 Pls
6629 580 Pls
6666 579 Pls
6702 580 Pls
6739 579 Pls
6579 4738 Pls
% End plot #1
1.000 UL
LTb
546 4871 N
546 280 L
6401 0 V
0 4591 V
-6401 0 V
Z stroke
1.000 UP
1.000 UL
LTb
stroke
grestore
end
showpage
%%Page: 2 2
gnudict begin
gsave
doclip
50 50 translate
0.050 0.050 scale
0 setgray
newpath
(Helvetica) findfont 140 scalefont setfont
BackgroundColor 0 lt 3 1 roll 0 lt exch 0 lt or or not {BackgroundColor C 1.000 0 0 7200.00 5040.00 BoxColFill} if
1.000 UL
LTb
546 568 M
63 0 V
6338 0 R
-63 0 V
stroke
462 568 M
[ [(Helvetica) 140.0 0.0 true true 0 ( 0)]
] -46.7 MRshow
1.000 UL
LTb
546 1114 M
63 0 V
6338 0 R
-63 0 V
stroke
462 1114 M
[ [(Helvetica) 140.0 0.0 true true 0 ( 100)]
] -46.7 MRshow
1.000 UL
LTb
546 1659 M
63 0 V
6338 0 R
-63 0 V
stroke
462 1659 M
[ [(Helvetica) 140.0 0.0 true true 0 ( 200)]
] -46.7 MRshow
1.000 UL
LTb
546 2205 M
63 0 V
6338 0 R
-63 0 V
stroke
462 2205 M
[ [(Helvetica) 140.0 0.0 true true 0 ( 300)]
] -46.7 MRshow
1.000 UL
LTb
546 2751 M
63 0 V
6338 0 R
-63 0 V
stroke
462 2751 M
[ [(Helvetica) 140.0 0.0 true true 0 ( 400)]
] -46.7 MRshow
1.000 UL
LTb
546 3296 M
63 0 V
6338 0 R
-63 0 V
stroke
462 3296 M
[ [(Helvetica) 140.0 0.0 true true 0 ( 500)]
] -46.7 MRshow
1.000 UL
LTb
546 3842 M
63 0 V
6338 0 R
-63 0 V
stroke
462 3842 M
[ [(Helvetica) 140.0 0.0 true true 0 ( 600)]
] -46.7 MRshow
1.000 UL
LTb
546 4387 M
63 0 V
6338 0 R
-63 0 V
stroke
462 4387 M
[ [(Helvetica) 140.0 0.0 true true 0 ( 700)]
] -46.7 MRshow
1.000 UL
LTb
603 280 M
0 63 V
0 4528 R
0 -63 V
stroke
603 140 M
[ [(Helvetica) 140.0 0.0 true true 0 ( 0)]
] -46.7 MCshow
1.000 UL
LTb
1333 280 M
0 63 V
0 4528 R
0 -63 V
stroke
1333 140 M
[ [(Helvetica) 140.0 0.0 true true 0 ( 20)]
] -46.7 MCshow
1.000 UL
LTb
2064 280 M
0 63 V
0 4528 R
0 -63 V
stroke
2064 140 M
[ [(Helvetica) 140.0 0.0 true true 0 ( 40)]
] -46.7 MCshow
1.000 UL
LTb
2794 280 M
0 63 V
0 4528 R
0 -63 V
stroke
2794 140 M
[ [(Helvetica) 140.0 0.0 true true 0 ( 60)]
] -46.7 MCshow
1.000 UL
LTb
3525 280 M
0 63 V
0 4528 R
0 -63 V
stroke
3525 140 M
[ [(Helvetica) 140.0 0.0 true true 0 ( 80)]
] -46.7 MCshow
1.000 UL
LTb
4255 280 M
0 63 V
0 4528 R
0 -63 V
stroke
4255 140 M
[ [(Helvetica) 140.0 0.0 true true 0 ( 100)]
] -46.7 MCshow
1.000 UL
LTb
4986 280 M
0 63 V
0 4528 R
0 -63 V
stroke
4986 140 M
[ [(Helvetica) 140.0 0.0 true true 0 ( 120)]
] -46.7 MCshow
1.000 UL
LTb
5716 280 M
0 63 V
0 4528 R
0 -63 V
stroke
5716 140 M
[ [(Helvetica) 140.0 0.0 true true 0 ( 140)]
] -46.7 MCshow
1.000 UL
LTb
6447 280 M
0 63 V
0 4528 R
0 -63 V
stroke
6447 140 M
[ [(Helvetica) 140.0 0.0 true true 0 ( 160)]
] -46.7 MCshow
1.000 UL
LTb
1.000 UL
LTb
546 4871 N
546 280 L
6401 0 V
0 4591 V
-6401 0 V
Z stroke
1.000 UP
1.000 UL
LTb
% Begin plot #1
1.000 UP
1.000 UL
LT0
LCb setrgbcolor
6296 4738 M
[ [(Helvetica) 140.0 0.0 true true 0 (ErrorSuma1)]
] -46.7 MRshow
LT0
950 1752 Pls
899 1130 Pls
908 936 Pls
923 821 Pls
957 780 Pls
976 719 Pls
1012 702 Pls
1066 716 Pls
1084 677 Pls
1137 688 Pls
1172 677 Pls
1189 649 Pls
1223 641 Pls
1273 649 Pls
1322 655 Pls
1339 634 Pls
1387 639 Pls
1418 632 Pls
1434 614 Pls
1481 619 Pls
1512 613 Pls
1557 617 Pls
1617 629 Pls
1647 623 Pls
1662 609 Pls
1691 604 Pls
1706 591 Pls
1735 587 Pls
1836 617 Pls
1865 612 Pls
1907 613 Pls
1921 602 Pls
1991 615 Pls
2005 605 Pls
2046 606 Pls
2087 606 Pls
2115 602 Pls
2155 603 Pls
2196 603 Pls
2209 594 Pls
2276 604 Pls
2289 595 Pls
2316 592 Pls
2329 583 Pls
2408 597 Pls
2487 609 Pls
2512 605 Pls
2525 597 Pls
2551 594 Pls
2590 594 Pls
2603 587 Pls
2667 594 Pls
2705 594 Pls
2743 594 Pls
2781 594 Pls
2793 587 Pls
2831 587 Pls
2856 584 Pls
2869 578 Pls
2931 584 Pls
3018 595 Pls
3042 592 Pls
3055 586 Pls
3079 583 Pls
3165 594 Pls
3201 594 Pls
3262 599 Pls
3274 593 Pls
3298 590 Pls
3335 590 Pls
3383 592 Pls
3419 591 Pls
3455 591 Pls
3478 588 Pls
3514 588 Pls
3562 589 Pls
3585 587 Pls
3633 589 Pls
3692 592 Pls
3703 588 Pls
3762 591 Pls
3774 587 Pls
3809 586 Pls
3832 584 Pls
3867 583 Pls
3914 585 Pls
3937 582 Pls
3949 578 Pls
3972 576 Pls
4041 581 Pls
4087 583 Pls
4110 580 Pls
4156 582 Pls
4179 579 Pls
4213 579 Pls
4282 584 Pls
4293 580 Pls
4396 589 Pls
4430 589 Pls
4486 592 Pls
4520 591 Pls
4554 590 Pls
4565 586 Pls
4599 586 Pls
4655 588 Pls
4688 588 Pls
4722 587 Pls
4733 584 Pls
4766 583 Pls
4800 583 Pls
4822 581 Pls
4833 577 Pls
4900 581 Pls
4955 583 Pls
4966 580 Pls
4988 578 Pls
5021 577 Pls
5054 577 Pls
5065 574 Pls
5131 577 Pls
5153 575 Pls
5186 575 Pls
5230 576 Pls
5285 578 Pls
5328 579 Pls
5383 581 Pls
5426 581 Pls
5459 581 Pls
5491 580 Pls
5513 578 Pls
5556 579 Pls
5588 579 Pls
5610 577 Pls
5653 578 Pls
5675 576 Pls
5750 580 Pls
5804 582 Pls
5868 585 Pls
5879 582 Pls
5932 583 Pls
5943 581 Pls
5964 579 Pls
5975 576 Pls
6028 578 Pls
6102 582 Pls
6124 580 Pls
6134 577 Pls
6155 576 Pls
6230 579 Pls
6251 578 Pls
6261 575 Pls
6282 574 Pls
6388 580 Pls
6409 579 Pls
6451 579 Pls
6503 581 Pls
6545 581 Pls
6566 580 Pls
6598 579 Pls
6629 578 Pls
6702 582 Pls
6723 580 Pls
6754 580 Pls
6786 579 Pls
6827 580 Pls
6859 579 Pls
6579 4738 Pls
% End plot #1
% Begin plot #2
1.000 UP
1.000 UL
LT1
% End plot #2
1.000 UL
LTb
546 4871 N
546 280 L
6401 0 V
0 4591 V
-6401 0 V
Z stroke
1.000 UP
1.000 UL
LTb
stroke
grestore
end
showpage
%%Page: 3 3
gnudict begin
gsave
doclip
50 50 translate
0.050 0.050 scale
0 setgray
newpath
(Helvetica) findfont 140 scalefont setfont
BackgroundColor 0 lt 3 1 roll 0 lt exch 0 lt or or not {BackgroundColor C 1.000 0 0 7200.00 5040.00 BoxColFill} if
1.000 UL
LTb
546 568 M
63 0 V
6338 0 R
-63 0 V
stroke
462 568 M
[ [(Helvetica) 140.0 0.0 true true 0 ( 0)]
] -46.7 MRshow
1.000 UL
LTb
546 1114 M
63 0 V
6338 0 R
-63 0 V
stroke
462 1114 M
[ [(Helvetica) 140.0 0.0 true true 0 ( 100)]
] -46.7 MRshow
1.000 UL
LTb
546 1659 M
63 0 V
6338 0 R
-63 0 V
stroke
462 1659 M
[ [(Helvetica) 140.0 0.0 true true 0 ( 200)]
] -46.7 MRshow
1.000 UL
LTb
546 2205 M
63 0 V
6338 0 R
-63 0 V
stroke
462 2205 M
[ [(Helvetica) 140.0 0.0 true true 0 ( 300)]
] -46.7 MRshow
1.000 UL
LTb
546 2751 M
63 0 V
6338 0 R
-63 0 V
stroke
462 2751 M
[ [(Helvetica) 140.0 0.0 true true 0 ( 400)]
] -46.7 MRshow
1.000 UL
LTb
546 3296 M
63 0 V
6338 0 R
-63 0 V
stroke
462 3296 M
[ [(Helvetica) 140.0 0.0 true true 0 ( 500)]
] -46.7 MRshow
1.000 UL
LTb
546 3842 M
63 0 V
6338 0 R
-63 0 V
stroke
462 3842 M
[ [(Helvetica) 140.0 0.0 true true 0 ( 600)]
] -46.7 MRshow
1.000 UL
LTb
546 4387 M
63 0 V
6338 0 R
-63 0 V
stroke
462 4387 M
[ [(Helvetica) 140.0 0.0 true true 0 ( 700)]
] -46.7 MRshow
1.000 UL
LTb
603 280 M
0 63 V
0 4528 R
0 -63 V
stroke
603 140 M
[ [(Helvetica) 140.0 0.0 true true 0 ( 0)]
] -46.7 MCshow
1.000 UL
LTb
1333 280 M
0 63 V
0 4528 R
0 -63 V
stroke
1333 140 M
[ [(Helvetica) 140.0 0.0 true true 0 ( 20)]
] -46.7 MCshow
1.000 UL
LTb
2064 280 M
0 63 V
0 4528 R
0 -63 V
stroke
2064 140 M
[ [(Helvetica) 140.0 0.0 true true 0 ( 40)]
] -46.7 MCshow
1.000 UL
LTb
2794 280 M
0 63 V
0 4528 R
0 -63 V
stroke
2794 140 M
[ [(Helvetica) 140.0 0.0 true true 0 ( 60)]
] -46.7 MCshow
1.000 UL
LTb
3525 280 M
0 63 V
0 4528 R
0 -63 V
stroke
3525 140 M
[ [(Helvetica) 140.0 0.0 true true 0 ( 80)]
] -46.7 MCshow
1.000 UL
LTb
4255 280 M
0 63 V
0 4528 R
0 -63 V
stroke
4255 140 M
[ [(Helvetica) 140.0 0.0 true true 0 ( 100)]
] -46.7 MCshow
1.000 UL
LTb
4986 280 M
0 63 V
0 4528 R
0 -63 V
stroke
4986 140 M
[ [(Helvetica) 140.0 0.0 true true 0 ( 120)]
] -46.7 MCshow
1.000 UL
LTb
5716 280 M
0 63 V
0 4528 R
0 -63 V
stroke
5716 140 M
[ [(Helvetica) 140.0 0.0 true true 0 ( 140)]
] -46.7 MCshow
1.000 UL
LTb
6447 280 M
0 63 V
0 4528 R
0 -63 V
stroke
6447 140 M
[ [(Helvetica) 140.0 0.0 true true 0 ( 160)]
] -46.7 MCshow
1.000 UL
LTb
1.000 UL
LTb
546 4871 N
546 280 L
6401 0 V
0 4591 V
-6401 0 V
Z stroke
1.000 UP
1.000 UL
LTb
% Begin plot #1
1.000 UP
1.000 UL
LT0
LCb setrgbcolor
6296 4738 M
[ [(Helvetica) 140.0 0.0 true true 0 (ErrorSuma1)]
] -46.7 MRshow
LT0
609 568 Pls
610 568 Pls
611 568 Pls
612 568 Pls
612 568 Pls
612 568 Pls
613 568 Pls
613 568 Pls
613 568 Pls
613 568 Pls
613 568 Pls
613 568 Pls
613 568 Pls
613 568 Pls
613 568 Pls
613 568 Pls
613 568 Pls
613 568 Pls
613 568 Pls
613 568 Pls
613 568 Pls
613 568 Pls
613 568 Pls
613 568 Pls
613 568 Pls
613 568 Pls
613 568 Pls
613 568 Pls
613 568 Pls
613 568 Pls
613 568 Pls
613 568 Pls
613 568 Pls
613 568 Pls
613 568 Pls
614 568 Pls
614 568 Pls
614 568 Pls
614 568 Pls
614 568 Pls
614 568 Pls
614 568 Pls
614 568 Pls
614 568 Pls
614 568 Pls
614 568 Pls
614 568 Pls
614 568 Pls
614 568 Pls
614 568 Pls
614 568 Pls
614 568 Pls
614 568 Pls
614 568 Pls
614 568 Pls
614 568 Pls
614 568 Pls
614 568 Pls
614 568 Pls
614 568 Pls
614 568 Pls
614 568 Pls
614 568 Pls
614 568 Pls
614 568 Pls
614 568 Pls
614 568 Pls
614 568 Pls
614 568 Pls
614 568 Pls
614 568 Pls
614 568 Pls
614 568 Pls
614 568 Pls
614 568 Pls
614 568 Pls
614 568 Pls
614 568 Pls
614 568 Pls
614 568 Pls
614 568 Pls
614 568 Pls
614 568 Pls
614 568 Pls
614 568 Pls
614 568 Pls
614 568 Pls
614 568 Pls
614 568 Pls
614 568 Pls
614 568 Pls
614 568 Pls
614 568 Pls
614 568 Pls
614 568 Pls
614 568 Pls
614 568 Pls
614 568 Pls
614 568 Pls
614 568 Pls
614 568 Pls
614 568 Pls
614 568 Pls
614 568 Pls
614 568 Pls
614 568 Pls
614 568 Pls
614 568 Pls
614 568 Pls
614 568 Pls
614 568 Pls
614 568 Pls
614 568 Pls
614 568 Pls
614 568 Pls
614 568 Pls
614 568 Pls
614 568 Pls
614 568 Pls
614 568 Pls
614 568 Pls
614 568 Pls
614 568 Pls
614 568 Pls
614 568 Pls
614 568 Pls
614 568 Pls
614 568 Pls
614 568 Pls
614 568 Pls
614 568 Pls
614 568 Pls
614 568 Pls
614 568 Pls
614 568 Pls
614 568 Pls
614 568 Pls
614 568 Pls
614 568 Pls
614 568 Pls
614 568 Pls
614 568 Pls
614 568 Pls
614 568 Pls
614 568 Pls
614 568 Pls
614 568 Pls
614 568 Pls
614 568 Pls
614 568 Pls
614 568 Pls
614 568 Pls
614 568 Pls
614 568 Pls
614 568 Pls
614 568 Pls
614 568 Pls
614 568 Pls
614 568 Pls
614 568 Pls
614 568 Pls
614 568 Pls
614 568 Pls
614 568 Pls
614 568 Pls
614 568 Pls
614 568 Pls
614 568 Pls
614 568 Pls
614 568 Pls
614 568 Pls
614 568 Pls
614 568 Pls
614 568 Pls
614 568 Pls
614 568 Pls
614 568 Pls
614 568 Pls
614 568 Pls
614 568 Pls
614 568 Pls
614 568 Pls
614 568 Pls
614 568 Pls
614 568 Pls
614 568 Pls
614 568 Pls
614 568 Pls
614 568 Pls
614 568 Pls
614 568 Pls
614 568 Pls
614 568 Pls
614 568 Pls
614 568 Pls
614 568 Pls
614 568 Pls
614 568 Pls
614 568 Pls
614 568 Pls
614 568 Pls
614 568 Pls
614 568 Pls
614 568 Pls
614 568 Pls
614 568 Pls
614 568 Pls
614 568 Pls
614 568 Pls
614 568 Pls
614 568 Pls
614 568 Pls
614 568 Pls
614 568 Pls
614 568 Pls
614 568 Pls
614 568 Pls
614 568 Pls
614 568 Pls
614 568 Pls
614 568 Pls
614 568 Pls
614 568 Pls
614 568 Pls
614 568 Pls
614 568 Pls
614 568 Pls
614 568 Pls
614 568 Pls
614 568 Pls
614 568 Pls
614 568 Pls
614 568 Pls
614 568 Pls
614 568 Pls
614 568 Pls
614 568 Pls
614 568 Pls
614 568 Pls
614 568 Pls
614 568 Pls
614 568 Pls
614 568 Pls
614 568 Pls
614 568 Pls
614 568 Pls
614 568 Pls
614 568 Pls
614 568 Pls
614 568 Pls
614 568 Pls
614 568 Pls
614 568 Pls
614 568 Pls
614 568 Pls
614 568 Pls
614 568 Pls
614 568 Pls
614 568 Pls
614 568 Pls
614 568 Pls
614 568 Pls
614 568 Pls
614 568 Pls
614 568 Pls
614 568 Pls
614 568 Pls
614 568 Pls
614 568 Pls
614 568 Pls
614 568 Pls
614 568 Pls
614 568 Pls
614 568 Pls
614 568 Pls
614 568 Pls
614 568 Pls
614 568 Pls
614 568 Pls
614 568 Pls
614 568 Pls
614 568 Pls
614 568 Pls
614 568 Pls
614 568 Pls
614 568 Pls
614 568 Pls
614 568 Pls
614 568 Pls
614 568 Pls
614 568 Pls
614 568 Pls
614 568 Pls
614 568 Pls
614 568 Pls
614 568 Pls
614 568 Pls
614 568 Pls
614 568 Pls
614 568 Pls
614 568 Pls
614 568 Pls
614 568 Pls
614 568 Pls
614 568 Pls
614 568 Pls
614 568 Pls
614 568 Pls
614 568 Pls
614 568 Pls
614 568 Pls
614 568 Pls
614 568 Pls
614 568 Pls
614 568 Pls
614 568 Pls
614 568 Pls
614 568 Pls
614 568 Pls
614 568 Pls
614 568 Pls
614 568 Pls
614 568 Pls
614 568 Pls
614 568 Pls
614 568 Pls
614 568 Pls
614 568 Pls
614 568 Pls
614 568 Pls
614 568 Pls
614 568 Pls
614 568 Pls
614 568 Pls
614 568 Pls
614 568 Pls
614 568 Pls
614 568 Pls
614 568 Pls
614 568 Pls
614 568 Pls
614 568 Pls
614 568 Pls
614 568 Pls
614 568 Pls
614 568 Pls
614 568 Pls
614 568 Pls
614 568 Pls
614 568 Pls
614 568 Pls
614 568 Pls
614 568 Pls
614 568 Pls
614 568 Pls
614 568 Pls
614 568 Pls
614 568 Pls
614 568 Pls
614 568 Pls
614 568 Pls
614 568 Pls
614 568 Pls
614 568 Pls
614 568 Pls
614 568 Pls
614 568 Pls
614 568 Pls
614 568 Pls
614 568 Pls
614 568 Pls
614 568 Pls
614 568 Pls
614 568 Pls
614 568 Pls
614 568 Pls
614 568 Pls
614 568 Pls
614 568 Pls
614 568 Pls
614 568 Pls
614 568 Pls
614 568 Pls
614 568 Pls
614 568 Pls
614 568 Pls
614 568 Pls
614 568 Pls
614 568 Pls
614 568 Pls
614 568 Pls
614 568 Pls
614 568 Pls
614 568 Pls
614 568 Pls
614 568 Pls
614 568 Pls
614 568 Pls
614 568 Pls
614 568 Pls
614 568 Pls
614 568 Pls
614 568 Pls
614 568 Pls
614 568 Pls
614 568 Pls
614 568 Pls
614 568 Pls
614 568 Pls
614 568 Pls
614 568 Pls
614 568 Pls
614 568 Pls
614 568 Pls
614 568 Pls
614 568 Pls
614 568 Pls
614 568 Pls
614 568 Pls
614 568 Pls
614 568 Pls
614 568 Pls
614 568 Pls
614 568 Pls
614 568 Pls
614 568 Pls
614 568 Pls
614 568 Pls
614 568 Pls
614 568 Pls
614 568 Pls
614 568 Pls
614 568 Pls
614 568 Pls
614 568 Pls
614 568 Pls
614 568 Pls
614 568 Pls
614 568 Pls
614 568 Pls
614 568 Pls
614 568 Pls
614 568 Pls
614 568 Pls
614 568 Pls
614 568 Pls
614 568 Pls
614 568 Pls
614 568 Pls
614 568 Pls
614 568 Pls
614 568 Pls
614 568 Pls
614 568 Pls
614 568 Pls
614 568 Pls
614 568 Pls
614 568 Pls
614 568 Pls
614 568 Pls
614 568 Pls
614 568 Pls
614 568 Pls
614 568 Pls
614 568 Pls
614 568 Pls
614 568 Pls
614 568 Pls
614 568 Pls
614 568 Pls
614 568 Pls
614 568 Pls
614 568 Pls
614 568 Pls
614 568 Pls
614 568 Pls
614 568 Pls
614 568 Pls
614 568 Pls
614 568 Pls
614 568 Pls
614 568 Pls
614 568 Pls
614 568 Pls
614 568 Pls
614 568 Pls
614 568 Pls
614 568 Pls
614 568 Pls
614 568 Pls
614 568 Pls
614 568 Pls
614 568 Pls
614 568 Pls
614 568 Pls
614 568 Pls
614 568 Pls
614 568 Pls
614 568 Pls
614 568 Pls
614 568 Pls
614 568 Pls
614 568 Pls
614 568 Pls
614 568 Pls
614 568 Pls
614 568 Pls
614 568 Pls
614 568 Pls
614 568 Pls
614 568 Pls
614 568 Pls
614 568 Pls
614 568 Pls
614 568 Pls
614 568 Pls
614 568 Pls
614 568 Pls
614 568 Pls
614 568 Pls
614 568 Pls
614 568 Pls
614 568 Pls
614 568 Pls
614 568 Pls
614 568 Pls
614 568 Pls
614 568 Pls
614 568 Pls
614 568 Pls
614 568 Pls
614 568 Pls
614 568 Pls
614 568 Pls
614 568 Pls
614 568 Pls
614 568 Pls
614 568 Pls
614 568 Pls
614 568 Pls
614 568 Pls
614 568 Pls
614 568 Pls
614 568 Pls
614 568 Pls
614 568 Pls
614 568 Pls
614 568 Pls
614 568 Pls
614 568 Pls
614 568 Pls
614 568 Pls
614 568 Pls
614 568 Pls
614 568 Pls
614 568 Pls
614 568 Pls
614 568 Pls
614 568 Pls
614 568 Pls
614 568 Pls
614 568 Pls
614 568 Pls
614 568 Pls
614 568 Pls
614 568 Pls
614 568 Pls
614 568 Pls
614 568 Pls
614 568 Pls
614 568 Pls
614 568 Pls
614 568 Pls
614 568 Pls
614 568 Pls
614 568 Pls
614 568 Pls
614 568 Pls
614 568 Pls
614 568 Pls
614 568 Pls
614 568 Pls
614 568 Pls
614 568 Pls
614 568 Pls
614 568 Pls
614 568 Pls
614 568 Pls
614 568 Pls
614 568 Pls
614 568 Pls
614 568 Pls
614 568 Pls
614 568 Pls
614 568 Pls
614 568 Pls
614 568 Pls
614 568 Pls
614 568 Pls
614 568 Pls
614 568 Pls
614 568 Pls
614 568 Pls
614 568 Pls
614 568 Pls
614 568 Pls
614 568 Pls
614 568 Pls
614 568 Pls
614 568 Pls
614 568 Pls
614 568 Pls
614 568 Pls
614 568 Pls
614 568 Pls
614 568 Pls
614 568 Pls
614 568 Pls
614 568 Pls
614 568 Pls
614 568 Pls
614 568 Pls
614 568 Pls
614 568 Pls
614 568 Pls
614 568 Pls
614 568 Pls
614 568 Pls
614 568 Pls
614 568 Pls
614 568 Pls
614 568 Pls
614 568 Pls
614 568 Pls
614 568 Pls
614 568 Pls
614 568 Pls
614 568 Pls
614 568 Pls
614 568 Pls
614 568 Pls
614 568 Pls
614 568 Pls
614 568 Pls
614 568 Pls
614 568 Pls
614 568 Pls
614 568 Pls
614 568 Pls
614 568 Pls
614 568 Pls
614 568 Pls
614 568 Pls
614 568 Pls
614 568 Pls
614 568 Pls
614 568 Pls
614 568 Pls
614 568 Pls
614 568 Pls
614 568 Pls
614 568 Pls
614 568 Pls
614 568 Pls
614 568 Pls
614 568 Pls
614 568 Pls
614 568 Pls
614 568 Pls
614 568 Pls
614 568 Pls
614 568 Pls
614 568 Pls
614 568 Pls
614 568 Pls
614 568 Pls
614 568 Pls
614 568 Pls
614 568 Pls
614 568 Pls
614 568 Pls
614 568 Pls
614 568 Pls
614 568 Pls
614 568 Pls
614 568 Pls
614 568 Pls
614 568 Pls
614 568 Pls
614 568 Pls
614 568 Pls
614 568 Pls
614 568 Pls
614 568 Pls
614 568 Pls
614 568 Pls
614 568 Pls
614 568 Pls
614 568 Pls
614 568 Pls
614 568 Pls
614 568 Pls
614 568 Pls
614 568 Pls
614 568 Pls
614 568 Pls
614 568 Pls
614 568 Pls
614 568 Pls
614 568 Pls
614 568 Pls
614 568 Pls
614 568 Pls
614 568 Pls
614 568 Pls
614 568 Pls
614 568 Pls
614 568 Pls
614 568 Pls
614 568 Pls
614 568 Pls
614 568 Pls
614 568 Pls
614 568 Pls
614 568 Pls
614 568 Pls
614 568 Pls
614 568 Pls
614 568 Pls
614 568 Pls
614 568 Pls
614 568 Pls
614 568 Pls
614 568 Pls
614 568 Pls
614 568 Pls
614 568 Pls
614 568 Pls
614 568 Pls
614 568 Pls
614 568 Pls
614 568 Pls
614 568 Pls
614 568 Pls
614 568 Pls
614 568 Pls
614 568 Pls
614 568 Pls
614 568 Pls
614 568 Pls
614 568 Pls
614 568 Pls
614 568 Pls
614 568 Pls
614 568 Pls
614 568 Pls
614 568 Pls
614 568 Pls
614 568 Pls
614 568 Pls
614 568 Pls
614 568 Pls
614 568 Pls
614 568 Pls
614 568 Pls
614 568 Pls
614 568 Pls
614 568 Pls
614 568 Pls
614 568 Pls
614 568 Pls
614 568 Pls
614 568 Pls
614 568 Pls
614 568 Pls
614 568 Pls
614 568 Pls
614 568 Pls
614 568 Pls
614 568 Pls
614 568 Pls
614 568 Pls
614 568 Pls
614 568 Pls
614 568 Pls
614 568 Pls
614 568 Pls
614 568 Pls
614 568 Pls
614 568 Pls
614 568 Pls
614 568 Pls
614 568 Pls
614 568 Pls
614 568 Pls
614 568 Pls
614 568 Pls
614 568 Pls
614 568 Pls
614 568 Pls
614 568 Pls
614 568 Pls
614 568 Pls
614 568 Pls
614 568 Pls
614 568 Pls
614 568 Pls
614 568 Pls
614 568 Pls
614 568 Pls
614 568 Pls
614 568 Pls
614 568 Pls
614 568 Pls
614 568 Pls
614 568 Pls
614 568 Pls
614 568 Pls
614 568 Pls
614 568 Pls
614 568 Pls
614 568 Pls
614 568 Pls
614 568 Pls
614 568 Pls
614 568 Pls
614 568 Pls
614 568 Pls
614 568 Pls
614 568 Pls
614 568 Pls
614 568 Pls
614 568 Pls
614 568 Pls
614 568 Pls
614 568 Pls
614 568 Pls
614 568 Pls
614 568 Pls
614 568 Pls
614 568 Pls
614 568 Pls
614 568 Pls
614 568 Pls
614 568 Pls
614 568 Pls
614 568 Pls
614 568 Pls
614 568 Pls
614 568 Pls
614 568 Pls
614 568 Pls
614 568 Pls
614 568 Pls
614 568 Pls
614 568 Pls
614 568 Pls
614 568 Pls
614 568 Pls
614 568 Pls
614 568 Pls
614 568 Pls
614 568 Pls
614 568 Pls
614 568 Pls
614 568 Pls
614 568 Pls
614 568 Pls
614 568 Pls
614 568 Pls
614 568 Pls
614 568 Pls
614 568 Pls
614 568 Pls
614 568 Pls
614 568 Pls
614 568 Pls
614 568 Pls
614 568 Pls
614 568 Pls
614 568 Pls
614 568 Pls
614 568 Pls
614 568 Pls
614 568 Pls
614 568 Pls
614 568 Pls
614 568 Pls
614 568 Pls
614 568 Pls
614 568 Pls
614 568 Pls
614 568 Pls
614 568 Pls
614 568 Pls
614 568 Pls
614 568 Pls
614 568 Pls
614 568 Pls
614 568 Pls
614 568 Pls
614 568 Pls
614 568 Pls
614 568 Pls
614 568 Pls
614 568 Pls
614 568 Pls
614 568 Pls
614 568 Pls
614 568 Pls
614 568 Pls
614 568 Pls
614 568 Pls
614 568 Pls
614 568 Pls
614 568 Pls
614 568 Pls
614 568 Pls
614 568 Pls
614 568 Pls
614 568 Pls
614 568 Pls
614 568 Pls
614 568 Pls
614 568 Pls
614 568 Pls
614 568 Pls
614 568 Pls
614 568 Pls
614 568 Pls
614 568 Pls
614 568 Pls
614 568 Pls
614 568 Pls
614 568 Pls
614 568 Pls
614 568 Pls
614 568 Pls
614 568 Pls
614 568 Pls
614 568 Pls
614 568 Pls
614 568 Pls
614 568 Pls
614 568 Pls
614 568 Pls
614 568 Pls
614 568 Pls
614 568 Pls
614 568 Pls
614 568 Pls
614 568 Pls
614 568 Pls
614 568 Pls
614 568 Pls
614 568 Pls
614 568 Pls
614 568 Pls
614 568 Pls
614 568 Pls
614 568 Pls
614 568 Pls
614 568 Pls
614 568 Pls
614 568 Pls
614 568 Pls
614 568 Pls
614 568 Pls
614 568 Pls
614 568 Pls
614 568 Pls
614 568 Pls
614 568 Pls
614 568 Pls
614 568 Pls
614 568 Pls
614 568 Pls
614 568 Pls
614 568 Pls
614 568 Pls
614 568 Pls
614 568 Pls
614 568 Pls
614 568 Pls
614 568 Pls
614 568 Pls
614 568 Pls
614 568 Pls
614 568 Pls
614 568 Pls
614 568 Pls
614 568 Pls
614 568 Pls
614 568 Pls
614 568 Pls
614 568 Pls
614 568 Pls
614 568 Pls
614 568 Pls
614 568 Pls
6579 4738 Pls
% End plot #1
% Begin plot #2
1.000 UP
1.000 UL
LT1
LCb setrgbcolor
6296 4598 M
[ [(Helvetica) 140.0 0.0 true true 0 (ErrorSuma2)]
] -46.7 MRshow
LT1
609 568 Crs
610 568 Crs
611 568 Crs
612 568 Crs
612 568 Crs
612 568 Crs
613 568 Crs
613 568 Crs
613 568 Crs
613 568 Crs
613 568 Crs
613 568 Crs
613 568 Crs
613 568 Crs
613 568 Crs
613 568 Crs
613 568 Crs
613 568 Crs
613 568 Crs
613 568 Crs
613 568 Crs
613 568 Crs
613 568 Crs
613 568 Crs
613 568 Crs
613 568 Crs
613 568 Crs
613 568 Crs
613 568 Crs
613 568 Crs
613 568 Crs
613 568 Crs
613 568 Crs
613 568 Crs
613 568 Crs
614 568 Crs
614 568 Crs
614 568 Crs
614 568 Crs
614 568 Crs
614 568 Crs
614 568 Crs
614 568 Crs
614 568 Crs
614 568 Crs
614 568 Crs
614 568 Crs
614 568 Crs
614 568 Crs
614 568 Crs
614 568 Crs
614 568 Crs
614 568 Crs
614 568 Crs
614 568 Crs
614 568 Crs
614 568 Crs
614 568 Crs
614 568 Crs
614 568 Crs
614 568 Crs
614 568 Crs
614 568 Crs
614 568 Crs
614 568 Crs
614 568 Crs
614 568 Crs
614 568 Crs
614 568 Crs
614 568 Crs
614 568 Crs
614 568 Crs
614 568 Crs
614 568 Crs
614 568 Crs
614 568 Crs
614 568 Crs
614 568 Crs
614 568 Crs
614 568 Crs
614 568 Crs
614 568 Crs
614 568 Crs
614 568 Crs
614 568 Crs
614 568 Crs
614 568 Crs
614 568 Crs
614 568 Crs
614 568 Crs
614 568 Crs
614 568 Crs
614 568 Crs
614 568 Crs
614 568 Crs
614 568 Crs
614 568 Crs
614 568 Crs
614 568 Crs
614 568 Crs
614 568 Crs
614 568 Crs
614 568 Crs
614 568 Crs
614 568 Crs
614 568 Crs
614 568 Crs
614 568 Crs
614 568 Crs
614 568 Crs
614 568 Crs
614 568 Crs
614 568 Crs
614 568 Crs
614 568 Crs
614 568 Crs
614 568 Crs
614 568 Crs
614 568 Crs
614 568 Crs
614 568 Crs
614 568 Crs
614 568 Crs
614 568 Crs
614 568 Crs
614 568 Crs
614 568 Crs
614 568 Crs
614 568 Crs
614 568 Crs
614 568 Crs
614 568 Crs
614 568 Crs
614 568 Crs
614 568 Crs
614 568 Crs
614 568 Crs
614 568 Crs
614 568 Crs
614 568 Crs
614 568 Crs
614 568 Crs
614 568 Crs
614 568 Crs
614 568 Crs
614 568 Crs
614 568 Crs
614 568 Crs
614 568 Crs
614 568 Crs
614 568 Crs
614 568 Crs
614 568 Crs
614 568 Crs
614 568 Crs
614 568 Crs
614 568 Crs
614 568 Crs
614 568 Crs
614 568 Crs
614 568 Crs
614 568 Crs
614 568 Crs
614 568 Crs
614 568 Crs
614 568 Crs
614 568 Crs
614 568 Crs
614 568 Crs
614 568 Crs
614 568 Crs
614 568 Crs
614 568 Crs
614 568 Crs
614 568 Crs
614 568 Crs
614 568 Crs
614 568 Crs
614 568 Crs
614 568 Crs
614 568 Crs
614 568 Crs
614 568 Crs
614 568 Crs
614 568 Crs
614 568 Crs
614 568 Crs
614 568 Crs
614 568 Crs
614 568 Crs
614 568 Crs
614 568 Crs
614 568 Crs
614 568 Crs
614 568 Crs
614 568 Crs
614 568 Crs
614 568 Crs
614 568 Crs
614 568 Crs
614 568 Crs
614 568 Crs
614 568 Crs
614 568 Crs
614 568 Crs
614 568 Crs
614 568 Crs
614 568 Crs
614 568 Crs
614 568 Crs
614 568 Crs
614 568 Crs
614 568 Crs
614 568 Crs
614 568 Crs
614 568 Crs
614 568 Crs
614 568 Crs
614 568 Crs
614 568 Crs
614 568 Crs
614 568 Crs
614 568 Crs
614 568 Crs
614 568 Crs
614 568 Crs
614 568 Crs
614 568 Crs
614 568 Crs
614 568 Crs
614 568 Crs
614 568 Crs
614 568 Crs
614 568 Crs
614 568 Crs
614 568 Crs
614 568 Crs
614 568 Crs
614 568 Crs
614 568 Crs
614 568 Crs
614 568 Crs
614 568 Crs
614 568 Crs
614 568 Crs
614 568 Crs
614 568 Crs
614 568 Crs
614 568 Crs
614 568 Crs
614 568 Crs
614 568 Crs
614 568 Crs
614 568 Crs
614 568 Crs
614 568 Crs
614 568 Crs
614 568 Crs
614 568 Crs
614 568 Crs
614 568 Crs
614 568 Crs
614 568 Crs
614 568 Crs
614 568 Crs
614 568 Crs
614 568 Crs
614 568 Crs
614 568 Crs
614 568 Crs
614 568 Crs
614 568 Crs
614 568 Crs
614 568 Crs
614 568 Crs
614 568 Crs
614 568 Crs
614 568 Crs
614 568 Crs
614 568 Crs
614 568 Crs
614 568 Crs
614 568 Crs
614 568 Crs
614 568 Crs
614 568 Crs
614 568 Crs
614 568 Crs
614 568 Crs
614 568 Crs
614 568 Crs
614 568 Crs
614 568 Crs
614 568 Crs
614 568 Crs
614 568 Crs
614 568 Crs
614 568 Crs
614 568 Crs
614 568 Crs
614 568 Crs
614 568 Crs
614 568 Crs
614 568 Crs
614 568 Crs
614 568 Crs
614 568 Crs
614 568 Crs
614 568 Crs
614 568 Crs
614 568 Crs
614 568 Crs
614 568 Crs
614 568 Crs
614 568 Crs
614 568 Crs
614 568 Crs
614 568 Crs
614 568 Crs
614 568 Crs
614 568 Crs
614 568 Crs
614 568 Crs
614 568 Crs
614 568 Crs
614 568 Crs
614 568 Crs
614 568 Crs
614 568 Crs
614 568 Crs
614 568 Crs
614 568 Crs
614 568 Crs
614 568 Crs
614 568 Crs
614 568 Crs
614 568 Crs
614 568 Crs
614 568 Crs
614 568 Crs
614 568 Crs
614 568 Crs
614 568 Crs
614 568 Crs
614 568 Crs
614 568 Crs
614 568 Crs
614 568 Crs
614 568 Crs
614 568 Crs
614 568 Crs
614 568 Crs
614 568 Crs
614 568 Crs
614 568 Crs
614 568 Crs
614 568 Crs
614 568 Crs
614 568 Crs
614 568 Crs
614 568 Crs
614 568 Crs
614 568 Crs
614 568 Crs
614 568 Crs
614 568 Crs
614 568 Crs
614 568 Crs
614 568 Crs
614 568 Crs
614 568 Crs
614 568 Crs
614 568 Crs
614 568 Crs
614 568 Crs
614 568 Crs
614 568 Crs
614 568 Crs
614 568 Crs
614 568 Crs
614 568 Crs
614 568 Crs
614 568 Crs
614 568 Crs
614 568 Crs
614 568 Crs
614 568 Crs
614 568 Crs
614 568 Crs
614 568 Crs
614 568 Crs
614 568 Crs
614 568 Crs
614 568 Crs
614 568 Crs
614 568 Crs
614 568 Crs
614 568 Crs
614 568 Crs
614 568 Crs
614 568 Crs
614 568 Crs
614 568 Crs
614 568 Crs
614 568 Crs
614 568 Crs
614 568 Crs
614 568 Crs
614 568 Crs
614 568 Crs
614 568 Crs
614 568 Crs
614 568 Crs
614 568 Crs
614 568 Crs
614 568 Crs
614 568 Crs
614 568 Crs
614 568 Crs
614 568 Crs
614 568 Crs
614 568 Crs
614 568 Crs
614 568 Crs
614 568 Crs
614 568 Crs
614 568 Crs
614 568 Crs
614 568 Crs
614 568 Crs
614 568 Crs
614 568 Crs
614 568 Crs
614 568 Crs
614 568 Crs
614 568 Crs
614 568 Crs
614 568 Crs
614 568 Crs
614 568 Crs
614 568 Crs
614 568 Crs
614 568 Crs
614 568 Crs
614 568 Crs
614 568 Crs
614 568 Crs
614 568 Crs
614 568 Crs
614 568 Crs
614 568 Crs
614 568 Crs
614 568 Crs
614 568 Crs
614 568 Crs
614 568 Crs
614 568 Crs
614 568 Crs
614 568 Crs
614 568 Crs
614 568 Crs
614 568 Crs
614 568 Crs
614 568 Crs
614 568 Crs
614 568 Crs
614 568 Crs
614 568 Crs
614 568 Crs
614 568 Crs
614 568 Crs
614 568 Crs
614 568 Crs
614 568 Crs
614 568 Crs
614 568 Crs
614 568 Crs
614 568 Crs
614 568 Crs
614 568 Crs
614 568 Crs
614 568 Crs
614 568 Crs
614 568 Crs
614 568 Crs
614 568 Crs
614 568 Crs
614 568 Crs
614 568 Crs
614 568 Crs
614 568 Crs
614 568 Crs
614 568 Crs
614 568 Crs
614 568 Crs
614 568 Crs
614 568 Crs
614 568 Crs
614 568 Crs
614 568 Crs
614 568 Crs
614 568 Crs
614 568 Crs
614 568 Crs
614 568 Crs
614 568 Crs
614 568 Crs
614 568 Crs
614 568 Crs
614 568 Crs
614 568 Crs
614 568 Crs
614 568 Crs
614 568 Crs
614 568 Crs
614 568 Crs
614 568 Crs
614 568 Crs
614 568 Crs
614 568 Crs
614 568 Crs
614 568 Crs
614 568 Crs
614 568 Crs
614 568 Crs
614 568 Crs
614 568 Crs
614 568 Crs
614 568 Crs
614 568 Crs
614 568 Crs
614 568 Crs
614 568 Crs
614 568 Crs
614 568 Crs
614 568 Crs
614 568 Crs
614 568 Crs
614 568 Crs
614 568 Crs
614 568 Crs
614 568 Crs
614 568 Crs
614 568 Crs
614 568 Crs
614 568 Crs
614 568 Crs
614 568 Crs
614 568 Crs
614 568 Crs
614 568 Crs
614 568 Crs
614 568 Crs
614 568 Crs
614 568 Crs
614 568 Crs
614 568 Crs
614 568 Crs
614 568 Crs
614 568 Crs
614 568 Crs
614 568 Crs
614 568 Crs
614 568 Crs
614 568 Crs
614 568 Crs
614 568 Crs
614 568 Crs
614 568 Crs
614 568 Crs
614 568 Crs
614 568 Crs
614 568 Crs
614 568 Crs
614 568 Crs
614 568 Crs
614 568 Crs
614 568 Crs
614 568 Crs
614 568 Crs
614 568 Crs
614 568 Crs
614 568 Crs
614 568 Crs
614 568 Crs
614 568 Crs
614 568 Crs
614 568 Crs
614 568 Crs
614 568 Crs
614 568 Crs
614 568 Crs
614 568 Crs
614 568 Crs
614 568 Crs
614 568 Crs
614 568 Crs
614 568 Crs
614 568 Crs
614 568 Crs
614 568 Crs
614 568 Crs
614 568 Crs
614 568 Crs
614 568 Crs
614 568 Crs
614 568 Crs
614 568 Crs
614 568 Crs
614 568 Crs
614 568 Crs
614 568 Crs
614 568 Crs
614 568 Crs
614 568 Crs
614 568 Crs
614 568 Crs
614 568 Crs
614 568 Crs
614 568 Crs
614 568 Crs
614 568 Crs
614 568 Crs
614 568 Crs
614 568 Crs
614 568 Crs
614 568 Crs
614 568 Crs
614 568 Crs
614 568 Crs
614 568 Crs
614 568 Crs
614 568 Crs
614 568 Crs
614 568 Crs
614 568 Crs
614 568 Crs
614 568 Crs
614 568 Crs
614 568 Crs
614 568 Crs
614 568 Crs
614 568 Crs
614 568 Crs
614 568 Crs
614 568 Crs
614 568 Crs
614 568 Crs
614 568 Crs
614 568 Crs
614 568 Crs
614 568 Crs
614 568 Crs
614 568 Crs
614 568 Crs
614 568 Crs
614 568 Crs
614 568 Crs
614 568 Crs
614 568 Crs
614 568 Crs
614 568 Crs
614 568 Crs
614 568 Crs
614 568 Crs
614 568 Crs
614 568 Crs
614 568 Crs
614 568 Crs
614 568 Crs
614 568 Crs
614 568 Crs
614 568 Crs
614 568 Crs
614 568 Crs
614 568 Crs
614 568 Crs
614 568 Crs
614 568 Crs
614 568 Crs
614 568 Crs
614 568 Crs
614 568 Crs
614 568 Crs
614 568 Crs
614 568 Crs
614 568 Crs
614 568 Crs
614 568 Crs
614 568 Crs
614 568 Crs
614 568 Crs
614 568 Crs
614 568 Crs
614 568 Crs
614 568 Crs
614 568 Crs
614 568 Crs
614 568 Crs
614 568 Crs
614 568 Crs
614 568 Crs
614 568 Crs
614 568 Crs
614 568 Crs
614 568 Crs
614 568 Crs
614 568 Crs
614 568 Crs
614 568 Crs
614 568 Crs
614 568 Crs
614 568 Crs
614 568 Crs
614 568 Crs
614 568 Crs
614 568 Crs
614 568 Crs
614 568 Crs
614 568 Crs
614 568 Crs
614 568 Crs
614 568 Crs
614 568 Crs
614 568 Crs
614 568 Crs
614 568 Crs
614 568 Crs
614 568 Crs
614 568 Crs
614 568 Crs
614 568 Crs
614 568 Crs
614 568 Crs
614 568 Crs
614 568 Crs
614 568 Crs
614 568 Crs
614 568 Crs
614 568 Crs
614 568 Crs
614 568 Crs
614 568 Crs
614 568 Crs
614 568 Crs
614 568 Crs
614 568 Crs
614 568 Crs
614 568 Crs
614 568 Crs
614 568 Crs
614 568 Crs
614 568 Crs
614 568 Crs
614 568 Crs
614 568 Crs
614 568 Crs
614 568 Crs
614 568 Crs
614 568 Crs
614 568 Crs
614 568 Crs
614 568 Crs
614 568 Crs
614 568 Crs
614 568 Crs
614 568 Crs
614 568 Crs
614 568 Crs
614 568 Crs
614 568 Crs
614 568 Crs
614 568 Crs
614 568 Crs
614 568 Crs
614 568 Crs
614 568 Crs
614 568 Crs
614 568 Crs
614 568 Crs
614 568 Crs
614 568 Crs
614 568 Crs
614 568 Crs
614 568 Crs
614 568 Crs
614 568 Crs
614 568 Crs
614 568 Crs
614 568 Crs
614 568 Crs
614 568 Crs
614 568 Crs
614 568 Crs
614 568 Crs
614 568 Crs
614 568 Crs
614 568 Crs
614 568 Crs
614 568 Crs
614 568 Crs
614 568 Crs
614 568 Crs
614 568 Crs
614 568 Crs
614 568 Crs
614 568 Crs
614 568 Crs
614 568 Crs
614 568 Crs
614 568 Crs
614 568 Crs
614 568 Crs
614 568 Crs
614 568 Crs
614 568 Crs
614 568 Crs
614 568 Crs
614 568 Crs
614 568 Crs
614 568 Crs
614 568 Crs
614 568 Crs
614 568 Crs
614 568 Crs
614 568 Crs
614 568 Crs
614 568 Crs
614 568 Crs
614 568 Crs
614 568 Crs
614 568 Crs
614 568 Crs
614 568 Crs
614 568 Crs
614 568 Crs
614 568 Crs
614 568 Crs
614 568 Crs
614 568 Crs
614 568 Crs
614 568 Crs
614 568 Crs
614 568 Crs
614 568 Crs
614 568 Crs
614 568 Crs
614 568 Crs
614 568 Crs
614 568 Crs
614 568 Crs
614 568 Crs
614 568 Crs
614 568 Crs
614 568 Crs
614 568 Crs
614 568 Crs
614 568 Crs
614 568 Crs
614 568 Crs
614 568 Crs
614 568 Crs
614 568 Crs
614 568 Crs
614 568 Crs
614 568 Crs
614 568 Crs
614 568 Crs
614 568 Crs
614 568 Crs
614 568 Crs
614 568 Crs
614 568 Crs
614 568 Crs
614 568 Crs
614 568 Crs
614 568 Crs
614 568 Crs
614 568 Crs
614 568 Crs
614 568 Crs
614 568 Crs
614 568 Crs
614 568 Crs
614 568 Crs
614 568 Crs
614 568 Crs
614 568 Crs
614 568 Crs
614 568 Crs
614 568 Crs
614 568 Crs
614 568 Crs
614 568 Crs
614 568 Crs
614 568 Crs
614 568 Crs
614 568 Crs
614 568 Crs
614 568 Crs
614 568 Crs
614 568 Crs
614 568 Crs
614 568 Crs
614 568 Crs
614 568 Crs
614 568 Crs
614 568 Crs
614 568 Crs
614 568 Crs
614 568 Crs
614 568 Crs
614 568 Crs
614 568 Crs
614 568 Crs
614 568 Crs
614 568 Crs
614 568 Crs
614 568 Crs
614 568 Crs
614 568 Crs
614 568 Crs
614 568 Crs
614 568 Crs
614 568 Crs
614 568 Crs
614 568 Crs
614 568 Crs
614 568 Crs
614 568 Crs
614 568 Crs
614 568 Crs
614 568 Crs
614 568 Crs
614 568 Crs
614 568 Crs
614 568 Crs
614 568 Crs
614 568 Crs
614 568 Crs
614 568 Crs
614 568 Crs
614 568 Crs
614 568 Crs
614 568 Crs
614 568 Crs
614 568 Crs
614 568 Crs
614 568 Crs
614 568 Crs
614 568 Crs
614 568 Crs
614 568 Crs
614 568 Crs
614 568 Crs
614 568 Crs
614 568 Crs
614 568 Crs
614 568 Crs
614 568 Crs
614 568 Crs
614 568 Crs
614 568 Crs
614 568 Crs
614 568 Crs
614 568 Crs
614 568 Crs
614 568 Crs
614 568 Crs
614 568 Crs
614 568 Crs
614 568 Crs
614 568 Crs
614 568 Crs
614 568 Crs
614 568 Crs
614 568 Crs
614 568 Crs
614 568 Crs
614 568 Crs
614 568 Crs
614 568 Crs
614 568 Crs
614 568 Crs
614 568 Crs
614 568 Crs
614 568 Crs
614 568 Crs
614 568 Crs
614 568 Crs
614 568 Crs
614 568 Crs
614 568 Crs
614 568 Crs
614 568 Crs
614 568 Crs
614 568 Crs
614 568 Crs
614 568 Crs
614 568 Crs
6579 4598 Crs
% End plot #2
1.000 UL
LTb
546 4871 N
546 280 L
6401 0 V
0 4591 V
-6401 0 V
Z stroke
1.000 UP
1.000 UL
LTb
stroke
grestore
end
showpage
%%Trailer
%%DocumentFonts: Helvetica
