%!PS-Adobe-2.0 EPSF-2.0
%%Title: Sumas.eps
%%Creator: gnuplot 4.6 patchlevel 0
%%CreationDate: Tue Oct  8 11:07:15 2013
%%DocumentFonts: (atend)
%%BoundingBox: 50 50 410 302
%%EndComments
%%BeginProlog
/gnudict 256 dict def
gnudict begin
%
% The following true/false flags may be edited by hand if desired.
% The unit line width and grayscale image gamma correction may also be changed.
%
/Color true def
/Blacktext false def
/Solid false def
/Dashlength 1 def
/Landscape false def
/Level1 false def
/Rounded false def
/ClipToBoundingBox false def
/SuppressPDFMark false def
/TransparentPatterns false def
/gnulinewidth 5.000 def
/userlinewidth gnulinewidth def
/Gamma 1.0 def
/BackgroundColor {-1.000 -1.000 -1.000} def
%
/vshift -46 def
/dl1 {
  10.0 Dashlength mul mul
  Rounded { currentlinewidth 0.75 mul sub dup 0 le { pop 0.01 } if } if
} def
/dl2 {
  10.0 Dashlength mul mul
  Rounded { currentlinewidth 0.75 mul add } if
} def
/hpt_ 31.5 def
/vpt_ 31.5 def
/hpt hpt_ def
/vpt vpt_ def
/doclip {
  ClipToBoundingBox {
    newpath 50 50 moveto 410 50 lineto 410 302 lineto 50 302 lineto closepath
    clip
  } if
} def
%
% Gnuplot Prolog Version 4.4 (August 2010)
%
%/SuppressPDFMark true def
%
/M {moveto} bind def
/L {lineto} bind def
/R {rmoveto} bind def
/V {rlineto} bind def
/N {newpath moveto} bind def
/Z {closepath} bind def
/C {setrgbcolor} bind def
/f {rlineto fill} bind def
/g {setgray} bind def
/Gshow {show} def   % May be redefined later in the file to support UTF-8
/vpt2 vpt 2 mul def
/hpt2 hpt 2 mul def
/Lshow {currentpoint stroke M 0 vshift R 
	Blacktext {gsave 0 setgray show grestore} {show} ifelse} def
/Rshow {currentpoint stroke M dup stringwidth pop neg vshift R
	Blacktext {gsave 0 setgray show grestore} {show} ifelse} def
/Cshow {currentpoint stroke M dup stringwidth pop -2 div vshift R 
	Blacktext {gsave 0 setgray show grestore} {show} ifelse} def
/UP {dup vpt_ mul /vpt exch def hpt_ mul /hpt exch def
  /hpt2 hpt 2 mul def /vpt2 vpt 2 mul def} def
/DL {Color {setrgbcolor Solid {pop []} if 0 setdash}
 {pop pop pop 0 setgray Solid {pop []} if 0 setdash} ifelse} def
/BL {stroke userlinewidth 2 mul setlinewidth
	Rounded {1 setlinejoin 1 setlinecap} if} def
/AL {stroke userlinewidth 2 div setlinewidth
	Rounded {1 setlinejoin 1 setlinecap} if} def
/UL {dup gnulinewidth mul /userlinewidth exch def
	dup 1 lt {pop 1} if 10 mul /udl exch def} def
/PL {stroke userlinewidth setlinewidth
	Rounded {1 setlinejoin 1 setlinecap} if} def
3.8 setmiterlimit
% Default Line colors
/LCw {1 1 1} def
/LCb {0 0 0} def
/LCa {0 0 0} def
/LC0 {1 0 0} def
/LC1 {0 1 0} def
/LC2 {0 0 1} def
/LC3 {1 0 1} def
/LC4 {0 1 1} def
/LC5 {1 1 0} def
/LC6 {0 0 0} def
/LC7 {1 0.3 0} def
/LC8 {0.5 0.5 0.5} def
% Default Line Types
/LTw {PL [] 1 setgray} def
/LTb {BL [] LCb DL} def
/LTa {AL [1 udl mul 2 udl mul] 0 setdash LCa setrgbcolor} def
/LT0 {PL [] LC0 DL} def
/LT1 {PL [4 dl1 2 dl2] LC1 DL} def
/LT2 {PL [2 dl1 3 dl2] LC2 DL} def
/LT3 {PL [1 dl1 1.5 dl2] LC3 DL} def
/LT4 {PL [6 dl1 2 dl2 1 dl1 2 dl2] LC4 DL} def
/LT5 {PL [3 dl1 3 dl2 1 dl1 3 dl2] LC5 DL} def
/LT6 {PL [2 dl1 2 dl2 2 dl1 6 dl2] LC6 DL} def
/LT7 {PL [1 dl1 2 dl2 6 dl1 2 dl2 1 dl1 2 dl2] LC7 DL} def
/LT8 {PL [2 dl1 2 dl2 2 dl1 2 dl2 2 dl1 2 dl2 2 dl1 4 dl2] LC8 DL} def
/Pnt {stroke [] 0 setdash gsave 1 setlinecap M 0 0 V stroke grestore} def
/Dia {stroke [] 0 setdash 2 copy vpt add M
  hpt neg vpt neg V hpt vpt neg V
  hpt vpt V hpt neg vpt V closepath stroke
  Pnt} def
/Pls {stroke [] 0 setdash vpt sub M 0 vpt2 V
  currentpoint stroke M
  hpt neg vpt neg R hpt2 0 V stroke
 } def
/Box {stroke [] 0 setdash 2 copy exch hpt sub exch vpt add M
  0 vpt2 neg V hpt2 0 V 0 vpt2 V
  hpt2 neg 0 V closepath stroke
  Pnt} def
/Crs {stroke [] 0 setdash exch hpt sub exch vpt add M
  hpt2 vpt2 neg V currentpoint stroke M
  hpt2 neg 0 R hpt2 vpt2 V stroke} def
/TriU {stroke [] 0 setdash 2 copy vpt 1.12 mul add M
  hpt neg vpt -1.62 mul V
  hpt 2 mul 0 V
  hpt neg vpt 1.62 mul V closepath stroke
  Pnt} def
/Star {2 copy Pls Crs} def
/BoxF {stroke [] 0 setdash exch hpt sub exch vpt add M
  0 vpt2 neg V hpt2 0 V 0 vpt2 V
  hpt2 neg 0 V closepath fill} def
/TriUF {stroke [] 0 setdash vpt 1.12 mul add M
  hpt neg vpt -1.62 mul V
  hpt 2 mul 0 V
  hpt neg vpt 1.62 mul V closepath fill} def
/TriD {stroke [] 0 setdash 2 copy vpt 1.12 mul sub M
  hpt neg vpt 1.62 mul V
  hpt 2 mul 0 V
  hpt neg vpt -1.62 mul V closepath stroke
  Pnt} def
/TriDF {stroke [] 0 setdash vpt 1.12 mul sub M
  hpt neg vpt 1.62 mul V
  hpt 2 mul 0 V
  hpt neg vpt -1.62 mul V closepath fill} def
/DiaF {stroke [] 0 setdash vpt add M
  hpt neg vpt neg V hpt vpt neg V
  hpt vpt V hpt neg vpt V closepath fill} def
/Pent {stroke [] 0 setdash 2 copy gsave
  translate 0 hpt M 4 {72 rotate 0 hpt L} repeat
  closepath stroke grestore Pnt} def
/PentF {stroke [] 0 setdash gsave
  translate 0 hpt M 4 {72 rotate 0 hpt L} repeat
  closepath fill grestore} def
/Circle {stroke [] 0 setdash 2 copy
  hpt 0 360 arc stroke Pnt} def
/CircleF {stroke [] 0 setdash hpt 0 360 arc fill} def
/C0 {BL [] 0 setdash 2 copy moveto vpt 90 450 arc} bind def
/C1 {BL [] 0 setdash 2 copy moveto
	2 copy vpt 0 90 arc closepath fill
	vpt 0 360 arc closepath} bind def
/C2 {BL [] 0 setdash 2 copy moveto
	2 copy vpt 90 180 arc closepath fill
	vpt 0 360 arc closepath} bind def
/C3 {BL [] 0 setdash 2 copy moveto
	2 copy vpt 0 180 arc closepath fill
	vpt 0 360 arc closepath} bind def
/C4 {BL [] 0 setdash 2 copy moveto
	2 copy vpt 180 270 arc closepath fill
	vpt 0 360 arc closepath} bind def
/C5 {BL [] 0 setdash 2 copy moveto
	2 copy vpt 0 90 arc
	2 copy moveto
	2 copy vpt 180 270 arc closepath fill
	vpt 0 360 arc} bind def
/C6 {BL [] 0 setdash 2 copy moveto
	2 copy vpt 90 270 arc closepath fill
	vpt 0 360 arc closepath} bind def
/C7 {BL [] 0 setdash 2 copy moveto
	2 copy vpt 0 270 arc closepath fill
	vpt 0 360 arc closepath} bind def
/C8 {BL [] 0 setdash 2 copy moveto
	2 copy vpt 270 360 arc closepath fill
	vpt 0 360 arc closepath} bind def
/C9 {BL [] 0 setdash 2 copy moveto
	2 copy vpt 270 450 arc closepath fill
	vpt 0 360 arc closepath} bind def
/C10 {BL [] 0 setdash 2 copy 2 copy moveto vpt 270 360 arc closepath fill
	2 copy moveto
	2 copy vpt 90 180 arc closepath fill
	vpt 0 360 arc closepath} bind def
/C11 {BL [] 0 setdash 2 copy moveto
	2 copy vpt 0 180 arc closepath fill
	2 copy moveto
	2 copy vpt 270 360 arc closepath fill
	vpt 0 360 arc closepath} bind def
/C12 {BL [] 0 setdash 2 copy moveto
	2 copy vpt 180 360 arc closepath fill
	vpt 0 360 arc closepath} bind def
/C13 {BL [] 0 setdash 2 copy moveto
	2 copy vpt 0 90 arc closepath fill
	2 copy moveto
	2 copy vpt 180 360 arc closepath fill
	vpt 0 360 arc closepath} bind def
/C14 {BL [] 0 setdash 2 copy moveto
	2 copy vpt 90 360 arc closepath fill
	vpt 0 360 arc} bind def
/C15 {BL [] 0 setdash 2 copy vpt 0 360 arc closepath fill
	vpt 0 360 arc closepath} bind def
/Rec {newpath 4 2 roll moveto 1 index 0 rlineto 0 exch rlineto
	neg 0 rlineto closepath} bind def
/Square {dup Rec} bind def
/Bsquare {vpt sub exch vpt sub exch vpt2 Square} bind def
/S0 {BL [] 0 setdash 2 copy moveto 0 vpt rlineto BL Bsquare} bind def
/S1 {BL [] 0 setdash 2 copy vpt Square fill Bsquare} bind def
/S2 {BL [] 0 setdash 2 copy exch vpt sub exch vpt Square fill Bsquare} bind def
/S3 {BL [] 0 setdash 2 copy exch vpt sub exch vpt2 vpt Rec fill Bsquare} bind def
/S4 {BL [] 0 setdash 2 copy exch vpt sub exch vpt sub vpt Square fill Bsquare} bind def
/S5 {BL [] 0 setdash 2 copy 2 copy vpt Square fill
	exch vpt sub exch vpt sub vpt Square fill Bsquare} bind def
/S6 {BL [] 0 setdash 2 copy exch vpt sub exch vpt sub vpt vpt2 Rec fill Bsquare} bind def
/S7 {BL [] 0 setdash 2 copy exch vpt sub exch vpt sub vpt vpt2 Rec fill
	2 copy vpt Square fill Bsquare} bind def
/S8 {BL [] 0 setdash 2 copy vpt sub vpt Square fill Bsquare} bind def
/S9 {BL [] 0 setdash 2 copy vpt sub vpt vpt2 Rec fill Bsquare} bind def
/S10 {BL [] 0 setdash 2 copy vpt sub vpt Square fill 2 copy exch vpt sub exch vpt Square fill
	Bsquare} bind def
/S11 {BL [] 0 setdash 2 copy vpt sub vpt Square fill 2 copy exch vpt sub exch vpt2 vpt Rec fill
	Bsquare} bind def
/S12 {BL [] 0 setdash 2 copy exch vpt sub exch vpt sub vpt2 vpt Rec fill Bsquare} bind def
/S13 {BL [] 0 setdash 2 copy exch vpt sub exch vpt sub vpt2 vpt Rec fill
	2 copy vpt Square fill Bsquare} bind def
/S14 {BL [] 0 setdash 2 copy exch vpt sub exch vpt sub vpt2 vpt Rec fill
	2 copy exch vpt sub exch vpt Square fill Bsquare} bind def
/S15 {BL [] 0 setdash 2 copy Bsquare fill Bsquare} bind def
/D0 {gsave translate 45 rotate 0 0 S0 stroke grestore} bind def
/D1 {gsave translate 45 rotate 0 0 S1 stroke grestore} bind def
/D2 {gsave translate 45 rotate 0 0 S2 stroke grestore} bind def
/D3 {gsave translate 45 rotate 0 0 S3 stroke grestore} bind def
/D4 {gsave translate 45 rotate 0 0 S4 stroke grestore} bind def
/D5 {gsave translate 45 rotate 0 0 S5 stroke grestore} bind def
/D6 {gsave translate 45 rotate 0 0 S6 stroke grestore} bind def
/D7 {gsave translate 45 rotate 0 0 S7 stroke grestore} bind def
/D8 {gsave translate 45 rotate 0 0 S8 stroke grestore} bind def
/D9 {gsave translate 45 rotate 0 0 S9 stroke grestore} bind def
/D10 {gsave translate 45 rotate 0 0 S10 stroke grestore} bind def
/D11 {gsave translate 45 rotate 0 0 S11 stroke grestore} bind def
/D12 {gsave translate 45 rotate 0 0 S12 stroke grestore} bind def
/D13 {gsave translate 45 rotate 0 0 S13 stroke grestore} bind def
/D14 {gsave translate 45 rotate 0 0 S14 stroke grestore} bind def
/D15 {gsave translate 45 rotate 0 0 S15 stroke grestore} bind def
/DiaE {stroke [] 0 setdash vpt add M
  hpt neg vpt neg V hpt vpt neg V
  hpt vpt V hpt neg vpt V closepath stroke} def
/BoxE {stroke [] 0 setdash exch hpt sub exch vpt add M
  0 vpt2 neg V hpt2 0 V 0 vpt2 V
  hpt2 neg 0 V closepath stroke} def
/TriUE {stroke [] 0 setdash vpt 1.12 mul add M
  hpt neg vpt -1.62 mul V
  hpt 2 mul 0 V
  hpt neg vpt 1.62 mul V closepath stroke} def
/TriDE {stroke [] 0 setdash vpt 1.12 mul sub M
  hpt neg vpt 1.62 mul V
  hpt 2 mul 0 V
  hpt neg vpt -1.62 mul V closepath stroke} def
/PentE {stroke [] 0 setdash gsave
  translate 0 hpt M 4 {72 rotate 0 hpt L} repeat
  closepath stroke grestore} def
/CircE {stroke [] 0 setdash 
  hpt 0 360 arc stroke} def
/Opaque {gsave closepath 1 setgray fill grestore 0 setgray closepath} def
/DiaW {stroke [] 0 setdash vpt add M
  hpt neg vpt neg V hpt vpt neg V
  hpt vpt V hpt neg vpt V Opaque stroke} def
/BoxW {stroke [] 0 setdash exch hpt sub exch vpt add M
  0 vpt2 neg V hpt2 0 V 0 vpt2 V
  hpt2 neg 0 V Opaque stroke} def
/TriUW {stroke [] 0 setdash vpt 1.12 mul add M
  hpt neg vpt -1.62 mul V
  hpt 2 mul 0 V
  hpt neg vpt 1.62 mul V Opaque stroke} def
/TriDW {stroke [] 0 setdash vpt 1.12 mul sub M
  hpt neg vpt 1.62 mul V
  hpt 2 mul 0 V
  hpt neg vpt -1.62 mul V Opaque stroke} def
/PentW {stroke [] 0 setdash gsave
  translate 0 hpt M 4 {72 rotate 0 hpt L} repeat
  Opaque stroke grestore} def
/CircW {stroke [] 0 setdash 
  hpt 0 360 arc Opaque stroke} def
/BoxFill {gsave Rec 1 setgray fill grestore} def
/Density {
  /Fillden exch def
  currentrgbcolor
  /ColB exch def /ColG exch def /ColR exch def
  /ColR ColR Fillden mul Fillden sub 1 add def
  /ColG ColG Fillden mul Fillden sub 1 add def
  /ColB ColB Fillden mul Fillden sub 1 add def
  ColR ColG ColB setrgbcolor} def
/BoxColFill {gsave Rec PolyFill} def
/PolyFill {gsave Density fill grestore grestore} def
/h {rlineto rlineto rlineto gsave closepath fill grestore} bind def
%
% PostScript Level 1 Pattern Fill routine for rectangles
% Usage: x y w h s a XX PatternFill
%	x,y = lower left corner of box to be filled
%	w,h = width and height of box
%	  a = angle in degrees between lines and x-axis
%	 XX = 0/1 for no/yes cross-hatch
%
/PatternFill {gsave /PFa [ 9 2 roll ] def
  PFa 0 get PFa 2 get 2 div add PFa 1 get PFa 3 get 2 div add translate
  PFa 2 get -2 div PFa 3 get -2 div PFa 2 get PFa 3 get Rec
  gsave 1 setgray fill grestore clip
  currentlinewidth 0.5 mul setlinewidth
  /PFs PFa 2 get dup mul PFa 3 get dup mul add sqrt def
  0 0 M PFa 5 get rotate PFs -2 div dup translate
  0 1 PFs PFa 4 get div 1 add floor cvi
	{PFa 4 get mul 0 M 0 PFs V} for
  0 PFa 6 get ne {
	0 1 PFs PFa 4 get div 1 add floor cvi
	{PFa 4 get mul 0 2 1 roll M PFs 0 V} for
 } if
  stroke grestore} def
%
/languagelevel where
 {pop languagelevel} {1} ifelse
 2 lt
	{/InterpretLevel1 true def}
	{/InterpretLevel1 Level1 def}
 ifelse
%
% PostScript level 2 pattern fill definitions
%
/Level2PatternFill {
/Tile8x8 {/PaintType 2 /PatternType 1 /TilingType 1 /BBox [0 0 8 8] /XStep 8 /YStep 8}
	bind def
/KeepColor {currentrgbcolor [/Pattern /DeviceRGB] setcolorspace} bind def
<< Tile8x8
 /PaintProc {0.5 setlinewidth pop 0 0 M 8 8 L 0 8 M 8 0 L stroke} 
>> matrix makepattern
/Pat1 exch def
<< Tile8x8
 /PaintProc {0.5 setlinewidth pop 0 0 M 8 8 L 0 8 M 8 0 L stroke
	0 4 M 4 8 L 8 4 L 4 0 L 0 4 L stroke}
>> matrix makepattern
/Pat2 exch def
<< Tile8x8
 /PaintProc {0.5 setlinewidth pop 0 0 M 0 8 L
	8 8 L 8 0 L 0 0 L fill}
>> matrix makepattern
/Pat3 exch def
<< Tile8x8
 /PaintProc {0.5 setlinewidth pop -4 8 M 8 -4 L
	0 12 M 12 0 L stroke}
>> matrix makepattern
/Pat4 exch def
<< Tile8x8
 /PaintProc {0.5 setlinewidth pop -4 0 M 8 12 L
	0 -4 M 12 8 L stroke}
>> matrix makepattern
/Pat5 exch def
<< Tile8x8
 /PaintProc {0.5 setlinewidth pop -2 8 M 4 -4 L
	0 12 M 8 -4 L 4 12 M 10 0 L stroke}
>> matrix makepattern
/Pat6 exch def
<< Tile8x8
 /PaintProc {0.5 setlinewidth pop -2 0 M 4 12 L
	0 -4 M 8 12 L 4 -4 M 10 8 L stroke}
>> matrix makepattern
/Pat7 exch def
<< Tile8x8
 /PaintProc {0.5 setlinewidth pop 8 -2 M -4 4 L
	12 0 M -4 8 L 12 4 M 0 10 L stroke}
>> matrix makepattern
/Pat8 exch def
<< Tile8x8
 /PaintProc {0.5 setlinewidth pop 0 -2 M 12 4 L
	-4 0 M 12 8 L -4 4 M 8 10 L stroke}
>> matrix makepattern
/Pat9 exch def
/Pattern1 {PatternBgnd KeepColor Pat1 setpattern} bind def
/Pattern2 {PatternBgnd KeepColor Pat2 setpattern} bind def
/Pattern3 {PatternBgnd KeepColor Pat3 setpattern} bind def
/Pattern4 {PatternBgnd KeepColor Landscape {Pat5} {Pat4} ifelse setpattern} bind def
/Pattern5 {PatternBgnd KeepColor Landscape {Pat4} {Pat5} ifelse setpattern} bind def
/Pattern6 {PatternBgnd KeepColor Landscape {Pat9} {Pat6} ifelse setpattern} bind def
/Pattern7 {PatternBgnd KeepColor Landscape {Pat8} {Pat7} ifelse setpattern} bind def
} def
%
%
%End of PostScript Level 2 code
%
/PatternBgnd {
  TransparentPatterns {} {gsave 1 setgray fill grestore} ifelse
} def
%
% Substitute for Level 2 pattern fill codes with
% grayscale if Level 2 support is not selected.
%
/Level1PatternFill {
/Pattern1 {0.250 Density} bind def
/Pattern2 {0.500 Density} bind def
/Pattern3 {0.750 Density} bind def
/Pattern4 {0.125 Density} bind def
/Pattern5 {0.375 Density} bind def
/Pattern6 {0.625 Density} bind def
/Pattern7 {0.875 Density} bind def
} def
%
% Now test for support of Level 2 code
%
Level1 {Level1PatternFill} {Level2PatternFill} ifelse
%
/Symbol-Oblique /Symbol findfont [1 0 .167 1 0 0] makefont
dup length dict begin {1 index /FID eq {pop pop} {def} ifelse} forall
currentdict end definefont pop
/MFshow {
   { dup 5 get 3 ge
     { 5 get 3 eq {gsave} {grestore} ifelse }
     {dup dup 0 get findfont exch 1 get scalefont setfont
     [ currentpoint ] exch dup 2 get 0 exch R dup 5 get 2 ne {dup dup 6
     get exch 4 get {Gshow} {stringwidth pop 0 R} ifelse }if dup 5 get 0 eq
     {dup 3 get {2 get neg 0 exch R pop} {pop aload pop M} ifelse} {dup 5
     get 1 eq {dup 2 get exch dup 3 get exch 6 get stringwidth pop -2 div
     dup 0 R} {dup 6 get stringwidth pop -2 div 0 R 6 get
     show 2 index {aload pop M neg 3 -1 roll neg R pop pop} {pop pop pop
     pop aload pop M} ifelse }ifelse }ifelse }
     ifelse }
   forall} def
/Gswidth {dup type /stringtype eq {stringwidth} {pop (n) stringwidth} ifelse} def
/MFwidth {0 exch { dup 5 get 3 ge { 5 get 3 eq { 0 } { pop } ifelse }
 {dup 3 get{dup dup 0 get findfont exch 1 get scalefont setfont
     6 get Gswidth pop add} {pop} ifelse} ifelse} forall} def
/MLshow { currentpoint stroke M
  0 exch R
  Blacktext {gsave 0 setgray MFshow grestore} {MFshow} ifelse } bind def
/MRshow { currentpoint stroke M
  exch dup MFwidth neg 3 -1 roll R
  Blacktext {gsave 0 setgray MFshow grestore} {MFshow} ifelse } bind def
/MCshow { currentpoint stroke M
  exch dup MFwidth -2 div 3 -1 roll R
  Blacktext {gsave 0 setgray MFshow grestore} {MFshow} ifelse } bind def
/XYsave    { [( ) 1 2 true false 3 ()] } bind def
/XYrestore { [( ) 1 2 true false 4 ()] } bind def
Level1 SuppressPDFMark or 
{} {
/SDict 10 dict def
systemdict /pdfmark known not {
  userdict /pdfmark systemdict /cleartomark get put
} if
SDict begin [
  /Title (Sumas.eps)
  /Subject (gnuplot plot)
  /Creator (gnuplot 4.6 patchlevel 0)
  /Author (joagonzalezve)
%  /Producer (gnuplot)
%  /Keywords ()
  /CreationDate (Tue Oct  8 11:07:15 2013)
  /DOCINFO pdfmark
end
} ifelse
end
%%EndProlog
%%Page: 1 1
gnudict begin
gsave
doclip
50 50 translate
0.050 0.050 scale
0 setgray
newpath
(Helvetica) findfont 140 scalefont setfont
BackgroundColor 0 lt 3 1 roll 0 lt exch 0 lt or or not {BackgroundColor C 1.000 0 0 7200.00 5040.00 BoxColFill} if
1.000 UL
LTb
630 280 M
63 0 V
6254 0 R
-63 0 V
stroke
546 280 M
[ [(Helvetica) 140.0 0.0 true true 0 ( 0.16)]
] -46.7 MRshow
1.000 UL
LTb
630 854 M
63 0 V
6254 0 R
-63 0 V
stroke
546 854 M
[ [(Helvetica) 140.0 0.0 true true 0 ( 0.18)]
] -46.7 MRshow
1.000 UL
LTb
630 1428 M
63 0 V
6254 0 R
-63 0 V
stroke
546 1428 M
[ [(Helvetica) 140.0 0.0 true true 0 ( 0.2)]
] -46.7 MRshow
1.000 UL
LTb
630 2002 M
63 0 V
6254 0 R
-63 0 V
stroke
546 2002 M
[ [(Helvetica) 140.0 0.0 true true 0 ( 0.22)]
] -46.7 MRshow
1.000 UL
LTb
630 2576 M
63 0 V
6254 0 R
-63 0 V
stroke
546 2576 M
[ [(Helvetica) 140.0 0.0 true true 0 ( 0.24)]
] -46.7 MRshow
1.000 UL
LTb
630 3149 M
63 0 V
6254 0 R
-63 0 V
stroke
546 3149 M
[ [(Helvetica) 140.0 0.0 true true 0 ( 0.26)]
] -46.7 MRshow
1.000 UL
LTb
630 3723 M
63 0 V
6254 0 R
-63 0 V
stroke
546 3723 M
[ [(Helvetica) 140.0 0.0 true true 0 ( 0.28)]
] -46.7 MRshow
1.000 UL
LTb
630 4297 M
63 0 V
6254 0 R
-63 0 V
stroke
546 4297 M
[ [(Helvetica) 140.0 0.0 true true 0 ( 0.3)]
] -46.7 MRshow
1.000 UL
LTb
630 4871 M
63 0 V
6254 0 R
-63 0 V
stroke
546 4871 M
[ [(Helvetica) 140.0 0.0 true true 0 ( 0.32)]
] -46.7 MRshow
1.000 UL
LTb
630 280 M
0 63 V
0 4528 R
0 -63 V
stroke
630 140 M
[ [(Helvetica) 140.0 0.0 true true 0 ( 0)]
] -46.7 MCshow
1.000 UL
LTb
1262 280 M
0 63 V
0 4528 R
0 -63 V
stroke
1262 140 M
[ [(Helvetica) 140.0 0.0 true true 0 ( 100)]
] -46.7 MCshow
1.000 UL
LTb
1893 280 M
0 63 V
0 4528 R
0 -63 V
stroke
1893 140 M
[ [(Helvetica) 140.0 0.0 true true 0 ( 200)]
] -46.7 MCshow
1.000 UL
LTb
2525 280 M
0 63 V
0 4528 R
0 -63 V
stroke
2525 140 M
[ [(Helvetica) 140.0 0.0 true true 0 ( 300)]
] -46.7 MCshow
1.000 UL
LTb
3157 280 M
0 63 V
0 4528 R
0 -63 V
stroke
3157 140 M
[ [(Helvetica) 140.0 0.0 true true 0 ( 400)]
] -46.7 MCshow
1.000 UL
LTb
3789 280 M
0 63 V
0 4528 R
0 -63 V
stroke
3789 140 M
[ [(Helvetica) 140.0 0.0 true true 0 ( 500)]
] -46.7 MCshow
1.000 UL
LTb
4420 280 M
0 63 V
0 4528 R
0 -63 V
stroke
4420 140 M
[ [(Helvetica) 140.0 0.0 true true 0 ( 600)]
] -46.7 MCshow
1.000 UL
LTb
5052 280 M
0 63 V
0 4528 R
0 -63 V
stroke
5052 140 M
[ [(Helvetica) 140.0 0.0 true true 0 ( 700)]
] -46.7 MCshow
1.000 UL
LTb
5684 280 M
0 63 V
0 4528 R
0 -63 V
stroke
5684 140 M
[ [(Helvetica) 140.0 0.0 true true 0 ( 800)]
] -46.7 MCshow
1.000 UL
LTb
6315 280 M
0 63 V
0 4528 R
0 -63 V
stroke
6315 140 M
[ [(Helvetica) 140.0 0.0 true true 0 ( 900)]
] -46.7 MCshow
1.000 UL
LTb
6947 280 M
0 63 V
0 4528 R
0 -63 V
stroke
6947 140 M
[ [(Helvetica) 140.0 0.0 true true 0 ( 1000)]
] -46.7 MCshow
1.000 UL
LTb
1.000 UL
LTb
630 4871 N
630 280 L
6317 0 V
0 4591 V
-6317 0 V
Z stroke
1.000 UP
1.000 UL
LTb
% Begin plot #1
1.000 UP
1.000 UL
LT0
LCb setrgbcolor
6296 4738 M
[ [(Helvetica) 140.0 0.0 true true 0 (Suma1)]
] -46.7 MRshow
LT0
636 471 Pls
643 1906 Pls
649 2589 Pls
655 2988 Pls
662 3249 Pls
668 3432 Pls
674 3569 Pls
681 3675 Pls
687 3759 Pls
693 3827 Pls
699 3884 Pls
706 3931 Pls
712 3972 Pls
718 4008 Pls
725 4038 Pls
731 4066 Pls
737 4090 Pls
744 4111 Pls
750 4131 Pls
756 4148 Pls
763 4164 Pls
769 4178 Pls
775 4192 Pls
782 4204 Pls
788 4215 Pls
794 4226 Pls
801 4235 Pls
807 4244 Pls
813 4253 Pls
820 4260 Pls
826 4268 Pls
832 4275 Pls
838 4281 Pls
845 4287 Pls
851 4293 Pls
857 4299 Pls
864 4304 Pls
870 4309 Pls
876 4313 Pls
883 4318 Pls
889 4322 Pls
895 4326 Pls
902 4330 Pls
908 4333 Pls
914 4337 Pls
921 4340 Pls
927 4344 Pls
933 4347 Pls
940 4350 Pls
946 4352 Pls
952 4355 Pls
958 4358 Pls
965 4360 Pls
971 4363 Pls
977 4365 Pls
984 4367 Pls
990 4370 Pls
996 4372 Pls
1003 4374 Pls
1009 4376 Pls
1015 4378 Pls
1022 4379 Pls
1028 4381 Pls
1034 4383 Pls
1041 4385 Pls
1047 4386 Pls
1053 4388 Pls
1060 4389 Pls
1066 4391 Pls
1072 4392 Pls
1079 4394 Pls
1085 4395 Pls
1091 4396 Pls
1097 4398 Pls
1104 4399 Pls
1110 4400 Pls
1116 4401 Pls
1123 4403 Pls
1129 4404 Pls
1135 4405 Pls
1142 4406 Pls
1148 4407 Pls
1154 4408 Pls
1161 4409 Pls
1167 4410 Pls
1173 4411 Pls
1180 4412 Pls
1186 4413 Pls
1192 4414 Pls
1199 4415 Pls
1205 4416 Pls
1211 4416 Pls
1217 4417 Pls
1224 4418 Pls
1230 4419 Pls
1236 4420 Pls
1243 4420 Pls
1249 4421 Pls
1255 4422 Pls
1262 4423 Pls
1268 4423 Pls
1274 4424 Pls
1281 4425 Pls
1287 4425 Pls
1293 4426 Pls
1300 4427 Pls
1306 4427 Pls
1312 4428 Pls
1319 4428 Pls
1325 4429 Pls
1331 4430 Pls
1338 4430 Pls
1344 4431 Pls
1350 4431 Pls
1356 4432 Pls
1363 4432 Pls
1369 4433 Pls
1375 4433 Pls
1382 4434 Pls
1388 4434 Pls
1394 4435 Pls
1401 4435 Pls
1407 4436 Pls
1413 4436 Pls
1420 4437 Pls
1426 4437 Pls
1432 4438 Pls
1439 4438 Pls
1445 4438 Pls
1451 4439 Pls
1458 4439 Pls
1464 4440 Pls
1470 4440 Pls
1476 4441 Pls
1483 4441 Pls
1489 4441 Pls
1495 4442 Pls
1502 4442 Pls
1508 4442 Pls
1514 4443 Pls
1521 4443 Pls
1527 4444 Pls
1533 4444 Pls
1540 4444 Pls
1546 4445 Pls
1552 4445 Pls
1559 4445 Pls
1565 4446 Pls
1571 4446 Pls
1578 4446 Pls
1584 4446 Pls
1590 4447 Pls
1597 4447 Pls
1603 4447 Pls
1609 4448 Pls
1615 4448 Pls
1622 4448 Pls
1628 4449 Pls
1634 4449 Pls
1641 4449 Pls
1647 4449 Pls
1653 4450 Pls
1660 4450 Pls
1666 4450 Pls
1672 4450 Pls
1679 4451 Pls
1685 4451 Pls
1691 4451 Pls
1698 4451 Pls
1704 4452 Pls
1710 4452 Pls
1717 4452 Pls
1723 4452 Pls
1729 4453 Pls
1735 4453 Pls
1742 4453 Pls
1748 4453 Pls
1754 4454 Pls
1761 4454 Pls
1767 4454 Pls
1773 4454 Pls
1780 4455 Pls
1786 4455 Pls
1792 4455 Pls
1799 4455 Pls
1805 4455 Pls
1811 4456 Pls
1818 4456 Pls
1824 4456 Pls
1830 4456 Pls
1837 4456 Pls
1843 4457 Pls
1849 4457 Pls
1855 4457 Pls
1862 4457 Pls
1868 4457 Pls
1874 4457 Pls
1881 4458 Pls
1887 4458 Pls
1893 4458 Pls
1900 4458 Pls
1906 4458 Pls
1912 4459 Pls
1919 4459 Pls
1925 4459 Pls
1931 4459 Pls
1938 4459 Pls
1944 4459 Pls
1950 4460 Pls
1957 4460 Pls
1963 4460 Pls
1969 4460 Pls
1976 4460 Pls
1982 4460 Pls
1988 4461 Pls
1994 4461 Pls
2001 4461 Pls
2007 4461 Pls
2013 4461 Pls
2020 4461 Pls
2026 4461 Pls
2032 4462 Pls
2039 4462 Pls
2045 4462 Pls
2051 4462 Pls
2058 4462 Pls
2064 4462 Pls
2070 4462 Pls
2077 4463 Pls
2083 4463 Pls
2089 4463 Pls
2096 4463 Pls
2102 4463 Pls
2108 4463 Pls
2114 4463 Pls
2121 4463 Pls
2127 4464 Pls
2133 4464 Pls
2140 4464 Pls
2146 4464 Pls
2152 4464 Pls
2159 4464 Pls
2165 4464 Pls
2171 4464 Pls
2178 4465 Pls
2184 4465 Pls
2190 4465 Pls
2197 4465 Pls
2203 4465 Pls
2209 4465 Pls
2216 4465 Pls
2222 4465 Pls
2228 4465 Pls
2235 4466 Pls
2241 4466 Pls
2247 4466 Pls
2253 4466 Pls
2260 4466 Pls
2266 4466 Pls
2272 4466 Pls
2279 4466 Pls
2285 4466 Pls
2291 4467 Pls
2298 4467 Pls
2304 4467 Pls
2310 4467 Pls
2317 4467 Pls
2323 4467 Pls
2329 4467 Pls
2336 4467 Pls
2342 4467 Pls
2348 4467 Pls
2355 4468 Pls
2361 4468 Pls
2367 4468 Pls
2373 4468 Pls
2380 4468 Pls
2386 4468 Pls
2392 4468 Pls
2399 4468 Pls
2405 4468 Pls
2411 4468 Pls
2418 4468 Pls
2424 4469 Pls
2430 4469 Pls
2437 4469 Pls
2443 4469 Pls
2449 4469 Pls
2456 4469 Pls
2462 4469 Pls
2468 4469 Pls
2475 4469 Pls
2481 4469 Pls
2487 4469 Pls
2494 4470 Pls
2500 4470 Pls
2506 4470 Pls
2512 4470 Pls
2519 4470 Pls
2525 4470 Pls
2531 4470 Pls
2538 4470 Pls
2544 4470 Pls
2550 4470 Pls
2557 4470 Pls
2563 4470 Pls
2569 4470 Pls
2576 4471 Pls
2582 4471 Pls
2588 4471 Pls
2595 4471 Pls
2601 4471 Pls
2607 4471 Pls
2614 4471 Pls
2620 4471 Pls
2626 4471 Pls
2632 4471 Pls
2639 4471 Pls
2645 4471 Pls
2651 4471 Pls
2658 4471 Pls
2664 4472 Pls
2670 4472 Pls
2677 4472 Pls
2683 4472 Pls
2689 4472 Pls
2696 4472 Pls
2702 4472 Pls
2708 4472 Pls
2715 4472 Pls
2721 4472 Pls
2727 4472 Pls
2734 4472 Pls
2740 4472 Pls
2746 4472 Pls
2753 4472 Pls
2759 4473 Pls
2765 4473 Pls
2771 4473 Pls
2778 4473 Pls
2784 4473 Pls
2790 4473 Pls
2797 4473 Pls
2803 4473 Pls
2809 4473 Pls
2816 4473 Pls
2822 4473 Pls
2828 4473 Pls
2835 4473 Pls
2841 4473 Pls
2847 4473 Pls
2854 4473 Pls
2860 4473 Pls
2866 4474 Pls
2873 4474 Pls
2879 4474 Pls
2885 4474 Pls
2891 4474 Pls
2898 4474 Pls
2904 4474 Pls
2910 4474 Pls
2917 4474 Pls
2923 4474 Pls
2929 4474 Pls
2936 4474 Pls
2942 4474 Pls
2948 4474 Pls
2955 4474 Pls
2961 4474 Pls
2967 4474 Pls
2974 4474 Pls
2980 4475 Pls
2986 4475 Pls
2993 4475 Pls
2999 4475 Pls
3005 4475 Pls
3012 4475 Pls
3018 4475 Pls
3024 4475 Pls
3030 4475 Pls
3037 4475 Pls
3043 4475 Pls
3049 4475 Pls
3056 4475 Pls
3062 4475 Pls
3068 4475 Pls
3075 4475 Pls
3081 4475 Pls
3087 4475 Pls
3094 4475 Pls
3100 4475 Pls
3106 4475 Pls
3113 4476 Pls
3119 4476 Pls
3125 4476 Pls
3132 4476 Pls
3138 4476 Pls
3144 4476 Pls
3150 4476 Pls
3157 4476 Pls
3163 4476 Pls
3169 4476 Pls
3176 4476 Pls
3182 4476 Pls
3188 4476 Pls
3195 4476 Pls
3201 4476 Pls
3207 4476 Pls
3214 4476 Pls
3220 4476 Pls
3226 4476 Pls
3233 4476 Pls
3239 4476 Pls
3245 4476 Pls
3252 4476 Pls
3258 4477 Pls
3264 4477 Pls
3271 4477 Pls
3277 4477 Pls
3283 4477 Pls
3289 4477 Pls
3296 4477 Pls
3302 4477 Pls
3308 4477 Pls
3315 4477 Pls
3321 4477 Pls
3327 4477 Pls
3334 4477 Pls
3340 4477 Pls
3346 4477 Pls
3353 4477 Pls
3359 4477 Pls
3365 4477 Pls
3372 4477 Pls
3378 4477 Pls
3384 4477 Pls
3391 4477 Pls
3397 4477 Pls
3403 4477 Pls
3409 4477 Pls
3416 4478 Pls
3422 4478 Pls
3428 4478 Pls
3435 4478 Pls
3441 4478 Pls
3447 4478 Pls
3454 4478 Pls
3460 4478 Pls
3466 4478 Pls
3473 4478 Pls
3479 4478 Pls
3485 4478 Pls
3492 4478 Pls
3498 4478 Pls
3504 4478 Pls
3511 4478 Pls
3517 4478 Pls
3523 4478 Pls
3530 4478 Pls
3536 4478 Pls
3542 4478 Pls
3548 4478 Pls
3555 4478 Pls
3561 4478 Pls
3567 4478 Pls
3574 4478 Pls
3580 4478 Pls
3586 4478 Pls
3593 4478 Pls
3599 4479 Pls
3605 4479 Pls
3612 4479 Pls
3618 4479 Pls
3624 4479 Pls
3631 4479 Pls
3637 4479 Pls
3643 4479 Pls
3650 4479 Pls
3656 4479 Pls
3662 4479 Pls
3668 4479 Pls
3675 4479 Pls
3681 4479 Pls
3687 4479 Pls
3694 4479 Pls
3700 4479 Pls
3706 4479 Pls
3713 4479 Pls
3719 4479 Pls
3725 4479 Pls
3732 4479 Pls
3738 4479 Pls
3744 4479 Pls
3751 4479 Pls
3757 4479 Pls
3763 4479 Pls
3770 4479 Pls
3776 4479 Pls
3782 4479 Pls
3789 4479 Pls
3795 4479 Pls
3801 4480 Pls
3807 4480 Pls
3814 4480 Pls
3820 4480 Pls
3826 4480 Pls
3833 4480 Pls
3839 4480 Pls
3845 4480 Pls
3852 4480 Pls
3858 4480 Pls
3864 4480 Pls
3871 4480 Pls
3877 4480 Pls
3883 4480 Pls
3890 4480 Pls
3896 4480 Pls
3902 4480 Pls
3909 4480 Pls
3915 4480 Pls
3921 4480 Pls
3927 4480 Pls
3934 4480 Pls
3940 4480 Pls
3946 4480 Pls
3953 4480 Pls
3959 4480 Pls
3965 4480 Pls
3972 4480 Pls
3978 4480 Pls
3984 4480 Pls
3991 4480 Pls
3997 4480 Pls
4003 4480 Pls
4010 4480 Pls
4016 4480 Pls
4022 4480 Pls
4029 4480 Pls
4035 4480 Pls
4041 4480 Pls
4047 4481 Pls
4054 4481 Pls
4060 4481 Pls
4066 4481 Pls
4073 4481 Pls
4079 4481 Pls
4085 4481 Pls
4092 4481 Pls
4098 4481 Pls
4104 4481 Pls
4111 4481 Pls
4117 4481 Pls
4123 4481 Pls
4130 4481 Pls
4136 4481 Pls
4142 4481 Pls
4149 4481 Pls
4155 4481 Pls
4161 4481 Pls
4168 4481 Pls
4174 4481 Pls
4180 4481 Pls
4186 4481 Pls
4193 4481 Pls
4199 4481 Pls
4205 4481 Pls
4212 4481 Pls
4218 4481 Pls
4224 4481 Pls
4231 4481 Pls
4237 4481 Pls
4243 4481 Pls
4250 4481 Pls
4256 4481 Pls
4262 4481 Pls
4269 4481 Pls
4275 4481 Pls
4281 4481 Pls
4288 4481 Pls
4294 4481 Pls
4300 4481 Pls
4306 4481 Pls
4313 4481 Pls
4319 4481 Pls
4325 4482 Pls
4332 4482 Pls
4338 4482 Pls
4344 4482 Pls
4351 4482 Pls
4357 4482 Pls
4363 4482 Pls
4370 4482 Pls
4376 4482 Pls
4382 4482 Pls
4389 4482 Pls
4395 4482 Pls
4401 4482 Pls
4408 4482 Pls
4414 4482 Pls
4420 4482 Pls
4427 4482 Pls
4433 4482 Pls
4439 4482 Pls
4445 4482 Pls
4452 4482 Pls
4458 4482 Pls
4464 4482 Pls
4471 4482 Pls
4477 4482 Pls
4483 4482 Pls
4490 4482 Pls
4496 4482 Pls
4502 4482 Pls
4509 4482 Pls
4515 4482 Pls
4521 4482 Pls
4528 4482 Pls
4534 4482 Pls
4540 4482 Pls
4547 4482 Pls
4553 4482 Pls
4559 4482 Pls
4565 4482 Pls
4572 4482 Pls
4578 4482 Pls
4584 4482 Pls
4591 4482 Pls
4597 4482 Pls
4603 4482 Pls
4610 4482 Pls
4616 4482 Pls
4622 4482 Pls
4629 4482 Pls
4635 4482 Pls
4641 4482 Pls
4648 4482 Pls
4654 4483 Pls
4660 4483 Pls
4667 4483 Pls
4673 4483 Pls
4679 4483 Pls
4686 4483 Pls
4692 4483 Pls
4698 4483 Pls
4704 4483 Pls
4711 4483 Pls
4717 4483 Pls
4723 4483 Pls
4730 4483 Pls
4736 4483 Pls
4742 4483 Pls
4749 4483 Pls
4755 4483 Pls
4761 4483 Pls
4768 4483 Pls
4774 4483 Pls
4780 4483 Pls
4787 4483 Pls
4793 4483 Pls
4799 4483 Pls
4806 4483 Pls
4812 4483 Pls
4818 4483 Pls
4824 4483 Pls
4831 4483 Pls
4837 4483 Pls
4843 4483 Pls
4850 4483 Pls
4856 4483 Pls
4862 4483 Pls
4869 4483 Pls
4875 4483 Pls
4881 4483 Pls
4888 4483 Pls
4894 4483 Pls
4900 4483 Pls
4907 4483 Pls
4913 4483 Pls
4919 4483 Pls
4926 4483 Pls
4932 4483 Pls
4938 4483 Pls
4945 4483 Pls
4951 4483 Pls
4957 4483 Pls
4963 4483 Pls
4970 4483 Pls
4976 4483 Pls
4982 4483 Pls
4989 4483 Pls
4995 4483 Pls
5001 4483 Pls
5008 4483 Pls
5014 4483 Pls
5020 4483 Pls
5027 4483 Pls
5033 4483 Pls
5039 4483 Pls
5046 4484 Pls
5052 4484 Pls
5058 4484 Pls
5065 4484 Pls
5071 4484 Pls
5077 4484 Pls
5083 4484 Pls
5090 4484 Pls
5096 4484 Pls
5102 4484 Pls
5109 4484 Pls
5115 4484 Pls
5121 4484 Pls
5128 4484 Pls
5134 4484 Pls
5140 4484 Pls
5147 4484 Pls
5153 4484 Pls
5159 4484 Pls
5166 4484 Pls
5172 4484 Pls
5178 4484 Pls
5185 4484 Pls
5191 4484 Pls
5197 4484 Pls
5204 4484 Pls
5210 4484 Pls
5216 4484 Pls
5222 4484 Pls
5229 4484 Pls
5235 4484 Pls
5241 4484 Pls
5248 4484 Pls
5254 4484 Pls
5260 4484 Pls
5267 4484 Pls
5273 4484 Pls
5279 4484 Pls
5286 4484 Pls
5292 4484 Pls
5298 4484 Pls
5305 4484 Pls
5311 4484 Pls
5317 4484 Pls
5324 4484 Pls
5330 4484 Pls
5336 4484 Pls
5342 4484 Pls
5349 4484 Pls
5355 4484 Pls
5361 4484 Pls
5368 4484 Pls
5374 4484 Pls
5380 4484 Pls
5387 4484 Pls
5393 4484 Pls
5399 4484 Pls
5406 4484 Pls
5412 4484 Pls
5418 4484 Pls
5425 4484 Pls
5431 4484 Pls
5437 4484 Pls
5444 4484 Pls
5450 4484 Pls
5456 4484 Pls
5463 4484 Pls
5469 4484 Pls
5475 4484 Pls
5481 4484 Pls
5488 4484 Pls
5494 4484 Pls
5500 4484 Pls
5507 4484 Pls
5513 4484 Pls
5519 4484 Pls
5526 4485 Pls
5532 4485 Pls
5538 4485 Pls
5545 4485 Pls
5551 4485 Pls
5557 4485 Pls
5564 4485 Pls
5570 4485 Pls
5576 4485 Pls
5583 4485 Pls
5589 4485 Pls
5595 4485 Pls
5601 4485 Pls
5608 4485 Pls
5614 4485 Pls
5620 4485 Pls
5627 4485 Pls
5633 4485 Pls
5639 4485 Pls
5646 4485 Pls
5652 4485 Pls
5658 4485 Pls
5665 4485 Pls
5671 4485 Pls
5677 4485 Pls
5684 4485 Pls
5690 4485 Pls
5696 4485 Pls
5703 4485 Pls
5709 4485 Pls
5715 4485 Pls
5722 4485 Pls
5728 4485 Pls
5734 4485 Pls
5740 4485 Pls
5747 4485 Pls
5753 4485 Pls
5759 4485 Pls
5766 4485 Pls
5772 4485 Pls
5778 4485 Pls
5785 4485 Pls
5791 4485 Pls
5797 4485 Pls
5804 4485 Pls
5810 4485 Pls
5816 4485 Pls
5823 4485 Pls
5829 4485 Pls
5835 4485 Pls
5842 4485 Pls
5848 4485 Pls
5854 4485 Pls
5860 4485 Pls
5867 4485 Pls
5873 4485 Pls
5879 4485 Pls
5886 4485 Pls
5892 4485 Pls
5898 4485 Pls
5905 4485 Pls
5911 4485 Pls
5917 4485 Pls
5924 4485 Pls
5930 4485 Pls
5936 4485 Pls
5943 4485 Pls
5949 4485 Pls
5955 4485 Pls
5962 4485 Pls
5968 4485 Pls
5974 4485 Pls
5980 4485 Pls
5987 4485 Pls
5993 4485 Pls
5999 4485 Pls
6006 4485 Pls
6012 4485 Pls
6018 4485 Pls
6025 4485 Pls
6031 4485 Pls
6037 4485 Pls
6044 4485 Pls
6050 4485 Pls
6056 4485 Pls
6063 4485 Pls
6069 4485 Pls
6075 4485 Pls
6082 4485 Pls
6088 4485 Pls
6094 4485 Pls
6101 4485 Pls
6107 4485 Pls
6113 4485 Pls
6119 4485 Pls
6126 4486 Pls
6132 4486 Pls
6138 4486 Pls
6145 4486 Pls
6151 4486 Pls
6157 4486 Pls
6164 4486 Pls
6170 4486 Pls
6176 4486 Pls
6183 4486 Pls
6189 4486 Pls
6195 4486 Pls
6202 4486 Pls
6208 4486 Pls
6214 4486 Pls
6221 4486 Pls
6227 4486 Pls
6233 4486 Pls
6239 4486 Pls
6246 4486 Pls
6252 4486 Pls
6258 4486 Pls
6265 4486 Pls
6271 4486 Pls
6277 4486 Pls
6284 4486 Pls
6290 4486 Pls
6296 4486 Pls
6303 4486 Pls
6309 4486 Pls
6315 4486 Pls
6322 4486 Pls
6328 4486 Pls
6334 4486 Pls
6341 4486 Pls
6347 4486 Pls
6353 4486 Pls
6360 4486 Pls
6366 4486 Pls
6372 4486 Pls
6378 4486 Pls
6385 4486 Pls
6391 4486 Pls
6397 4486 Pls
6404 4486 Pls
6410 4486 Pls
6416 4486 Pls
6423 4486 Pls
6429 4486 Pls
6435 4486 Pls
6442 4486 Pls
6448 4486 Pls
6454 4486 Pls
6461 4486 Pls
6467 4486 Pls
6473 4486 Pls
6480 4486 Pls
6486 4486 Pls
6492 4486 Pls
6498 4486 Pls
6505 4486 Pls
6511 4486 Pls
6517 4486 Pls
6524 4486 Pls
6530 4486 Pls
6536 4486 Pls
6543 4486 Pls
6549 4486 Pls
6555 4486 Pls
6562 4486 Pls
6568 4486 Pls
6574 4486 Pls
6581 4486 Pls
6587 4486 Pls
6593 4486 Pls
6600 4486 Pls
6606 4486 Pls
6612 4486 Pls
6619 4486 Pls
6625 4486 Pls
6631 4486 Pls
6637 4486 Pls
6644 4486 Pls
6650 4486 Pls
6656 4486 Pls
6663 4486 Pls
6669 4486 Pls
6675 4486 Pls
6682 4486 Pls
6688 4486 Pls
6694 4486 Pls
6701 4486 Pls
6707 4486 Pls
6713 4486 Pls
6720 4486 Pls
6726 4486 Pls
6732 4486 Pls
6739 4486 Pls
6745 4486 Pls
6751 4486 Pls
6757 4486 Pls
6764 4486 Pls
6770 4486 Pls
6776 4486 Pls
6783 4486 Pls
6789 4486 Pls
6795 4486 Pls
6802 4486 Pls
6808 4486 Pls
6814 4486 Pls
6821 4486 Pls
6827 4486 Pls
6833 4486 Pls
6840 4486 Pls
6846 4486 Pls
6852 4486 Pls
6859 4486 Pls
6865 4487 Pls
6871 4487 Pls
6878 4487 Pls
6884 4487 Pls
6890 4487 Pls
6896 4487 Pls
6903 4487 Pls
6909 4487 Pls
6915 4487 Pls
6922 4487 Pls
6928 4487 Pls
6934 4487 Pls
6941 4487 Pls
6947 4487 Pls
6579 4738 Pls
% End plot #1
% Begin plot #2
1.000 UP
1.000 UL
LT1
LCb setrgbcolor
6296 4598 M
[ [(Helvetica) 140.0 0.0 true true 0 (Suma2)]
] -46.7 MRshow
LT1
636 471 Crs
643 1906 Crs
649 2589 Crs
655 2988 Crs
662 3249 Crs
668 3432 Crs
674 3569 Crs
681 3675 Crs
687 3759 Crs
693 3827 Crs
699 3884 Crs
706 3931 Crs
712 3972 Crs
718 4008 Crs
725 4038 Crs
731 4066 Crs
737 4090 Crs
744 4111 Crs
750 4131 Crs
756 4148 Crs
763 4164 Crs
769 4178 Crs
775 4192 Crs
782 4204 Crs
788 4215 Crs
794 4226 Crs
801 4235 Crs
807 4244 Crs
813 4253 Crs
820 4260 Crs
826 4268 Crs
832 4275 Crs
838 4281 Crs
845 4287 Crs
851 4293 Crs
857 4299 Crs
864 4304 Crs
870 4309 Crs
876 4313 Crs
883 4318 Crs
889 4322 Crs
895 4326 Crs
902 4330 Crs
908 4333 Crs
914 4337 Crs
921 4340 Crs
927 4344 Crs
933 4347 Crs
940 4350 Crs
946 4352 Crs
952 4355 Crs
958 4358 Crs
965 4360 Crs
971 4363 Crs
977 4365 Crs
984 4367 Crs
990 4370 Crs
996 4372 Crs
1003 4374 Crs
1009 4376 Crs
1015 4378 Crs
1022 4379 Crs
1028 4381 Crs
1034 4383 Crs
1041 4385 Crs
1047 4386 Crs
1053 4388 Crs
1060 4389 Crs
1066 4391 Crs
1072 4392 Crs
1079 4394 Crs
1085 4395 Crs
1091 4396 Crs
1097 4398 Crs
1104 4399 Crs
1110 4400 Crs
1116 4401 Crs
1123 4403 Crs
1129 4404 Crs
1135 4405 Crs
1142 4406 Crs
1148 4407 Crs
1154 4408 Crs
1161 4409 Crs
1167 4410 Crs
1173 4411 Crs
1180 4412 Crs
1186 4413 Crs
1192 4414 Crs
1199 4415 Crs
1205 4416 Crs
1211 4416 Crs
1217 4417 Crs
1224 4418 Crs
1230 4419 Crs
1236 4420 Crs
1243 4420 Crs
1249 4421 Crs
1255 4422 Crs
1262 4423 Crs
1268 4423 Crs
1274 4424 Crs
1281 4425 Crs
1287 4425 Crs
1293 4426 Crs
1300 4427 Crs
1306 4427 Crs
1312 4428 Crs
1319 4428 Crs
1325 4429 Crs
1331 4430 Crs
1338 4430 Crs
1344 4431 Crs
1350 4431 Crs
1356 4432 Crs
1363 4432 Crs
1369 4433 Crs
1375 4433 Crs
1382 4434 Crs
1388 4434 Crs
1394 4435 Crs
1401 4435 Crs
1407 4436 Crs
1413 4436 Crs
1420 4437 Crs
1426 4437 Crs
1432 4438 Crs
1439 4438 Crs
1445 4438 Crs
1451 4439 Crs
1458 4439 Crs
1464 4440 Crs
1470 4440 Crs
1476 4441 Crs
1483 4441 Crs
1489 4441 Crs
1495 4442 Crs
1502 4442 Crs
1508 4442 Crs
1514 4443 Crs
1521 4443 Crs
1527 4444 Crs
1533 4444 Crs
1540 4444 Crs
1546 4445 Crs
1552 4445 Crs
1559 4445 Crs
1565 4446 Crs
1571 4446 Crs
1578 4446 Crs
1584 4446 Crs
1590 4447 Crs
1597 4447 Crs
1603 4447 Crs
1609 4448 Crs
1615 4448 Crs
1622 4448 Crs
1628 4449 Crs
1634 4449 Crs
1641 4449 Crs
1647 4449 Crs
1653 4450 Crs
1660 4450 Crs
1666 4450 Crs
1672 4450 Crs
1679 4451 Crs
1685 4451 Crs
1691 4451 Crs
1698 4451 Crs
1704 4452 Crs
1710 4452 Crs
1717 4452 Crs
1723 4452 Crs
1729 4453 Crs
1735 4453 Crs
1742 4453 Crs
1748 4453 Crs
1754 4454 Crs
1761 4454 Crs
1767 4454 Crs
1773 4454 Crs
1780 4455 Crs
1786 4455 Crs
1792 4455 Crs
1799 4455 Crs
1805 4455 Crs
1811 4456 Crs
1818 4456 Crs
1824 4456 Crs
1830 4456 Crs
1837 4456 Crs
1843 4457 Crs
1849 4457 Crs
1855 4457 Crs
1862 4457 Crs
1868 4457 Crs
1874 4457 Crs
1881 4458 Crs
1887 4458 Crs
1893 4458 Crs
1900 4458 Crs
1906 4458 Crs
1912 4459 Crs
1919 4459 Crs
1925 4459 Crs
1931 4459 Crs
1938 4459 Crs
1944 4459 Crs
1950 4460 Crs
1957 4460 Crs
1963 4460 Crs
1969 4460 Crs
1976 4460 Crs
1982 4460 Crs
1988 4461 Crs
1994 4461 Crs
2001 4461 Crs
2007 4461 Crs
2013 4461 Crs
2020 4461 Crs
2026 4461 Crs
2032 4462 Crs
2039 4462 Crs
2045 4462 Crs
2051 4462 Crs
2058 4462 Crs
2064 4462 Crs
2070 4462 Crs
2077 4463 Crs
2083 4463 Crs
2089 4463 Crs
2096 4463 Crs
2102 4463 Crs
2108 4463 Crs
2114 4463 Crs
2121 4463 Crs
2127 4464 Crs
2133 4464 Crs
2140 4464 Crs
2146 4464 Crs
2152 4464 Crs
2159 4464 Crs
2165 4464 Crs
2171 4464 Crs
2178 4465 Crs
2184 4465 Crs
2190 4465 Crs
2197 4465 Crs
2203 4465 Crs
2209 4465 Crs
2216 4465 Crs
2222 4465 Crs
2228 4465 Crs
2235 4466 Crs
2241 4466 Crs
2247 4466 Crs
2253 4466 Crs
2260 4466 Crs
2266 4466 Crs
2272 4466 Crs
2279 4466 Crs
2285 4466 Crs
2291 4467 Crs
2298 4467 Crs
2304 4467 Crs
2310 4467 Crs
2317 4467 Crs
2323 4467 Crs
2329 4467 Crs
2336 4467 Crs
2342 4467 Crs
2348 4467 Crs
2355 4468 Crs
2361 4468 Crs
2367 4468 Crs
2373 4468 Crs
2380 4468 Crs
2386 4468 Crs
2392 4468 Crs
2399 4468 Crs
2405 4468 Crs
2411 4468 Crs
2418 4468 Crs
2424 4469 Crs
2430 4469 Crs
2437 4469 Crs
2443 4469 Crs
2449 4469 Crs
2456 4469 Crs
2462 4469 Crs
2468 4469 Crs
2475 4469 Crs
2481 4469 Crs
2487 4469 Crs
2494 4470 Crs
2500 4470 Crs
2506 4470 Crs
2512 4470 Crs
2519 4470 Crs
2525 4470 Crs
2531 4470 Crs
2538 4470 Crs
2544 4470 Crs
2550 4470 Crs
2557 4470 Crs
2563 4470 Crs
2569 4470 Crs
2576 4471 Crs
2582 4471 Crs
2588 4471 Crs
2595 4471 Crs
2601 4471 Crs
2607 4471 Crs
2614 4471 Crs
2620 4471 Crs
2626 4471 Crs
2632 4471 Crs
2639 4471 Crs
2645 4471 Crs
2651 4471 Crs
2658 4471 Crs
2664 4472 Crs
2670 4472 Crs
2677 4472 Crs
2683 4472 Crs
2689 4472 Crs
2696 4472 Crs
2702 4472 Crs
2708 4472 Crs
2715 4472 Crs
2721 4472 Crs
2727 4472 Crs
2734 4472 Crs
2740 4472 Crs
2746 4472 Crs
2753 4472 Crs
2759 4473 Crs
2765 4473 Crs
2771 4473 Crs
2778 4473 Crs
2784 4473 Crs
2790 4473 Crs
2797 4473 Crs
2803 4473 Crs
2809 4473 Crs
2816 4473 Crs
2822 4473 Crs
2828 4473 Crs
2835 4473 Crs
2841 4473 Crs
2847 4473 Crs
2854 4473 Crs
2860 4473 Crs
2866 4474 Crs
2873 4474 Crs
2879 4474 Crs
2885 4474 Crs
2891 4474 Crs
2898 4474 Crs
2904 4474 Crs
2910 4474 Crs
2917 4474 Crs
2923 4474 Crs
2929 4474 Crs
2936 4474 Crs
2942 4474 Crs
2948 4474 Crs
2955 4474 Crs
2961 4474 Crs
2967 4474 Crs
2974 4474 Crs
2980 4475 Crs
2986 4475 Crs
2993 4475 Crs
2999 4475 Crs
3005 4475 Crs
3012 4475 Crs
3018 4475 Crs
3024 4475 Crs
3030 4475 Crs
3037 4475 Crs
3043 4475 Crs
3049 4475 Crs
3056 4475 Crs
3062 4475 Crs
3068 4475 Crs
3075 4475 Crs
3081 4475 Crs
3087 4475 Crs
3094 4475 Crs
3100 4475 Crs
3106 4475 Crs
3113 4476 Crs
3119 4476 Crs
3125 4476 Crs
3132 4476 Crs
3138 4476 Crs
3144 4476 Crs
3150 4476 Crs
3157 4476 Crs
3163 4476 Crs
3169 4476 Crs
3176 4476 Crs
3182 4476 Crs
3188 4476 Crs
3195 4476 Crs
3201 4476 Crs
3207 4476 Crs
3214 4476 Crs
3220 4476 Crs
3226 4476 Crs
3233 4476 Crs
3239 4476 Crs
3245 4476 Crs
3252 4476 Crs
3258 4477 Crs
3264 4477 Crs
3271 4477 Crs
3277 4477 Crs
3283 4477 Crs
3289 4477 Crs
3296 4477 Crs
3302 4477 Crs
3308 4477 Crs
3315 4477 Crs
3321 4477 Crs
3327 4477 Crs
3334 4477 Crs
3340 4477 Crs
3346 4477 Crs
3353 4477 Crs
3359 4477 Crs
3365 4477 Crs
3372 4477 Crs
3378 4477 Crs
3384 4477 Crs
3391 4477 Crs
3397 4477 Crs
3403 4477 Crs
3409 4477 Crs
3416 4478 Crs
3422 4478 Crs
3428 4478 Crs
3435 4478 Crs
3441 4478 Crs
3447 4478 Crs
3454 4478 Crs
3460 4478 Crs
3466 4478 Crs
3473 4478 Crs
3479 4478 Crs
3485 4478 Crs
3492 4478 Crs
3498 4478 Crs
3504 4478 Crs
3511 4478 Crs
3517 4478 Crs
3523 4478 Crs
3530 4478 Crs
3536 4478 Crs
3542 4478 Crs
3548 4478 Crs
3555 4478 Crs
3561 4478 Crs
3567 4478 Crs
3574 4478 Crs
3580 4478 Crs
3586 4478 Crs
3593 4478 Crs
3599 4479 Crs
3605 4479 Crs
3612 4479 Crs
3618 4479 Crs
3624 4479 Crs
3631 4479 Crs
3637 4479 Crs
3643 4479 Crs
3650 4479 Crs
3656 4479 Crs
3662 4479 Crs
3668 4479 Crs
3675 4479 Crs
3681 4479 Crs
3687 4479 Crs
3694 4479 Crs
3700 4479 Crs
3706 4479 Crs
3713 4479 Crs
3719 4479 Crs
3725 4479 Crs
3732 4479 Crs
3738 4479 Crs
3744 4479 Crs
3751 4479 Crs
3757 4479 Crs
3763 4479 Crs
3770 4479 Crs
3776 4479 Crs
3782 4479 Crs
3789 4479 Crs
3795 4479 Crs
3801 4480 Crs
3807 4480 Crs
3814 4480 Crs
3820 4480 Crs
3826 4480 Crs
3833 4480 Crs
3839 4480 Crs
3845 4480 Crs
3852 4480 Crs
3858 4480 Crs
3864 4480 Crs
3871 4480 Crs
3877 4480 Crs
3883 4480 Crs
3890 4480 Crs
3896 4480 Crs
3902 4480 Crs
3909 4480 Crs
3915 4480 Crs
3921 4480 Crs
3927 4480 Crs
3934 4480 Crs
3940 4480 Crs
3946 4480 Crs
3953 4480 Crs
3959 4480 Crs
3965 4480 Crs
3972 4480 Crs
3978 4480 Crs
3984 4480 Crs
3991 4480 Crs
3997 4480 Crs
4003 4480 Crs
4010 4480 Crs
4016 4480 Crs
4022 4480 Crs
4029 4480 Crs
4035 4480 Crs
4041 4480 Crs
4047 4481 Crs
4054 4481 Crs
4060 4481 Crs
4066 4481 Crs
4073 4481 Crs
4079 4481 Crs
4085 4481 Crs
4092 4481 Crs
4098 4481 Crs
4104 4481 Crs
4111 4481 Crs
4117 4481 Crs
4123 4481 Crs
4130 4481 Crs
4136 4481 Crs
4142 4481 Crs
4149 4481 Crs
4155 4481 Crs
4161 4481 Crs
4168 4481 Crs
4174 4481 Crs
4180 4481 Crs
4186 4481 Crs
4193 4481 Crs
4199 4481 Crs
4205 4481 Crs
4212 4481 Crs
4218 4481 Crs
4224 4481 Crs
4231 4481 Crs
4237 4481 Crs
4243 4481 Crs
4250 4481 Crs
4256 4481 Crs
4262 4481 Crs
4269 4481 Crs
4275 4481 Crs
4281 4481 Crs
4288 4481 Crs
4294 4481 Crs
4300 4481 Crs
4306 4481 Crs
4313 4481 Crs
4319 4481 Crs
4325 4482 Crs
4332 4482 Crs
4338 4482 Crs
4344 4482 Crs
4351 4482 Crs
4357 4482 Crs
4363 4482 Crs
4370 4482 Crs
4376 4482 Crs
4382 4482 Crs
4389 4482 Crs
4395 4482 Crs
4401 4482 Crs
4408 4482 Crs
4414 4482 Crs
4420 4482 Crs
4427 4482 Crs
4433 4482 Crs
4439 4482 Crs
4445 4482 Crs
4452 4482 Crs
4458 4482 Crs
4464 4482 Crs
4471 4482 Crs
4477 4482 Crs
4483 4482 Crs
4490 4482 Crs
4496 4482 Crs
4502 4482 Crs
4509 4482 Crs
4515 4482 Crs
4521 4482 Crs
4528 4482 Crs
4534 4482 Crs
4540 4482 Crs
4547 4482 Crs
4553 4482 Crs
4559 4482 Crs
4565 4482 Crs
4572 4482 Crs
4578 4482 Crs
4584 4482 Crs
4591 4482 Crs
4597 4482 Crs
4603 4482 Crs
4610 4482 Crs
4616 4482 Crs
4622 4482 Crs
4629 4482 Crs
4635 4482 Crs
4641 4482 Crs
4648 4482 Crs
4654 4483 Crs
4660 4483 Crs
4667 4483 Crs
4673 4483 Crs
4679 4483 Crs
4686 4483 Crs
4692 4483 Crs
4698 4483 Crs
4704 4483 Crs
4711 4483 Crs
4717 4483 Crs
4723 4483 Crs
4730 4483 Crs
4736 4483 Crs
4742 4483 Crs
4749 4483 Crs
4755 4483 Crs
4761 4483 Crs
4768 4483 Crs
4774 4483 Crs
4780 4483 Crs
4787 4483 Crs
4793 4483 Crs
4799 4483 Crs
4806 4483 Crs
4812 4483 Crs
4818 4483 Crs
4824 4483 Crs
4831 4483 Crs
4837 4483 Crs
4843 4483 Crs
4850 4483 Crs
4856 4483 Crs
4862 4483 Crs
4869 4483 Crs
4875 4483 Crs
4881 4483 Crs
4888 4483 Crs
4894 4483 Crs
4900 4483 Crs
4907 4483 Crs
4913 4483 Crs
4919 4483 Crs
4926 4483 Crs
4932 4483 Crs
4938 4483 Crs
4945 4483 Crs
4951 4483 Crs
4957 4483 Crs
4963 4483 Crs
4970 4483 Crs
4976 4483 Crs
4982 4483 Crs
4989 4483 Crs
4995 4483 Crs
5001 4483 Crs
5008 4483 Crs
5014 4483 Crs
5020 4483 Crs
5027 4483 Crs
5033 4483 Crs
5039 4483 Crs
5046 4484 Crs
5052 4484 Crs
5058 4484 Crs
5065 4484 Crs
5071 4484 Crs
5077 4484 Crs
5083 4484 Crs
5090 4484 Crs
5096 4484 Crs
5102 4484 Crs
5109 4484 Crs
5115 4484 Crs
5121 4484 Crs
5128 4484 Crs
5134 4484 Crs
5140 4484 Crs
5147 4484 Crs
5153 4484 Crs
5159 4484 Crs
5166 4484 Crs
5172 4484 Crs
5178 4484 Crs
5185 4484 Crs
5191 4484 Crs
5197 4484 Crs
5204 4484 Crs
5210 4484 Crs
5216 4484 Crs
5222 4484 Crs
5229 4484 Crs
5235 4484 Crs
5241 4484 Crs
5248 4484 Crs
5254 4484 Crs
5260 4484 Crs
5267 4484 Crs
5273 4484 Crs
5279 4484 Crs
5286 4484 Crs
5292 4484 Crs
5298 4484 Crs
5305 4484 Crs
5311 4484 Crs
5317 4484 Crs
5324 4484 Crs
5330 4484 Crs
5336 4484 Crs
5342 4484 Crs
5349 4484 Crs
5355 4484 Crs
5361 4484 Crs
5368 4484 Crs
5374 4484 Crs
5380 4484 Crs
5387 4484 Crs
5393 4484 Crs
5399 4484 Crs
5406 4484 Crs
5412 4484 Crs
5418 4484 Crs
5425 4484 Crs
5431 4484 Crs
5437 4484 Crs
5444 4484 Crs
5450 4484 Crs
5456 4484 Crs
5463 4484 Crs
5469 4484 Crs
5475 4484 Crs
5481 4484 Crs
5488 4484 Crs
5494 4484 Crs
5500 4484 Crs
5507 4484 Crs
5513 4484 Crs
5519 4484 Crs
5526 4485 Crs
5532 4485 Crs
5538 4485 Crs
5545 4485 Crs
5551 4485 Crs
5557 4485 Crs
5564 4485 Crs
5570 4485 Crs
5576 4485 Crs
5583 4485 Crs
5589 4485 Crs
5595 4485 Crs
5601 4485 Crs
5608 4485 Crs
5614 4485 Crs
5620 4485 Crs
5627 4485 Crs
5633 4485 Crs
5639 4485 Crs
5646 4485 Crs
5652 4485 Crs
5658 4485 Crs
5665 4485 Crs
5671 4485 Crs
5677 4485 Crs
5684 4485 Crs
5690 4485 Crs
5696 4485 Crs
5703 4485 Crs
5709 4485 Crs
5715 4485 Crs
5722 4485 Crs
5728 4485 Crs
5734 4485 Crs
5740 4485 Crs
5747 4485 Crs
5753 4485 Crs
5759 4485 Crs
5766 4485 Crs
5772 4485 Crs
5778 4485 Crs
5785 4485 Crs
5791 4485 Crs
5797 4485 Crs
5804 4485 Crs
5810 4485 Crs
5816 4485 Crs
5823 4485 Crs
5829 4485 Crs
5835 4485 Crs
5842 4485 Crs
5848 4485 Crs
5854 4485 Crs
5860 4485 Crs
5867 4485 Crs
5873 4485 Crs
5879 4485 Crs
5886 4485 Crs
5892 4485 Crs
5898 4485 Crs
5905 4485 Crs
5911 4485 Crs
5917 4485 Crs
5924 4485 Crs
5930 4485 Crs
5936 4485 Crs
5943 4485 Crs
5949 4485 Crs
5955 4485 Crs
5962 4485 Crs
5968 4485 Crs
5974 4485 Crs
5980 4485 Crs
5987 4485 Crs
5993 4485 Crs
5999 4485 Crs
6006 4485 Crs
6012 4485 Crs
6018 4485 Crs
6025 4485 Crs
6031 4485 Crs
6037 4485 Crs
6044 4485 Crs
6050 4485 Crs
6056 4485 Crs
6063 4485 Crs
6069 4485 Crs
6075 4485 Crs
6082 4485 Crs
6088 4485 Crs
6094 4485 Crs
6101 4485 Crs
6107 4485 Crs
6113 4485 Crs
6119 4485 Crs
6126 4486 Crs
6132 4486 Crs
6138 4486 Crs
6145 4486 Crs
6151 4486 Crs
6157 4486 Crs
6164 4486 Crs
6170 4486 Crs
6176 4486 Crs
6183 4486 Crs
6189 4486 Crs
6195 4486 Crs
6202 4486 Crs
6208 4486 Crs
6214 4486 Crs
6221 4486 Crs
6227 4486 Crs
6233 4486 Crs
6239 4486 Crs
6246 4486 Crs
6252 4486 Crs
6258 4486 Crs
6265 4486 Crs
6271 4486 Crs
6277 4486 Crs
6284 4486 Crs
6290 4486 Crs
6296 4486 Crs
6303 4486 Crs
6309 4486 Crs
6315 4486 Crs
6322 4486 Crs
6328 4486 Crs
6334 4486 Crs
6341 4486 Crs
6347 4486 Crs
6353 4486 Crs
6360 4486 Crs
6366 4486 Crs
6372 4486 Crs
6378 4486 Crs
6385 4486 Crs
6391 4486 Crs
6397 4486 Crs
6404 4486 Crs
6410 4486 Crs
6416 4486 Crs
6423 4486 Crs
6429 4486 Crs
6435 4486 Crs
6442 4486 Crs
6448 4486 Crs
6454 4486 Crs
6461 4486 Crs
6467 4486 Crs
6473 4486 Crs
6480 4486 Crs
6486 4486 Crs
6492 4486 Crs
6498 4486 Crs
6505 4486 Crs
6511 4486 Crs
6517 4486 Crs
6524 4486 Crs
6530 4486 Crs
6536 4486 Crs
6543 4486 Crs
6549 4486 Crs
6555 4486 Crs
6562 4486 Crs
6568 4486 Crs
6574 4486 Crs
6581 4486 Crs
6587 4486 Crs
6593 4486 Crs
6600 4486 Crs
6606 4486 Crs
6612 4486 Crs
6619 4486 Crs
6625 4486 Crs
6631 4486 Crs
6637 4486 Crs
6644 4486 Crs
6650 4486 Crs
6656 4486 Crs
6663 4486 Crs
6669 4486 Crs
6675 4486 Crs
6682 4486 Crs
6688 4486 Crs
6694 4486 Crs
6701 4486 Crs
6707 4486 Crs
6713 4486 Crs
6720 4486 Crs
6726 4486 Crs
6732 4486 Crs
6739 4486 Crs
6745 4486 Crs
6751 4486 Crs
6757 4486 Crs
6764 4486 Crs
6770 4486 Crs
6776 4486 Crs
6783 4486 Crs
6789 4486 Crs
6795 4486 Crs
6802 4486 Crs
6808 4486 Crs
6814 4486 Crs
6821 4486 Crs
6827 4486 Crs
6833 4486 Crs
6840 4486 Crs
6846 4486 Crs
6852 4486 Crs
6859 4486 Crs
6865 4487 Crs
6871 4487 Crs
6878 4487 Crs
6884 4487 Crs
6890 4487 Crs
6896 4487 Crs
6903 4487 Crs
6909 4487 Crs
6915 4487 Crs
6922 4487 Crs
6928 4487 Crs
6934 4487 Crs
6941 4487 Crs
6947 4487 Crs
6579 4598 Crs
% End plot #2
% Begin plot #3
1.000 UP
1.000 UL
LT2
LCb setrgbcolor
6296 4458 M
[ [(Helvetica) 140.0 0.0 true true 0 (Suma3)]
] -46.7 MRshow
LT2
636 471 Star
643 1906 Star
649 2589 Star
655 2988 Star
662 3249 Star
668 3432 Star
674 3569 Star
681 3675 Star
687 3759 Star
693 3827 Star
699 3884 Star
706 3931 Star
712 3972 Star
718 4008 Star
725 4038 Star
731 4066 Star
737 4090 Star
744 4111 Star
750 4131 Star
756 4148 Star
763 4164 Star
769 4178 Star
775 4192 Star
782 4204 Star
788 4215 Star
794 4226 Star
801 4235 Star
807 4244 Star
813 4253 Star
820 4260 Star
826 4268 Star
832 4275 Star
838 4281 Star
845 4287 Star
851 4293 Star
857 4299 Star
864 4304 Star
870 4309 Star
876 4313 Star
883 4318 Star
889 4322 Star
895 4326 Star
902 4330 Star
908 4333 Star
914 4337 Star
921 4340 Star
927 4344 Star
933 4347 Star
940 4350 Star
946 4352 Star
952 4355 Star
958 4358 Star
965 4360 Star
971 4363 Star
977 4365 Star
984 4367 Star
990 4370 Star
996 4372 Star
1003 4374 Star
1009 4376 Star
1015 4378 Star
1022 4379 Star
1028 4381 Star
1034 4383 Star
1041 4385 Star
1047 4386 Star
1053 4388 Star
1060 4389 Star
1066 4391 Star
1072 4392 Star
1079 4394 Star
1085 4395 Star
1091 4396 Star
1097 4398 Star
1104 4399 Star
1110 4400 Star
1116 4401 Star
1123 4403 Star
1129 4404 Star
1135 4405 Star
1142 4406 Star
1148 4407 Star
1154 4408 Star
1161 4409 Star
1167 4410 Star
1173 4411 Star
1180 4412 Star
1186 4413 Star
1192 4414 Star
1199 4415 Star
1205 4416 Star
1211 4416 Star
1217 4417 Star
1224 4418 Star
1230 4419 Star
1236 4420 Star
1243 4420 Star
1249 4421 Star
1255 4422 Star
1262 4423 Star
1268 4423 Star
1274 4424 Star
1281 4425 Star
1287 4425 Star
1293 4426 Star
1300 4427 Star
1306 4427 Star
1312 4428 Star
1319 4428 Star
1325 4429 Star
1331 4430 Star
1338 4430 Star
1344 4431 Star
1350 4431 Star
1356 4432 Star
1363 4432 Star
1369 4433 Star
1375 4433 Star
1382 4434 Star
1388 4434 Star
1394 4435 Star
1401 4435 Star
1407 4436 Star
1413 4436 Star
1420 4437 Star
1426 4437 Star
1432 4438 Star
1439 4438 Star
1445 4438 Star
1451 4439 Star
1458 4439 Star
1464 4440 Star
1470 4440 Star
1476 4441 Star
1483 4441 Star
1489 4441 Star
1495 4442 Star
1502 4442 Star
1508 4442 Star
1514 4443 Star
1521 4443 Star
1527 4443 Star
1533 4444 Star
1540 4444 Star
1546 4445 Star
1552 4445 Star
1559 4445 Star
1565 4446 Star
1571 4446 Star
1578 4446 Star
1584 4446 Star
1590 4447 Star
1597 4447 Star
1603 4447 Star
1609 4448 Star
1615 4448 Star
1622 4448 Star
1628 4449 Star
1634 4449 Star
1641 4449 Star
1647 4449 Star
1653 4450 Star
1660 4450 Star
1666 4450 Star
1672 4450 Star
1679 4451 Star
1685 4451 Star
1691 4451 Star
1698 4451 Star
1704 4452 Star
1710 4452 Star
1717 4452 Star
1723 4452 Star
1729 4453 Star
1735 4453 Star
1742 4453 Star
1748 4453 Star
1754 4454 Star
1761 4454 Star
1767 4454 Star
1773 4454 Star
1780 4455 Star
1786 4455 Star
1792 4455 Star
1799 4455 Star
1805 4455 Star
1811 4456 Star
1818 4456 Star
1824 4456 Star
1830 4456 Star
1837 4456 Star
1843 4457 Star
1849 4457 Star
1855 4457 Star
1862 4457 Star
1868 4457 Star
1874 4457 Star
1881 4458 Star
1887 4458 Star
1893 4458 Star
1900 4458 Star
1906 4458 Star
1912 4459 Star
1919 4459 Star
1925 4459 Star
1931 4459 Star
1938 4459 Star
1944 4459 Star
1950 4460 Star
1957 4460 Star
1963 4460 Star
1969 4460 Star
1976 4460 Star
1982 4460 Star
1988 4461 Star
1994 4461 Star
2001 4461 Star
2007 4461 Star
2013 4461 Star
2020 4461 Star
2026 4461 Star
2032 4462 Star
2039 4462 Star
2045 4462 Star
2051 4462 Star
2058 4462 Star
2064 4462 Star
2070 4462 Star
2077 4463 Star
2083 4463 Star
2089 4463 Star
2096 4463 Star
2102 4463 Star
2108 4463 Star
2114 4463 Star
2121 4463 Star
2127 4464 Star
2133 4464 Star
2140 4464 Star
2146 4464 Star
2152 4464 Star
2159 4464 Star
2165 4464 Star
2171 4464 Star
2178 4465 Star
2184 4465 Star
2190 4465 Star
2197 4465 Star
2203 4465 Star
2209 4465 Star
2216 4465 Star
2222 4465 Star
2228 4465 Star
2235 4466 Star
2241 4466 Star
2247 4466 Star
2253 4466 Star
2260 4466 Star
2266 4466 Star
2272 4466 Star
2279 4466 Star
2285 4466 Star
2291 4467 Star
2298 4467 Star
2304 4467 Star
2310 4467 Star
2317 4467 Star
2323 4467 Star
2329 4467 Star
2336 4467 Star
2342 4467 Star
2348 4467 Star
2355 4468 Star
2361 4468 Star
2367 4468 Star
2373 4468 Star
2380 4468 Star
2386 4468 Star
2392 4468 Star
2399 4468 Star
2405 4468 Star
2411 4468 Star
2418 4468 Star
2424 4469 Star
2430 4469 Star
2437 4469 Star
2443 4469 Star
2449 4469 Star
2456 4469 Star
2462 4469 Star
2468 4469 Star
2475 4469 Star
2481 4469 Star
2487 4469 Star
2494 4470 Star
2500 4470 Star
2506 4470 Star
2512 4470 Star
2519 4470 Star
2525 4470 Star
2531 4470 Star
2538 4470 Star
2544 4470 Star
2550 4470 Star
2557 4470 Star
2563 4470 Star
2569 4470 Star
2576 4471 Star
2582 4471 Star
2588 4471 Star
2595 4471 Star
2601 4471 Star
2607 4471 Star
2614 4471 Star
2620 4471 Star
2626 4471 Star
2632 4471 Star
2639 4471 Star
2645 4471 Star
2651 4471 Star
2658 4471 Star
2664 4472 Star
2670 4472 Star
2677 4472 Star
2683 4472 Star
2689 4472 Star
2696 4472 Star
2702 4472 Star
2708 4472 Star
2715 4472 Star
2721 4472 Star
2727 4472 Star
2734 4472 Star
2740 4472 Star
2746 4472 Star
2753 4472 Star
2759 4473 Star
2765 4473 Star
2771 4473 Star
2778 4473 Star
2784 4473 Star
2790 4473 Star
2797 4473 Star
2803 4473 Star
2809 4473 Star
2816 4473 Star
2822 4473 Star
2828 4473 Star
2835 4473 Star
2841 4473 Star
2847 4473 Star
2854 4473 Star
2860 4473 Star
2866 4474 Star
2873 4474 Star
2879 4474 Star
2885 4474 Star
2891 4474 Star
2898 4474 Star
2904 4474 Star
2910 4474 Star
2917 4474 Star
2923 4474 Star
2929 4474 Star
2936 4474 Star
2942 4474 Star
2948 4474 Star
2955 4474 Star
2961 4474 Star
2967 4474 Star
2974 4474 Star
2980 4475 Star
2986 4475 Star
2993 4475 Star
2999 4475 Star
3005 4475 Star
3012 4475 Star
3018 4475 Star
3024 4475 Star
3030 4475 Star
3037 4475 Star
3043 4475 Star
3049 4475 Star
3056 4475 Star
3062 4475 Star
3068 4475 Star
3075 4475 Star
3081 4475 Star
3087 4475 Star
3094 4475 Star
3100 4475 Star
3106 4475 Star
3113 4476 Star
3119 4476 Star
3125 4476 Star
3132 4476 Star
3138 4476 Star
3144 4476 Star
3150 4476 Star
3157 4476 Star
3163 4476 Star
3169 4476 Star
3176 4476 Star
3182 4476 Star
3188 4476 Star
3195 4476 Star
3201 4476 Star
3207 4476 Star
3214 4476 Star
3220 4476 Star
3226 4476 Star
3233 4476 Star
3239 4476 Star
3245 4476 Star
3252 4477 Star
3258 4477 Star
3264 4477 Star
3271 4477 Star
3277 4477 Star
3283 4477 Star
3289 4477 Star
3296 4477 Star
3302 4477 Star
3308 4477 Star
3315 4477 Star
3321 4477 Star
3327 4477 Star
3334 4477 Star
3340 4477 Star
3346 4477 Star
3353 4477 Star
3359 4477 Star
3365 4477 Star
3372 4477 Star
3378 4477 Star
3384 4477 Star
3391 4477 Star
3397 4477 Star
3403 4477 Star
3409 4477 Star
3416 4478 Star
3422 4478 Star
3428 4478 Star
3435 4478 Star
3441 4478 Star
3447 4478 Star
3454 4478 Star
3460 4478 Star
3466 4478 Star
3473 4478 Star
3479 4478 Star
3485 4478 Star
3492 4478 Star
3498 4478 Star
3504 4478 Star
3511 4478 Star
3517 4478 Star
3523 4478 Star
3530 4478 Star
3536 4478 Star
3542 4478 Star
3548 4478 Star
3555 4478 Star
3561 4478 Star
3567 4478 Star
3574 4478 Star
3580 4478 Star
3586 4478 Star
3593 4478 Star
3599 4479 Star
3605 4479 Star
3612 4479 Star
3618 4479 Star
3624 4479 Star
3631 4479 Star
3637 4479 Star
3643 4479 Star
3650 4479 Star
3656 4479 Star
3662 4479 Star
3668 4479 Star
3675 4479 Star
3681 4479 Star
3687 4479 Star
3694 4479 Star
3700 4479 Star
3706 4479 Star
3713 4479 Star
3719 4479 Star
3725 4479 Star
3732 4479 Star
3738 4479 Star
3744 4479 Star
3751 4479 Star
3757 4479 Star
3763 4479 Star
3770 4479 Star
3776 4479 Star
3782 4479 Star
3789 4479 Star
3795 4479 Star
3801 4480 Star
3807 4480 Star
3814 4480 Star
3820 4480 Star
3826 4480 Star
3833 4480 Star
3839 4480 Star
3845 4480 Star
3852 4480 Star
3858 4480 Star
3864 4480 Star
3871 4480 Star
3877 4480 Star
3883 4480 Star
3890 4480 Star
3896 4480 Star
3902 4480 Star
3909 4480 Star
3915 4480 Star
3921 4480 Star
3927 4480 Star
3934 4480 Star
3940 4480 Star
3946 4480 Star
3953 4480 Star
3959 4480 Star
3965 4480 Star
3972 4480 Star
3978 4480 Star
3984 4480 Star
3991 4480 Star
3997 4480 Star
4003 4480 Star
4010 4480 Star
4016 4480 Star
4022 4480 Star
4029 4480 Star
4035 4480 Star
4041 4481 Star
4047 4481 Star
4054 4481 Star
4060 4481 Star
4066 4481 Star
4073 4481 Star
4079 4481 Star
4085 4481 Star
4092 4481 Star
4098 4481 Star
4104 4481 Star
4111 4481 Star
4117 4481 Star
4123 4481 Star
4130 4481 Star
4136 4481 Star
4142 4481 Star
4149 4481 Star
4155 4481 Star
4161 4481 Star
4168 4481 Star
4174 4481 Star
4180 4481 Star
4186 4481 Star
4193 4481 Star
4199 4481 Star
4205 4481 Star
4212 4481 Star
4218 4481 Star
4224 4481 Star
4231 4481 Star
4237 4481 Star
4243 4481 Star
4250 4481 Star
4256 4481 Star
4262 4481 Star
4269 4481 Star
4275 4481 Star
4281 4481 Star
4288 4481 Star
4294 4481 Star
4300 4481 Star
4306 4481 Star
4313 4481 Star
4319 4481 Star
4325 4482 Star
4332 4482 Star
4338 4482 Star
4344 4482 Star
4351 4482 Star
4357 4482 Star
4363 4482 Star
4370 4482 Star
4376 4482 Star
4382 4482 Star
4389 4482 Star
4395 4482 Star
4401 4482 Star
4408 4482 Star
4414 4482 Star
4420 4482 Star
4427 4482 Star
4433 4482 Star
4439 4482 Star
4445 4482 Star
4452 4482 Star
4458 4482 Star
4464 4482 Star
4471 4482 Star
4477 4482 Star
4483 4482 Star
4490 4482 Star
4496 4482 Star
4502 4482 Star
4509 4482 Star
4515 4482 Star
4521 4482 Star
4528 4482 Star
4534 4482 Star
4540 4482 Star
4547 4482 Star
4553 4482 Star
4559 4482 Star
4565 4482 Star
4572 4482 Star
4578 4482 Star
4584 4482 Star
4591 4482 Star
4597 4482 Star
4603 4482 Star
4610 4482 Star
4616 4482 Star
4622 4482 Star
4629 4482 Star
4635 4482 Star
4641 4482 Star
4648 4482 Star
4654 4483 Star
4660 4483 Star
4667 4483 Star
4673 4483 Star
4679 4483 Star
4686 4483 Star
4692 4483 Star
4698 4483 Star
4704 4483 Star
4711 4483 Star
4717 4483 Star
4723 4483 Star
4730 4483 Star
4736 4483 Star
4742 4483 Star
4749 4483 Star
4755 4483 Star
4761 4483 Star
4768 4483 Star
4774 4483 Star
4780 4483 Star
4787 4483 Star
4793 4483 Star
4799 4483 Star
4806 4483 Star
4812 4483 Star
4818 4483 Star
4824 4483 Star
4831 4483 Star
4837 4483 Star
4843 4483 Star
4850 4483 Star
4856 4483 Star
4862 4483 Star
4869 4483 Star
4875 4483 Star
4881 4483 Star
4888 4483 Star
4894 4483 Star
4900 4483 Star
4907 4483 Star
4913 4483 Star
4919 4483 Star
4926 4483 Star
4932 4483 Star
4938 4483 Star
4945 4483 Star
4951 4483 Star
4957 4483 Star
4963 4483 Star
4970 4483 Star
4976 4483 Star
4982 4483 Star
4989 4483 Star
4995 4483 Star
5001 4483 Star
5008 4483 Star
5014 4483 Star
5020 4483 Star
5027 4483 Star
5033 4483 Star
5039 4483 Star
5046 4484 Star
5052 4484 Star
5058 4484 Star
5065 4484 Star
5071 4484 Star
5077 4484 Star
5083 4484 Star
5090 4484 Star
5096 4484 Star
5102 4484 Star
5109 4484 Star
5115 4484 Star
5121 4484 Star
5128 4484 Star
5134 4484 Star
5140 4484 Star
5147 4484 Star
5153 4484 Star
5159 4484 Star
5166 4484 Star
5172 4484 Star
5178 4484 Star
5185 4484 Star
5191 4484 Star
5197 4484 Star
5204 4484 Star
5210 4484 Star
5216 4484 Star
5222 4484 Star
5229 4484 Star
5235 4484 Star
5241 4484 Star
5248 4484 Star
5254 4484 Star
5260 4484 Star
5267 4484 Star
5273 4484 Star
5279 4484 Star
5286 4484 Star
5292 4484 Star
5298 4484 Star
5305 4484 Star
5311 4484 Star
5317 4484 Star
5324 4484 Star
5330 4484 Star
5336 4484 Star
5342 4484 Star
5349 4484 Star
5355 4484 Star
5361 4484 Star
5368 4484 Star
5374 4484 Star
5380 4484 Star
5387 4484 Star
5393 4484 Star
5399 4484 Star
5406 4484 Star
5412 4484 Star
5418 4484 Star
5425 4484 Star
5431 4484 Star
5437 4484 Star
5444 4484 Star
5450 4484 Star
5456 4484 Star
5463 4484 Star
5469 4484 Star
5475 4484 Star
5481 4484 Star
5488 4484 Star
5494 4484 Star
5500 4484 Star
5507 4484 Star
5513 4484 Star
5519 4484 Star
5526 4485 Star
5532 4485 Star
5538 4485 Star
5545 4485 Star
5551 4485 Star
5557 4485 Star
5564 4485 Star
5570 4485 Star
5576 4485 Star
5583 4485 Star
5589 4485 Star
5595 4485 Star
5601 4485 Star
5608 4485 Star
5614 4485 Star
5620 4485 Star
5627 4485 Star
5633 4485 Star
5639 4485 Star
5646 4485 Star
5652 4485 Star
5658 4485 Star
5665 4485 Star
5671 4485 Star
5677 4485 Star
5684 4485 Star
5690 4485 Star
5696 4485 Star
5703 4485 Star
5709 4485 Star
5715 4485 Star
5722 4485 Star
5728 4485 Star
5734 4485 Star
5740 4485 Star
5747 4485 Star
5753 4485 Star
5759 4485 Star
5766 4485 Star
5772 4485 Star
5778 4485 Star
5785 4485 Star
5791 4485 Star
5797 4485 Star
5804 4485 Star
5810 4485 Star
5816 4485 Star
5823 4485 Star
5829 4485 Star
5835 4485 Star
5842 4485 Star
5848 4485 Star
5854 4485 Star
5860 4485 Star
5867 4485 Star
5873 4485 Star
5879 4485 Star
5886 4485 Star
5892 4485 Star
5898 4485 Star
5905 4485 Star
5911 4485 Star
5917 4485 Star
5924 4485 Star
5930 4485 Star
5936 4485 Star
5943 4485 Star
5949 4485 Star
5955 4485 Star
5962 4485 Star
5968 4485 Star
5974 4485 Star
5980 4485 Star
5987 4485 Star
5993 4485 Star
5999 4485 Star
6006 4485 Star
6012 4485 Star
6018 4485 Star
6025 4485 Star
6031 4485 Star
6037 4485 Star
6044 4485 Star
6050 4485 Star
6056 4485 Star
6063 4485 Star
6069 4485 Star
6075 4485 Star
6082 4485 Star
6088 4485 Star
6094 4485 Star
6101 4485 Star
6107 4485 Star
6113 4485 Star
6119 4485 Star
6126 4486 Star
6132 4486 Star
6138 4486 Star
6145 4486 Star
6151 4486 Star
6157 4486 Star
6164 4486 Star
6170 4486 Star
6176 4486 Star
6183 4486 Star
6189 4486 Star
6195 4486 Star
6202 4486 Star
6208 4486 Star
6214 4486 Star
6221 4486 Star
6227 4486 Star
6233 4486 Star
6239 4486 Star
6246 4486 Star
6252 4486 Star
6258 4486 Star
6265 4486 Star
6271 4486 Star
6277 4486 Star
6284 4486 Star
6290 4486 Star
6296 4486 Star
6303 4486 Star
6309 4486 Star
6315 4486 Star
6322 4486 Star
6328 4486 Star
6334 4486 Star
6341 4486 Star
6347 4486 Star
6353 4486 Star
6360 4486 Star
6366 4486 Star
6372 4486 Star
6378 4486 Star
6385 4486 Star
6391 4486 Star
6397 4486 Star
6404 4486 Star
6410 4486 Star
6416 4486 Star
6423 4486 Star
6429 4486 Star
6435 4486 Star
6442 4486 Star
6448 4486 Star
6454 4486 Star
6461 4486 Star
6467 4486 Star
6473 4486 Star
6480 4486 Star
6486 4486 Star
6492 4486 Star
6498 4486 Star
6505 4486 Star
6511 4486 Star
6517 4486 Star
6524 4486 Star
6530 4486 Star
6536 4486 Star
6543 4486 Star
6549 4486 Star
6555 4486 Star
6562 4486 Star
6568 4486 Star
6574 4486 Star
6581 4486 Star
6587 4486 Star
6593 4486 Star
6600 4486 Star
6606 4486 Star
6612 4486 Star
6619 4486 Star
6625 4486 Star
6631 4486 Star
6637 4486 Star
6644 4486 Star
6650 4486 Star
6656 4486 Star
6663 4486 Star
6669 4486 Star
6675 4486 Star
6682 4486 Star
6688 4486 Star
6694 4486 Star
6701 4486 Star
6707 4486 Star
6713 4486 Star
6720 4486 Star
6726 4486 Star
6732 4486 Star
6739 4486 Star
6745 4486 Star
6751 4486 Star
6757 4486 Star
6764 4486 Star
6770 4486 Star
6776 4486 Star
6783 4486 Star
6789 4486 Star
6795 4486 Star
6802 4486 Star
6808 4486 Star
6814 4486 Star
6821 4486 Star
6827 4486 Star
6833 4486 Star
6840 4486 Star
6846 4486 Star
6852 4486 Star
6859 4487 Star
6865 4487 Star
6871 4487 Star
6878 4487 Star
6884 4487 Star
6890 4487 Star
6896 4487 Star
6903 4487 Star
6909 4487 Star
6915 4487 Star
6922 4487 Star
6928 4487 Star
6934 4487 Star
6941 4487 Star
6947 4487 Star
6579 4458 Star
% End plot #3
1.000 UL
LTb
630 4871 N
630 280 L
6317 0 V
0 4591 V
-6317 0 V
Z stroke
1.000 UP
1.000 UL
LTb
stroke
grestore
end
showpage
%%Trailer
%%DocumentFonts: Helvetica
